[0.908s] DEBUG:colcon:Command line arguments: ['/usr/bin/colcon', 'build']
[0.908s] DEBUG:colcon:Parsed command line arguments: Namespace(log_base=None, log_level=None, verb_name='build', build_base='build', install_base='install', merge_install=False, symlink_install=False, test_result_base=None, continue_on_error=False, executor='parallel', parallel_workers=8, event_handlers=None, ignore_user_meta=False, metas=['./colcon.meta'], base_paths=['.'], packages_ignore=None, packages_ignore_regex=None, paths=None, packages_up_to=None, packages_up_to_regex=None, packages_above=None, packages_above_and_dependencies=None, packages_above_depth=None, packages_select_by_dep=None, packages_skip_by_dep=None, packages_skip_up_to=None, packages_select_build_failed=False, packages_skip_build_finished=False, packages_select_test_failures=False, packages_skip_test_passed=False, packages_select=None, packages_skip=None, packages_select_regex=None, packages_skip_regex=None, packages_start=None, packages_end=None, allow_overriding=[], cmake_args=None, cmake_target=None, cmake_target_skip_unavailable=False, cmake_clean_cache=False, cmake_clean_first=False, cmake_force_configure=False, ament_cmake_args=None, catkin_cmake_args=None, catkin_skip_building_tests=False, verb_parser=<colcon_defaults.argument_parser.defaults.DefaultArgumentsDecorator object at 0x7f93cc2372e0>, verb_extension=<colcon_core.verb.build.BuildVerb object at 0x7f93cc237850>, main=<bound method BuildVerb.main of <colcon_core.verb.build.BuildVerb object at 0x7f93cc237850>>)
[0.947s] Level 1:colcon.colcon_core.package_discovery:discover_packages(colcon_meta) check parameters
[0.947s] Level 1:colcon.colcon_core.package_discovery:discover_packages(recursive) check parameters
[0.947s] Level 1:colcon.colcon_core.package_discovery:discover_packages(ignore) check parameters
[0.947s] Level 1:colcon.colcon_core.package_discovery:discover_packages(path) check parameters
[0.947s] Level 1:colcon.colcon_core.package_discovery:discover_packages(colcon_meta) discover
[0.947s] Level 1:colcon.colcon_core.package_discovery:discover_packages(recursive) discover
[0.947s] INFO:colcon.colcon_core.package_discovery:Crawling recursively for packages in '/home/umrob/M2/ros-2-planar-robot-p-3'
[0.947s] Level 1:colcon.colcon_core.package_identification:_identify(.) by extensions ['ignore', 'ignore_ament_install']
[0.948s] Level 1:colcon.colcon_core.package_identification:_identify(.) by extension 'ignore'
[0.948s] Level 1:colcon.colcon_core.package_identification:_identify(.) by extension 'ignore_ament_install'
[0.948s] Level 1:colcon.colcon_core.package_identification:_identify(.) by extensions ['colcon_pkg']
[0.948s] Level 1:colcon.colcon_core.package_identification:_identify(.) by extension 'colcon_pkg'
[0.948s] Level 1:colcon.colcon_core.package_identification:_identify(.) by extensions ['colcon_meta']
[0.948s] Level 1:colcon.colcon_core.package_identification:_identify(.) by extension 'colcon_meta'
[0.948s] Level 1:colcon.colcon_core.package_identification:_identify(.) by extensions ['ros']
[0.948s] Level 1:colcon.colcon_core.package_identification:_identify(.) by extension 'ros'
[0.960s] DEBUG:colcon.colcon_core.package_identification:Package '.' with type 'ros.ament_cmake' and name 'ros2_planar_robot'
[0.960s] Level 1:colcon.colcon_core.package_discovery:discover_packages(recursive) using defaults
[0.960s] Level 1:colcon.colcon_core.package_discovery:discover_packages(ignore) discover
[0.960s] Level 1:colcon.colcon_core.package_discovery:discover_packages(ignore) using defaults
[0.960s] Level 1:colcon.colcon_core.package_discovery:discover_packages(path) discover
[0.960s] Level 1:colcon.colcon_core.package_discovery:discover_packages(path) using defaults
[1.038s] Level 1:colcon.colcon_core.package_discovery:discover_packages(prefix_path) check parameters
[1.038s] Level 1:colcon.colcon_core.package_discovery:discover_packages(prefix_path) discover
[1.064s] DEBUG:colcon.colcon_installed_package_information.package_discovery:Found 270 installed packages in /opt/ros/humble
[1.065s] Level 1:colcon.colcon_core.package_discovery:discover_packages(prefix_path) using defaults
[1.142s] Level 5:colcon.colcon_core.verb:set package 'ros2_planar_robot' build argument 'cmake_args' from command line to 'None'
[1.142s] Level 5:colcon.colcon_core.verb:set package 'ros2_planar_robot' build argument 'cmake_target' from command line to 'None'
[1.142s] Level 5:colcon.colcon_core.verb:set package 'ros2_planar_robot' build argument 'cmake_target_skip_unavailable' from command line to 'False'
[1.142s] Level 5:colcon.colcon_core.verb:set package 'ros2_planar_robot' build argument 'cmake_clean_cache' from command line to 'False'
[1.143s] Level 5:colcon.colcon_core.verb:set package 'ros2_planar_robot' build argument 'cmake_clean_first' from command line to 'False'
[1.143s] Level 5:colcon.colcon_core.verb:set package 'ros2_planar_robot' build argument 'cmake_force_configure' from command line to 'False'
[1.143s] Level 5:colcon.colcon_core.verb:set package 'ros2_planar_robot' build argument 'ament_cmake_args' from command line to 'None'
[1.143s] Level 5:colcon.colcon_core.verb:set package 'ros2_planar_robot' build argument 'catkin_cmake_args' from command line to 'None'
[1.143s] Level 5:colcon.colcon_core.verb:set package 'ros2_planar_robot' build argument 'catkin_skip_building_tests' from command line to 'False'
[1.143s] DEBUG:colcon.colcon_core.verb:Building package 'ros2_planar_robot' with the following arguments: {'ament_cmake_args': None, 'build_base': '/home/umrob/M2/ros-2-planar-robot-p-3/build/ros2_planar_robot', 'catkin_cmake_args': None, 'catkin_skip_building_tests': False, 'cmake_args': None, 'cmake_clean_cache': False, 'cmake_clean_first': False, 'cmake_force_configure': False, 'cmake_target': None, 'cmake_target_skip_unavailable': False, 'install_base': '/home/umrob/M2/ros-2-planar-robot-p-3/install/ros2_planar_robot', 'merge_install': False, 'path': '/home/umrob/M2/ros-2-planar-robot-p-3', 'symlink_install': False, 'test_result_base': None}
[1.155s] INFO:colcon.colcon_core.executor:Executing jobs using 'parallel' executor
[1.167s] DEBUG:colcon.colcon_parallel_executor.executor.parallel:run_until_complete
[1.168s] INFO:colcon.colcon_ros.task.ament_cmake.build:Building ROS package in '/home/umrob/M2/ros-2-planar-robot-p-3' with build type 'ament_cmake'
[1.168s] INFO:colcon.colcon_cmake.task.cmake.build:Building CMake package in '/home/umrob/M2/ros-2-planar-robot-p-3'
[1.181s] INFO:colcon.colcon_core.plugin_system:Skipping extension 'colcon_core.shell.bat': Not used on non-Windows systems
[1.182s] INFO:colcon.colcon_core.shell:Skip shell extension 'powershell' for command environment: Not usable outside of PowerShell
[1.182s] DEBUG:colcon.colcon_core.shell:Skip shell extension 'dsv' for command environment
[1.215s] DEBUG:colcon.colcon_core.event_handler.log_command:Invoking command in '/home/umrob/M2/ros-2-planar-robot-p-3/build/ros2_planar_robot': CMAKE_PREFIX_PATH=/opt/ros/humble CONDA_PROMPT_MODIFIER=(base) /usr/bin/cmake --build /home/umrob/M2/ros-2-planar-robot-p-3/build/ros2_planar_robot -- -j8 -l8
[1.585s] DEBUG:colcon.colcon_core.event_handler.log_command:Invoked command in '/home/umrob/M2/ros-2-planar-robot-p-3/build/ros2_planar_robot' returned '0': CMAKE_PREFIX_PATH=/opt/ros/humble CONDA_PROMPT_MODIFIER=(base) /usr/bin/cmake --build /home/umrob/M2/ros-2-planar-robot-p-3/build/ros2_planar_robot -- -j8 -l8
[1.717s] DEBUG:colcon.colcon_core.event_handler.log_command:Invoking command in '/home/umrob/M2/ros-2-planar-robot-p-3/build/ros2_planar_robot': CMAKE_PREFIX_PATH=/opt/ros/humble CONDA_PROMPT_MODIFIER=(base) /usr/bin/cmake --install /home/umrob/M2/ros-2-planar-robot-p-3/build/ros2_planar_robot
[1.786s] Level 1:colcon.colcon_core.environment:create_environment_scripts_only(ros2_planar_robot)
[1.787s] DEBUG:colcon.colcon_core.event_handler.log_command:Invoked command in '/home/umrob/M2/ros-2-planar-robot-p-3/build/ros2_planar_robot' returned '0': CMAKE_PREFIX_PATH=/opt/ros/humble CONDA_PROMPT_MODIFIER=(base) /usr/bin/cmake --install /home/umrob/M2/ros-2-planar-robot-p-3/build/ros2_planar_robot
[1.803s] Level 1:colcon.colcon_core.environment:checking '/home/umrob/M2/ros-2-planar-robot-p-3/install/ros2_planar_robot' for CMake module files
[1.803s] Level 1:colcon.colcon_core.environment:checking '/home/umrob/M2/ros-2-planar-robot-p-3/install/ros2_planar_robot' for CMake config files
[1.804s] Level 1:colcon.colcon_core.shell:create_environment_hook('ros2_planar_robot', 'cmake_prefix_path')
[1.818s] INFO:colcon.colcon_core.shell:Creating environment hook '/home/umrob/M2/ros-2-planar-robot-p-3/install/ros2_planar_robot/share/ros2_planar_robot/hook/cmake_prefix_path.ps1'
[1.818s] INFO:colcon.colcon_core.shell:Creating environment descriptor '/home/umrob/M2/ros-2-planar-robot-p-3/install/ros2_planar_robot/share/ros2_planar_robot/hook/cmake_prefix_path.dsv'
[1.819s] INFO:colcon.colcon_core.shell:Creating environment hook '/home/umrob/M2/ros-2-planar-robot-p-3/install/ros2_planar_robot/share/ros2_planar_robot/hook/cmake_prefix_path.sh'
[1.819s] Level 1:colcon.colcon_core.environment:checking '/home/umrob/M2/ros-2-planar-robot-p-3/install/ros2_planar_robot/lib'
[1.820s] Level 1:colcon.colcon_core.shell:create_environment_hook('ros2_planar_robot', 'ld_library_path_lib')
[1.833s] INFO:colcon.colcon_core.shell:Creating environment hook '/home/umrob/M2/ros-2-planar-robot-p-3/install/ros2_planar_robot/share/ros2_planar_robot/hook/ld_library_path_lib.ps1'
[1.833s] INFO:colcon.colcon_core.shell:Creating environment descriptor '/home/umrob/M2/ros-2-planar-robot-p-3/install/ros2_planar_robot/share/ros2_planar_robot/hook/ld_library_path_lib.dsv'
[1.834s] INFO:colcon.colcon_core.shell:Creating environment hook '/home/umrob/M2/ros-2-planar-robot-p-3/install/ros2_planar_robot/share/ros2_planar_robot/hook/ld_library_path_lib.sh'
[1.834s] Level 1:colcon.colcon_core.environment:checking '/home/umrob/M2/ros-2-planar-robot-p-3/install/ros2_planar_robot/bin'
[1.834s] Level 1:colcon.colcon_core.environment:checking '/home/umrob/M2/ros-2-planar-robot-p-3/install/ros2_planar_robot/lib/pkgconfig/ros2_planar_robot.pc'
[1.834s] Level 1:colcon.colcon_core.environment:checking '/home/umrob/M2/ros-2-planar-robot-p-3/install/ros2_planar_robot/lib/python3.10/site-packages'
[1.834s] Level 1:colcon.colcon_core.environment:checking '/home/umrob/M2/ros-2-planar-robot-p-3/install/ros2_planar_robot/bin'
[1.847s] INFO:colcon.colcon_core.shell:Creating package script '/home/umrob/M2/ros-2-planar-robot-p-3/install/ros2_planar_robot/share/ros2_planar_robot/package.ps1'
[1.848s] INFO:colcon.colcon_core.shell:Creating package descriptor '/home/umrob/M2/ros-2-planar-robot-p-3/install/ros2_planar_robot/share/ros2_planar_robot/package.dsv'
[1.848s] INFO:colcon.colcon_core.shell:Creating package script '/home/umrob/M2/ros-2-planar-robot-p-3/install/ros2_planar_robot/share/ros2_planar_robot/package.sh'
[1.849s] INFO:colcon.colcon_core.shell:Creating package script '/home/umrob/M2/ros-2-planar-robot-p-3/install/ros2_planar_robot/share/ros2_planar_robot/package.bash'
[1.849s] INFO:colcon.colcon_core.shell:Creating package script '/home/umrob/M2/ros-2-planar-robot-p-3/install/ros2_planar_robot/share/ros2_planar_robot/package.zsh'
[1.850s] Level 1:colcon.colcon_core.environment:create_file_with_runtime_dependencies(/home/umrob/M2/ros-2-planar-robot-p-3/install/ros2_planar_robot/share/colcon-core/packages/ros2_planar_robot)
[1.965s] Level 1:colcon.colcon_core.environment:create_environment_scripts_only(ros2_planar_robot)
[1.978s] Level 1:colcon.colcon_core.environment:checking '/home/umrob/M2/ros-2-planar-robot-p-3/install/ros2_planar_robot' for CMake module files
[1.978s] Level 1:colcon.colcon_core.environment:checking '/home/umrob/M2/ros-2-planar-robot-p-3/install/ros2_planar_robot' for CMake config files
[1.978s] Level 1:colcon.colcon_core.shell:create_environment_hook('ros2_planar_robot', 'cmake_prefix_path')
[1.990s] INFO:colcon.colcon_core.shell:Creating environment hook '/home/umrob/M2/ros-2-planar-robot-p-3/install/ros2_planar_robot/share/ros2_planar_robot/hook/cmake_prefix_path.ps1'
[1.991s] INFO:colcon.colcon_core.shell:Creating environment descriptor '/home/umrob/M2/ros-2-planar-robot-p-3/install/ros2_planar_robot/share/ros2_planar_robot/hook/cmake_prefix_path.dsv'
[1.991s] INFO:colcon.colcon_core.shell:Creating environment hook '/home/umrob/M2/ros-2-planar-robot-p-3/install/ros2_planar_robot/share/ros2_planar_robot/hook/cmake_prefix_path.sh'
[1.991s] Level 1:colcon.colcon_core.environment:checking '/home/umrob/M2/ros-2-planar-robot-p-3/install/ros2_planar_robot/lib'
[1.992s] Level 1:colcon.colcon_core.shell:create_environment_hook('ros2_planar_robot', 'ld_library_path_lib')
[2.004s] INFO:colcon.colcon_core.shell:Creating environment hook '/home/umrob/M2/ros-2-planar-robot-p-3/install/ros2_planar_robot/share/ros2_planar_robot/hook/ld_library_path_lib.ps1'
[2.005s] INFO:colcon.colcon_core.shell:Creating environment descriptor '/home/umrob/M2/ros-2-planar-robot-p-3/install/ros2_planar_robot/share/ros2_planar_robot/hook/ld_library_path_lib.dsv'
[2.005s] INFO:colcon.colcon_core.shell:Creating environment hook '/home/umrob/M2/ros-2-planar-robot-p-3/install/ros2_planar_robot/share/ros2_planar_robot/hook/ld_library_path_lib.sh'
[2.005s] Level 1:colcon.colcon_core.environment:checking '/home/umrob/M2/ros-2-planar-robot-p-3/install/ros2_planar_robot/bin'
[2.006s] Level 1:colcon.colcon_core.environment:checking '/home/umrob/M2/ros-2-planar-robot-p-3/install/ros2_planar_robot/lib/pkgconfig/ros2_planar_robot.pc'
[2.006s] Level 1:colcon.colcon_core.environment:checking '/home/umrob/M2/ros-2-planar-robot-p-3/install/ros2_planar_robot/lib/python3.10/site-packages'
[2.006s] Level 1:colcon.colcon_core.environment:checking '/home/umrob/M2/ros-2-planar-robot-p-3/install/ros2_planar_robot/bin'
[2.019s] INFO:colcon.colcon_core.shell:Creating package script '/home/umrob/M2/ros-2-planar-robot-p-3/install/ros2_planar_robot/share/ros2_planar_robot/package.ps1'
[2.019s] INFO:colcon.colcon_core.shell:Creating package descriptor '/home/umrob/M2/ros-2-planar-robot-p-3/install/ros2_planar_robot/share/ros2_planar_robot/package.dsv'
[2.020s] INFO:colcon.colcon_core.shell:Creating package script '/home/umrob/M2/ros-2-planar-robot-p-3/install/ros2_planar_robot/share/ros2_planar_robot/package.sh'
[2.020s] INFO:colcon.colcon_core.shell:Creating package script '/home/umrob/M2/ros-2-planar-robot-p-3/install/ros2_planar_robot/share/ros2_planar_robot/package.bash'
[2.021s] INFO:colcon.colcon_core.shell:Creating package script '/home/umrob/M2/ros-2-planar-robot-p-3/install/ros2_planar_robot/share/ros2_planar_robot/package.zsh'
[2.021s] Level 1:colcon.colcon_core.environment:create_file_with_runtime_dependencies(/home/umrob/M2/ros-2-planar-robot-p-3/install/ros2_planar_robot/share/colcon-core/packages/ros2_planar_robot)
[2.022s] DEBUG:colcon.colcon_parallel_executor.executor.parallel:closing loop
[2.022s] DEBUG:colcon.colcon_parallel_executor.executor.parallel:loop closed
[2.022s] DEBUG:colcon.colcon_parallel_executor.executor.parallel:run_until_complete finished with '0'
[2.022s] DEBUG:colcon.colcon_core.event_reactor:joining thread
[2.050s] INFO:colcon.colcon_core.plugin_system:Skipping extension 'colcon_notification.desktop_notification.terminal_notifier': Not used on non-Darwin systems
[2.050s] INFO:colcon.colcon_core.plugin_system:Skipping extension 'colcon_notification.desktop_notification.win32': Not used on non-Windows systems
[2.050s] INFO:colcon.colcon_notification.desktop_notification:Sending desktop notification using 'notify2'
[2.061s] DEBUG:colcon.colcon_core.event_reactor:joined thread
[2.076s] INFO:colcon.colcon_core.shell:Creating prefix script '/home/umrob/M2/ros-2-planar-robot-p-3/install/local_setup.ps1'
[2.077s] INFO:colcon.colcon_core.shell:Creating prefix util module '/home/umrob/M2/ros-2-planar-robot-p-3/install/_local_setup_util_ps1.py'
[2.079s] INFO:colcon.colcon_core.shell:Creating prefix chain script '/home/umrob/M2/ros-2-planar-robot-p-3/install/setup.ps1'
[2.095s] INFO:colcon.colcon_core.shell:Creating prefix script '/home/umrob/M2/ros-2-planar-robot-p-3/install/local_setup.sh'
[2.096s] INFO:colcon.colcon_core.shell:Creating prefix util module '/home/umrob/M2/ros-2-planar-robot-p-3/install/_local_setup_util_sh.py'
[2.096s] INFO:colcon.colcon_core.shell:Creating prefix chain script '/home/umrob/M2/ros-2-planar-robot-p-3/install/setup.sh'
[2.111s] INFO:colcon.colcon_core.shell:Creating prefix script '/home/umrob/M2/ros-2-planar-robot-p-3/install/local_setup.bash'
[2.112s] INFO:colcon.colcon_core.shell:Creating prefix chain script '/home/umrob/M2/ros-2-planar-robot-p-3/install/setup.bash'
[2.127s] INFO:colcon.colcon_core.shell:Creating prefix script '/home/umrob/M2/ros-2-planar-robot-p-3/install/local_setup.zsh'
[2.127s] INFO:colcon.colcon_core.shell:Creating prefix chain script '/home/umrob/M2/ros-2-planar-robot-p-3/install/setup.zsh'
