[0.052s] Invoking command in '/home/umrob/M2/ros-2-planar-robot-p-3/build/ros2_planar_robot': CMAKE_PREFIX_PATH=/opt/ros/humble CONDA_PROMPT_MODIFIER=(base) /usr/bin/cmake --build /home/umrob/M2/ros-2-planar-robot-p-3/build/ros2_planar_robot -- -j8 -l8
[0.284s] [  1%] Built target ros2_planar_robot__cpp
[0.295s] [  1%] Built target ament_cmake_python_symlink_ros2_planar_robot
[0.305s] [ 10%] Built target ros2_planar_robot__rosidl_generator_c
[0.333s] [ 21%] Built target kinematic_model_lib
[0.333s] [ 23%] Built target ros2_planar_robot__rosidl_typesupport_cpp
[0.334s] [ 24%] Built target trajectory_generation_lib
[0.337s] [ 34%] Built target ros2_planar_robot__rosidl_typesupport_introspection_cpp
[0.345s] [ 43%] Built target ros2_planar_robot__rosidl_typesupport_fastrtps_cpp
[0.352s] [ 52%] Built target ros2_planar_robot__rosidl_typesupport_introspection_c
[0.353s] [ 62%] Built target ros2_planar_robot__rosidl_typesupport_fastrtps_c
[0.366s] [ 71%] Built target ros2_planar_robot__rosidl_typesupport_c
[0.369s] [ 74%] Built target control_lib
[0.383s] [ 76%] Built target high_lev_mng
[0.384s] [ 78%] Built target trajectory_generator
[0.384s] [ 81%] Built target kinematic_modeller
[0.387s] [35m[1mConsolidate compiler generated dependencies of target controller[0m
[0.392s] [ 81%] Built target ros2_planar_robot
[0.407s] [ 83%] Built target controller
[0.413s] [ 84%] Built target ros2_planar_robot__py
[0.439s] [ 92%] Built target ros2_planar_robot__rosidl_generator_py
[0.461s] [ 97%] Built target ros2_planar_robot__rosidl_typesupport_introspection_c__pyext
[0.461s] [ 97%] Built target ros2_planar_robot__rosidl_typesupport_c__pyext
[0.469s] [100%] Built target ros2_planar_robot__rosidl_typesupport_fastrtps_c__pyext
[0.586s] running egg_info
[0.587s] writing ros2_planar_robot.egg-info/PKG-INFO
[0.587s] writing dependency_links to ros2_planar_robot.egg-info/dependency_links.txt
[0.587s] writing top-level names to ros2_planar_robot.egg-info/top_level.txt
[0.590s] reading manifest file 'ros2_planar_robot.egg-info/SOURCES.txt'
[0.591s] writing manifest file 'ros2_planar_robot.egg-info/SOURCES.txt'
[0.616s] [100%] Built target ament_cmake_python_build_ros2_planar_robot_egg
[0.629s] Invoked command in '/home/umrob/M2/ros-2-planar-robot-p-3/build/ros2_planar_robot' returned '0': CMAKE_PREFIX_PATH=/opt/ros/humble CONDA_PROMPT_MODIFIER=(base) /usr/bin/cmake --build /home/umrob/M2/ros-2-planar-robot-p-3/build/ros2_planar_robot -- -j8 -l8
[0.762s] Invoking command in '/home/umrob/M2/ros-2-planar-robot-p-3/build/ros2_planar_robot': CMAKE_PREFIX_PATH=/opt/ros/humble CONDA_PROMPT_MODIFIER=(base) /usr/bin/cmake --install /home/umrob/M2/ros-2-planar-robot-p-3/build/ros2_planar_robot
[0.771s] -- Install configuration: ""
[0.772s] -- Execute custom install script
[0.773s] -- Up-to-date symlink: /home/umrob/M2/ros-2-planar-robot-p-3/install/ros2_planar_robot/share/ament_index/resource_index/rosidl_interfaces/ros2_planar_robot
[0.773s] -- Up-to-date symlink: /home/umrob/M2/ros-2-planar-robot-p-3/install/ros2_planar_robot/include/ros2_planar_robot/ros2_planar_robot/msg/cartesian_state.h
[0.774s] -- Up-to-date symlink: /home/umrob/M2/ros-2-planar-robot-p-3/install/ros2_planar_robot/include/ros2_planar_robot/ros2_planar_robot/msg/detail/cartesian_state__functions.h
[0.774s] -- Up-to-date symlink: /home/umrob/M2/ros-2-planar-robot-p-3/install/ros2_planar_robot/include/ros2_planar_robot/ros2_planar_robot/msg/detail/cartesian_state__struct.h
[0.774s] -- Up-to-date symlink: /home/umrob/M2/ros-2-planar-robot-p-3/install/ros2_planar_robot/include/ros2_planar_robot/ros2_planar_robot/msg/detail/cartesian_state__type_support.h
[0.774s] -- Up-to-date symlink: /home/umrob/M2/ros-2-planar-robot-p-3/install/ros2_planar_robot/include/ros2_planar_robot/ros2_planar_robot/msg/detail/joint_position__functions.h
[0.774s] -- Up-to-date symlink: /home/umrob/M2/ros-2-planar-robot-p-3/install/ros2_planar_robot/include/ros2_planar_robot/ros2_planar_robot/msg/detail/joint_position__struct.h
[0.775s] -- Up-to-date symlink: /home/umrob/M2/ros-2-planar-robot-p-3/install/ros2_planar_robot/include/ros2_planar_robot/ros2_planar_robot/msg/detail/joint_position__type_support.h
[0.775s] -- Up-to-date symlink: /home/umrob/M2/ros-2-planar-robot-p-3/install/ros2_planar_robot/include/ros2_planar_robot/ros2_planar_robot/msg/detail/kin_data__functions.h
[0.775s] -- Up-to-date symlink: /home/umrob/M2/ros-2-planar-robot-p-3/install/ros2_planar_robot/include/ros2_planar_robot/ros2_planar_robot/msg/detail/kin_data__struct.h
[0.775s] -- Up-to-date symlink: /home/umrob/M2/ros-2-planar-robot-p-3/install/ros2_planar_robot/include/ros2_planar_robot/ros2_planar_robot/msg/detail/kin_data__type_support.h
[0.775s] -- Up-to-date symlink: /home/umrob/M2/ros-2-planar-robot-p-3/install/ros2_planar_robot/include/ros2_planar_robot/ros2_planar_robot/msg/detail/pose__functions.h
[0.776s] -- Up-to-date symlink: /home/umrob/M2/ros-2-planar-robot-p-3/install/ros2_planar_robot/include/ros2_planar_robot/ros2_planar_robot/msg/detail/pose__struct.h
[0.776s] -- Up-to-date symlink: /home/umrob/M2/ros-2-planar-robot-p-3/install/ros2_planar_robot/include/ros2_planar_robot/ros2_planar_robot/msg/detail/pose__type_support.h
[0.776s] -- Up-to-date symlink: /home/umrob/M2/ros-2-planar-robot-p-3/install/ros2_planar_robot/include/ros2_planar_robot/ros2_planar_robot/msg/detail/ref_pose__functions.h
[0.776s] -- Up-to-date symlink: /home/umrob/M2/ros-2-planar-robot-p-3/install/ros2_planar_robot/include/ros2_planar_robot/ros2_planar_robot/msg/detail/ref_pose__struct.h
[0.776s] -- Up-to-date symlink: /home/umrob/M2/ros-2-planar-robot-p-3/install/ros2_planar_robot/include/ros2_planar_robot/ros2_planar_robot/msg/detail/ref_pose__type_support.h
[0.776s] -- Up-to-date symlink: /home/umrob/M2/ros-2-planar-robot-p-3/install/ros2_planar_robot/include/ros2_planar_robot/ros2_planar_robot/msg/detail/velocity__functions.h
[0.776s] -- Up-to-date symlink: /home/umrob/M2/ros-2-planar-robot-p-3/install/ros2_planar_robot/include/ros2_planar_robot/ros2_planar_robot/msg/detail/velocity__struct.h
[0.777s] -- Up-to-date symlink: /home/umrob/M2/ros-2-planar-robot-p-3/install/ros2_planar_robot/include/ros2_planar_robot/ros2_planar_robot/msg/detail/velocity__type_support.h
[0.777s] -- Up-to-date symlink: /home/umrob/M2/ros-2-planar-robot-p-3/install/ros2_planar_robot/include/ros2_planar_robot/ros2_planar_robot/msg/joint_position.h
[0.777s] -- Up-to-date symlink: /home/umrob/M2/ros-2-planar-robot-p-3/install/ros2_planar_robot/include/ros2_planar_robot/ros2_planar_robot/msg/kin_data.h
[0.777s] -- Up-to-date symlink: /home/umrob/M2/ros-2-planar-robot-p-3/install/ros2_planar_robot/include/ros2_planar_robot/ros2_planar_robot/msg/pose.h
[0.777s] -- Up-to-date symlink: /home/umrob/M2/ros-2-planar-robot-p-3/install/ros2_planar_robot/include/ros2_planar_robot/ros2_planar_robot/msg/ref_pose.h
[0.777s] -- Up-to-date symlink: /home/umrob/M2/ros-2-planar-robot-p-3/install/ros2_planar_robot/include/ros2_planar_robot/ros2_planar_robot/msg/rosidl_generator_c__visibility_control.h
[0.777s] -- Up-to-date symlink: /home/umrob/M2/ros-2-planar-robot-p-3/install/ros2_planar_robot/include/ros2_planar_robot/ros2_planar_robot/msg/velocity.h
[0.777s] -- Up-to-date symlink: /home/umrob/M2/ros-2-planar-robot-p-3/install/ros2_planar_robot/share/ros2_planar_robot/environment/library_path.sh
[0.777s] -- Up-to-date symlink: /home/umrob/M2/ros-2-planar-robot-p-3/install/ros2_planar_robot/share/ros2_planar_robot/environment/library_path.dsv
[0.778s] -- Up-to-date symlink: /home/umrob/M2/ros-2-planar-robot-p-3/install/ros2_planar_robot/include/ros2_planar_robot/ros2_planar_robot/msg/detail/cartesian_state__rosidl_typesupport_fastrtps_c.h
[0.778s] -- Up-to-date symlink: /home/umrob/M2/ros-2-planar-robot-p-3/install/ros2_planar_robot/include/ros2_planar_robot/ros2_planar_robot/msg/detail/joint_position__rosidl_typesupport_fastrtps_c.h
[0.778s] -- Up-to-date symlink: /home/umrob/M2/ros-2-planar-robot-p-3/install/ros2_planar_robot/include/ros2_planar_robot/ros2_planar_robot/msg/detail/kin_data__rosidl_typesupport_fastrtps_c.h
[0.778s] -- Up-to-date symlink: /home/umrob/M2/ros-2-planar-robot-p-3/install/ros2_planar_robot/include/ros2_planar_robot/ros2_planar_robot/msg/detail/pose__rosidl_typesupport_fastrtps_c.h
[0.778s] -- Up-to-date symlink: /home/umrob/M2/ros-2-planar-robot-p-3/install/ros2_planar_robot/include/ros2_planar_robot/ros2_planar_robot/msg/detail/ref_pose__rosidl_typesupport_fastrtps_c.h
[0.779s] -- Up-to-date symlink: /home/umrob/M2/ros-2-planar-robot-p-3/install/ros2_planar_robot/include/ros2_planar_robot/ros2_planar_robot/msg/detail/velocity__rosidl_typesupport_fastrtps_c.h
[0.779s] -- Up-to-date symlink: /home/umrob/M2/ros-2-planar-robot-p-3/install/ros2_planar_robot/include/ros2_planar_robot/ros2_planar_robot/msg/rosidl_typesupport_fastrtps_c__visibility_control.h
[0.779s] -- Up-to-date symlink: /home/umrob/M2/ros-2-planar-robot-p-3/install/ros2_planar_robot/include/ros2_planar_robot/ros2_planar_robot/msg/cartesian_state.hpp
[0.779s] -- Up-to-date symlink: /home/umrob/M2/ros-2-planar-robot-p-3/install/ros2_planar_robot/include/ros2_planar_robot/ros2_planar_robot/msg/detail/cartesian_state__builder.hpp
[0.779s] -- Up-to-date symlink: /home/umrob/M2/ros-2-planar-robot-p-3/install/ros2_planar_robot/include/ros2_planar_robot/ros2_planar_robot/msg/detail/cartesian_state__struct.hpp
[0.780s] -- Up-to-date symlink: /home/umrob/M2/ros-2-planar-robot-p-3/install/ros2_planar_robot/include/ros2_planar_robot/ros2_planar_robot/msg/detail/cartesian_state__traits.hpp
[0.780s] -- Up-to-date symlink: /home/umrob/M2/ros-2-planar-robot-p-3/install/ros2_planar_robot/include/ros2_planar_robot/ros2_planar_robot/msg/detail/joint_position__builder.hpp
[0.780s] -- Up-to-date symlink: /home/umrob/M2/ros-2-planar-robot-p-3/install/ros2_planar_robot/include/ros2_planar_robot/ros2_planar_robot/msg/detail/joint_position__struct.hpp
[0.780s] -- Up-to-date symlink: /home/umrob/M2/ros-2-planar-robot-p-3/install/ros2_planar_robot/include/ros2_planar_robot/ros2_planar_robot/msg/detail/joint_position__traits.hpp
[0.780s] -- Up-to-date symlink: /home/umrob/M2/ros-2-planar-robot-p-3/install/ros2_planar_robot/include/ros2_planar_robot/ros2_planar_robot/msg/detail/kin_data__builder.hpp
[0.780s] -- Up-to-date symlink: /home/umrob/M2/ros-2-planar-robot-p-3/install/ros2_planar_robot/include/ros2_planar_robot/ros2_planar_robot/msg/detail/kin_data__struct.hpp
[0.780s] -- Up-to-date symlink: /home/umrob/M2/ros-2-planar-robot-p-3/install/ros2_planar_robot/include/ros2_planar_robot/ros2_planar_robot/msg/detail/kin_data__traits.hpp
[0.781s] -- Up-to-date symlink: /home/umrob/M2/ros-2-planar-robot-p-3/install/ros2_planar_robot/include/ros2_planar_robot/ros2_planar_robot/msg/detail/pose__builder.hpp
[0.781s] -- Up-to-date symlink: /home/umrob/M2/ros-2-planar-robot-p-3/install/ros2_planar_robot/include/ros2_planar_robot/ros2_planar_robot/msg/detail/pose__struct.hpp
[0.781s] -- Up-to-date symlink: /home/umrob/M2/ros-2-planar-robot-p-3/install/ros2_planar_robot/include/ros2_planar_robot/ros2_planar_robot/msg/detail/pose__traits.hpp
[0.781s] -- Up-to-date symlink: /home/umrob/M2/ros-2-planar-robot-p-3/install/ros2_planar_robot/include/ros2_planar_robot/ros2_planar_robot/msg/detail/ref_pose__builder.hpp
[0.781s] -- Up-to-date symlink: /home/umrob/M2/ros-2-planar-robot-p-3/install/ros2_planar_robot/include/ros2_planar_robot/ros2_planar_robot/msg/detail/ref_pose__struct.hpp
[0.781s] -- Up-to-date symlink: /home/umrob/M2/ros-2-planar-robot-p-3/install/ros2_planar_robot/include/ros2_planar_robot/ros2_planar_robot/msg/detail/ref_pose__traits.hpp
[0.781s] -- Up-to-date symlink: /home/umrob/M2/ros-2-planar-robot-p-3/install/ros2_planar_robot/include/ros2_planar_robot/ros2_planar_robot/msg/detail/velocity__builder.hpp
[0.781s] -- Up-to-date symlink: /home/umrob/M2/ros-2-planar-robot-p-3/install/ros2_planar_robot/include/ros2_planar_robot/ros2_planar_robot/msg/detail/velocity__struct.hpp
[0.781s] -- Up-to-date symlink: /home/umrob/M2/ros-2-planar-robot-p-3/install/ros2_planar_robot/include/ros2_planar_robot/ros2_planar_robot/msg/detail/velocity__traits.hpp
[0.782s] -- Up-to-date symlink: /home/umrob/M2/ros-2-planar-robot-p-3/install/ros2_planar_robot/include/ros2_planar_robot/ros2_planar_robot/msg/joint_position.hpp
[0.782s] -- Up-to-date symlink: /home/umrob/M2/ros-2-planar-robot-p-3/install/ros2_planar_robot/include/ros2_planar_robot/ros2_planar_robot/msg/kin_data.hpp
[0.782s] -- Up-to-date symlink: /home/umrob/M2/ros-2-planar-robot-p-3/install/ros2_planar_robot/include/ros2_planar_robot/ros2_planar_robot/msg/pose.hpp
[0.782s] -- Up-to-date symlink: /home/umrob/M2/ros-2-planar-robot-p-3/install/ros2_planar_robot/include/ros2_planar_robot/ros2_planar_robot/msg/ref_pose.hpp
[0.782s] -- Up-to-date symlink: /home/umrob/M2/ros-2-planar-robot-p-3/install/ros2_planar_robot/include/ros2_planar_robot/ros2_planar_robot/msg/velocity.hpp
[0.782s] -- Up-to-date symlink: /home/umrob/M2/ros-2-planar-robot-p-3/install/ros2_planar_robot/include/ros2_planar_robot/ros2_planar_robot/msg/detail/cartesian_state__rosidl_typesupport_fastrtps_cpp.hpp
[0.782s] -- Up-to-date symlink: /home/umrob/M2/ros-2-planar-robot-p-3/install/ros2_planar_robot/include/ros2_planar_robot/ros2_planar_robot/msg/detail/joint_position__rosidl_typesupport_fastrtps_cpp.hpp
[0.782s] -- Up-to-date symlink: /home/umrob/M2/ros-2-planar-robot-p-3/install/ros2_planar_robot/include/ros2_planar_robot/ros2_planar_robot/msg/detail/kin_data__rosidl_typesupport_fastrtps_cpp.hpp
[0.782s] -- Up-to-date symlink: /home/umrob/M2/ros-2-planar-robot-p-3/install/ros2_planar_robot/include/ros2_planar_robot/ros2_planar_robot/msg/detail/pose__rosidl_typesupport_fastrtps_cpp.hpp
[0.783s] -- Up-to-date symlink: /home/umrob/M2/ros-2-planar-robot-p-3/install/ros2_planar_robot/include/ros2_planar_robot/ros2_planar_robot/msg/detail/ref_pose__rosidl_typesupport_fastrtps_cpp.hpp
[0.783s] -- Up-to-date symlink: /home/umrob/M2/ros-2-planar-robot-p-3/install/ros2_planar_robot/include/ros2_planar_robot/ros2_planar_robot/msg/detail/velocity__rosidl_typesupport_fastrtps_cpp.hpp
[0.783s] -- Up-to-date symlink: /home/umrob/M2/ros-2-planar-robot-p-3/install/ros2_planar_robot/include/ros2_planar_robot/ros2_planar_robot/msg/rosidl_typesupport_fastrtps_cpp__visibility_control.h
[0.783s] -- Up-to-date symlink: /home/umrob/M2/ros-2-planar-robot-p-3/install/ros2_planar_robot/include/ros2_planar_robot/ros2_planar_robot/msg/detail/cartesian_state__rosidl_typesupport_introspection_c.h
[0.783s] -- Up-to-date symlink: /home/umrob/M2/ros-2-planar-robot-p-3/install/ros2_planar_robot/include/ros2_planar_robot/ros2_planar_robot/msg/detail/joint_position__rosidl_typesupport_introspection_c.h
[0.783s] -- Up-to-date symlink: /home/umrob/M2/ros-2-planar-robot-p-3/install/ros2_planar_robot/include/ros2_planar_robot/ros2_planar_robot/msg/detail/kin_data__rosidl_typesupport_introspection_c.h
[0.783s] -- Up-to-date symlink: /home/umrob/M2/ros-2-planar-robot-p-3/install/ros2_planar_robot/include/ros2_planar_robot/ros2_planar_robot/msg/detail/pose__rosidl_typesupport_introspection_c.h
[0.783s] -- Up-to-date symlink: /home/umrob/M2/ros-2-planar-robot-p-3/install/ros2_planar_robot/include/ros2_planar_robot/ros2_planar_robot/msg/detail/ref_pose__rosidl_typesupport_introspection_c.h
[0.783s] -- Up-to-date symlink: /home/umrob/M2/ros-2-planar-robot-p-3/install/ros2_planar_robot/include/ros2_planar_robot/ros2_planar_robot/msg/detail/velocity__rosidl_typesupport_introspection_c.h
[0.784s] -- Up-to-date symlink: /home/umrob/M2/ros-2-planar-robot-p-3/install/ros2_planar_robot/include/ros2_planar_robot/ros2_planar_robot/msg/rosidl_typesupport_introspection_c__visibility_control.h
[0.784s] -- Up-to-date symlink: /home/umrob/M2/ros-2-planar-robot-p-3/install/ros2_planar_robot/include/ros2_planar_robot/ros2_planar_robot/msg/detail/cartesian_state__rosidl_typesupport_introspection_cpp.hpp
[0.784s] -- Up-to-date symlink: /home/umrob/M2/ros-2-planar-robot-p-3/install/ros2_planar_robot/include/ros2_planar_robot/ros2_planar_robot/msg/detail/joint_position__rosidl_typesupport_introspection_cpp.hpp
[0.784s] -- Up-to-date symlink: /home/umrob/M2/ros-2-planar-robot-p-3/install/ros2_planar_robot/include/ros2_planar_robot/ros2_planar_robot/msg/detail/kin_data__rosidl_typesupport_introspection_cpp.hpp
[0.784s] -- Up-to-date symlink: /home/umrob/M2/ros-2-planar-robot-p-3/install/ros2_planar_robot/include/ros2_planar_robot/ros2_planar_robot/msg/detail/pose__rosidl_typesupport_introspection_cpp.hpp
[0.784s] -- Up-to-date symlink: /home/umrob/M2/ros-2-planar-robot-p-3/install/ros2_planar_robot/include/ros2_planar_robot/ros2_planar_robot/msg/detail/ref_pose__rosidl_typesupport_introspection_cpp.hpp
[0.784s] -- Up-to-date symlink: /home/umrob/M2/ros-2-planar-robot-p-3/install/ros2_planar_robot/include/ros2_planar_robot/ros2_planar_robot/msg/detail/velocity__rosidl_typesupport_introspection_cpp.hpp
[0.784s] -- Up-to-date symlink: /home/umrob/M2/ros-2-planar-robot-p-3/install/ros2_planar_robot/share/ros2_planar_robot/environment/pythonpath.sh
[0.785s] -- Up-to-date symlink: /home/umrob/M2/ros-2-planar-robot-p-3/install/ros2_planar_robot/share/ros2_planar_robot/environment/pythonpath.dsv
[0.785s] -- Up-to-date symlink: /home/umrob/M2/ros-2-planar-robot-p-3/install/ros2_planar_robot/local/lib/python3.10/dist-packages/ros2_planar_robot-0.0.0-py3.10.egg-info/PKG-INFO
[0.785s] -- Up-to-date symlink: /home/umrob/M2/ros-2-planar-robot-p-3/install/ros2_planar_robot/local/lib/python3.10/dist-packages/ros2_planar_robot-0.0.0-py3.10.egg-info/SOURCES.txt
[0.785s] -- Up-to-date symlink: /home/umrob/M2/ros-2-planar-robot-p-3/install/ros2_planar_robot/local/lib/python3.10/dist-packages/ros2_planar_robot-0.0.0-py3.10.egg-info/dependency_links.txt
[0.786s] -- Up-to-date symlink: /home/umrob/M2/ros-2-planar-robot-p-3/install/ros2_planar_robot/local/lib/python3.10/dist-packages/ros2_planar_robot-0.0.0-py3.10.egg-info/top_level.txt
[0.786s] -- Up-to-date symlink: /home/umrob/M2/ros-2-planar-robot-p-3/install/ros2_planar_robot/local/lib/python3.10/dist-packages/ros2_planar_robot/__init__.py
[0.786s] -- Up-to-date symlink: /home/umrob/M2/ros-2-planar-robot-p-3/install/ros2_planar_robot/local/lib/python3.10/dist-packages/ros2_planar_robot/_ros2_planar_robot_s.ep.rosidl_typesupport_c.c
[0.786s] -- Up-to-date symlink: /home/umrob/M2/ros-2-planar-robot-p-3/install/ros2_planar_robot/local/lib/python3.10/dist-packages/ros2_planar_robot/_ros2_planar_robot_s.ep.rosidl_typesupport_fastrtps_c.c
[0.786s] -- Up-to-date symlink: /home/umrob/M2/ros-2-planar-robot-p-3/install/ros2_planar_robot/local/lib/python3.10/dist-packages/ros2_planar_robot/_ros2_planar_robot_s.ep.rosidl_typesupport_introspection_c.c
[0.787s] -- Up-to-date symlink: /home/umrob/M2/ros-2-planar-robot-p-3/install/ros2_planar_robot/local/lib/python3.10/dist-packages/ros2_planar_robot/libros2_planar_robot__rosidl_generator_py.so
[0.787s] -- Up-to-date symlink: /home/umrob/M2/ros-2-planar-robot-p-3/install/ros2_planar_robot/local/lib/python3.10/dist-packages/ros2_planar_robot/msg/__init__.py
[0.787s] -- Up-to-date symlink: /home/umrob/M2/ros-2-planar-robot-p-3/install/ros2_planar_robot/local/lib/python3.10/dist-packages/ros2_planar_robot/msg/_cartesian_state.py
[0.787s] -- Up-to-date symlink: /home/umrob/M2/ros-2-planar-robot-p-3/install/ros2_planar_robot/local/lib/python3.10/dist-packages/ros2_planar_robot/msg/_cartesian_state_s.c
[0.787s] -- Up-to-date symlink: /home/umrob/M2/ros-2-planar-robot-p-3/install/ros2_planar_robot/local/lib/python3.10/dist-packages/ros2_planar_robot/msg/_joint_position.py
[0.788s] -- Up-to-date symlink: /home/umrob/M2/ros-2-planar-robot-p-3/install/ros2_planar_robot/local/lib/python3.10/dist-packages/ros2_planar_robot/msg/_joint_position_s.c
[0.788s] -- Up-to-date symlink: /home/umrob/M2/ros-2-planar-robot-p-3/install/ros2_planar_robot/local/lib/python3.10/dist-packages/ros2_planar_robot/msg/_kin_data.py
[0.788s] -- Up-to-date symlink: /home/umrob/M2/ros-2-planar-robot-p-3/install/ros2_planar_robot/local/lib/python3.10/dist-packages/ros2_planar_robot/msg/_kin_data_s.c
[0.788s] -- Up-to-date symlink: /home/umrob/M2/ros-2-planar-robot-p-3/install/ros2_planar_robot/local/lib/python3.10/dist-packages/ros2_planar_robot/msg/_pose.py
[0.788s] -- Up-to-date symlink: /home/umrob/M2/ros-2-planar-robot-p-3/install/ros2_planar_robot/local/lib/python3.10/dist-packages/ros2_planar_robot/msg/_pose_s.c
[0.788s] -- Up-to-date symlink: /home/umrob/M2/ros-2-planar-robot-p-3/install/ros2_planar_robot/local/lib/python3.10/dist-packages/ros2_planar_robot/msg/_ref_pose.py
[0.788s] -- Up-to-date symlink: /home/umrob/M2/ros-2-planar-robot-p-3/install/ros2_planar_robot/local/lib/python3.10/dist-packages/ros2_planar_robot/msg/_ref_pose_s.c
[0.789s] -- Up-to-date symlink: /home/umrob/M2/ros-2-planar-robot-p-3/install/ros2_planar_robot/local/lib/python3.10/dist-packages/ros2_planar_robot/msg/_velocity.py
[0.789s] -- Up-to-date symlink: /home/umrob/M2/ros-2-planar-robot-p-3/install/ros2_planar_robot/local/lib/python3.10/dist-packages/ros2_planar_robot/msg/_velocity_s.c
[0.789s] -- Up-to-date symlink: /home/umrob/M2/ros-2-planar-robot-p-3/install/ros2_planar_robot/local/lib/python3.10/dist-packages/ros2_planar_robot/ros2_planar_robot_s__rosidl_typesupport_c.cpython-310-x86_64-linux-gnu.so
[0.789s] -- Up-to-date symlink: /home/umrob/M2/ros-2-planar-robot-p-3/install/ros2_planar_robot/local/lib/python3.10/dist-packages/ros2_planar_robot/ros2_planar_robot_s__rosidl_typesupport_fastrtps_c.cpython-310-x86_64-linux-gnu.so
[0.789s] -- Up-to-date symlink: /home/umrob/M2/ros-2-planar-robot-p-3/install/ros2_planar_robot/local/lib/python3.10/dist-packages/ros2_planar_robot/ros2_planar_robot_s__rosidl_typesupport_introspection_c.cpython-310-x86_64-linux-gnu.so
[0.789s] -- Up-to-date symlink: /home/umrob/M2/ros-2-planar-robot-p-3/install/ros2_planar_robot/local/lib/python3.10/dist-packages/ros2_planar_robot/ros2_planar_robot_s__rosidl_typesupport_fastrtps_c.cpython-310-x86_64-linux-gnu.so
[0.790s] -- Up-to-date symlink: /home/umrob/M2/ros-2-planar-robot-p-3/install/ros2_planar_robot/local/lib/python3.10/dist-packages/ros2_planar_robot/ros2_planar_robot_s__rosidl_typesupport_introspection_c.cpython-310-x86_64-linux-gnu.so
[0.790s] -- Up-to-date symlink: /home/umrob/M2/ros-2-planar-robot-p-3/install/ros2_planar_robot/local/lib/python3.10/dist-packages/ros2_planar_robot/ros2_planar_robot_s__rosidl_typesupport_c.cpython-310-x86_64-linux-gnu.so
[0.790s] -- Up-to-date symlink: /home/umrob/M2/ros-2-planar-robot-p-3/install/ros2_planar_robot/share/ros2_planar_robot/msg/RefPose.idl
[0.790s] -- Up-to-date symlink: /home/umrob/M2/ros-2-planar-robot-p-3/install/ros2_planar_robot/share/ros2_planar_robot/msg/Pose.idl
[0.791s] -- Up-to-date symlink: /home/umrob/M2/ros-2-planar-robot-p-3/install/ros2_planar_robot/share/ros2_planar_robot/msg/CartesianState.idl
[0.791s] -- Up-to-date symlink: /home/umrob/M2/ros-2-planar-robot-p-3/install/ros2_planar_robot/share/ros2_planar_robot/msg/Velocity.idl
[0.791s] -- Up-to-date symlink: /home/umrob/M2/ros-2-planar-robot-p-3/install/ros2_planar_robot/share/ros2_planar_robot/msg/KinData.idl
[0.791s] -- Up-to-date symlink: /home/umrob/M2/ros-2-planar-robot-p-3/install/ros2_planar_robot/share/ros2_planar_robot/msg/JointPosition.idl
[0.791s] -- Up-to-date symlink: /home/umrob/M2/ros-2-planar-robot-p-3/install/ros2_planar_robot/share/ros2_planar_robot/msg/RefPose.msg
[0.792s] -- Up-to-date symlink: /home/umrob/M2/ros-2-planar-robot-p-3/install/ros2_planar_robot/share/ros2_planar_robot/msg/Pose.msg
[0.792s] -- Up-to-date symlink: /home/umrob/M2/ros-2-planar-robot-p-3/install/ros2_planar_robot/share/ros2_planar_robot/msg/CartesianState.msg
[0.792s] -- Up-to-date symlink: /home/umrob/M2/ros-2-planar-robot-p-3/install/ros2_planar_robot/share/ros2_planar_robot/msg/Velocity.msg
[0.792s] -- Up-to-date symlink: /home/umrob/M2/ros-2-planar-robot-p-3/install/ros2_planar_robot/share/ros2_planar_robot/msg/KinData.msg
[0.792s] -- Up-to-date symlink: /home/umrob/M2/ros-2-planar-robot-p-3/install/ros2_planar_robot/share/ros2_planar_robot/msg/JointPosition.msg
[0.793s] -- Up-to-date symlink: /home/umrob/M2/ros-2-planar-robot-p-3/install/ros2_planar_robot/lib/ros2_planar_robot/trajectory_generator
[0.793s] -- Up-to-date symlink: /home/umrob/M2/ros-2-planar-robot-p-3/install/ros2_planar_robot/lib/ros2_planar_robot/high_lev_mng
[0.793s] -- Up-to-date symlink: /home/umrob/M2/ros-2-planar-robot-p-3/install/ros2_planar_robot/lib/ros2_planar_robot/kinematic_modeller
[0.793s] -- Up-to-date symlink: /home/umrob/M2/ros-2-planar-robot-p-3/install/ros2_planar_robot/lib/ros2_planar_robot/controller
[0.793s] -- Up-to-date symlink: /home/umrob/M2/ros-2-planar-robot-p-3/install/ros2_planar_robot/lib/libtrajectory_generation_lib.so
[0.794s] -- Up-to-date symlink: /home/umrob/M2/ros-2-planar-robot-p-3/install/ros2_planar_robot/lib/libkinematic_model_lib.so
[0.794s] -- Up-to-date symlink: /home/umrob/M2/ros-2-planar-robot-p-3/install/ros2_planar_robot/lib/libcontrol_lib.so
[0.794s] -- Up-to-date symlink: /home/umrob/M2/ros-2-planar-robot-p-3/install/ros2_planar_robot/share/ament_index/resource_index/package_run_dependencies/ros2_planar_robot
[0.794s] -- Up-to-date symlink: /home/umrob/M2/ros-2-planar-robot-p-3/install/ros2_planar_robot/share/ament_index/resource_index/parent_prefix_path/ros2_planar_robot
[0.794s] -- Up-to-date symlink: /home/umrob/M2/ros-2-planar-robot-p-3/install/ros2_planar_robot/share/ros2_planar_robot/environment/ament_prefix_path.sh
[0.795s] -- Up-to-date symlink: /home/umrob/M2/ros-2-planar-robot-p-3/install/ros2_planar_robot/share/ros2_planar_robot/environment/ament_prefix_path.dsv
[0.795s] -- Up-to-date symlink: /home/umrob/M2/ros-2-planar-robot-p-3/install/ros2_planar_robot/share/ros2_planar_robot/environment/path.sh
[0.795s] -- Up-to-date symlink: /home/umrob/M2/ros-2-planar-robot-p-3/install/ros2_planar_robot/share/ros2_planar_robot/environment/path.dsv
[0.796s] -- Up-to-date symlink: /home/umrob/M2/ros-2-planar-robot-p-3/install/ros2_planar_robot/share/ros2_planar_robot/local_setup.bash
[0.796s] -- Up-to-date symlink: /home/umrob/M2/ros-2-planar-robot-p-3/install/ros2_planar_robot/share/ros2_planar_robot/local_setup.sh
[0.796s] -- Up-to-date symlink: /home/umrob/M2/ros-2-planar-robot-p-3/install/ros2_planar_robot/share/ros2_planar_robot/local_setup.zsh
[0.796s] -- Up-to-date symlink: /home/umrob/M2/ros-2-planar-robot-p-3/install/ros2_planar_robot/share/ros2_planar_robot/local_setup.dsv
[0.796s] -- Symlinking: /home/umrob/M2/ros-2-planar-robot-p-3/install/ros2_planar_robot/share/ros2_planar_robot/package.dsv
[0.805s] -- Up-to-date symlink: /home/umrob/M2/ros-2-planar-robot-p-3/install/ros2_planar_robot/share/ament_index/resource_index/packages/ros2_planar_robot
[0.806s] -- Up-to-date symlink: /home/umrob/M2/ros-2-planar-robot-p-3/install/ros2_planar_robot/share/ros2_planar_robot/cmake/rosidl_cmake-extras.cmake
[0.806s] -- Up-to-date symlink: /home/umrob/M2/ros-2-planar-robot-p-3/install/ros2_planar_robot/share/ros2_planar_robot/cmake/ament_cmake_export_include_directories-extras.cmake
[0.806s] -- Up-to-date symlink: /home/umrob/M2/ros-2-planar-robot-p-3/install/ros2_planar_robot/share/ros2_planar_robot/cmake/ament_cmake_export_libraries-extras.cmake
[0.806s] -- Up-to-date symlink: /home/umrob/M2/ros-2-planar-robot-p-3/install/ros2_planar_robot/share/ros2_planar_robot/cmake/ament_cmake_export_targets-extras.cmake
[0.807s] -- Up-to-date symlink: /home/umrob/M2/ros-2-planar-robot-p-3/install/ros2_planar_robot/share/ros2_planar_robot/cmake/rosidl_cmake_export_typesupport_targets-extras.cmake
[0.807s] -- Up-to-date symlink: /home/umrob/M2/ros-2-planar-robot-p-3/install/ros2_planar_robot/share/ros2_planar_robot/cmake/ament_cmake_export_dependencies-extras.cmake
[0.807s] -- Up-to-date symlink: /home/umrob/M2/ros-2-planar-robot-p-3/install/ros2_planar_robot/share/ros2_planar_robot/cmake/rosidl_cmake_export_typesupport_libraries-extras.cmake
[0.807s] -- Up-to-date symlink: /home/umrob/M2/ros-2-planar-robot-p-3/install/ros2_planar_robot/share/ros2_planar_robot/cmake/ros2_planar_robotConfig.cmake
[0.808s] -- Up-to-date symlink: /home/umrob/M2/ros-2-planar-robot-p-3/install/ros2_planar_robot/share/ros2_planar_robot/cmake/ros2_planar_robotConfig-version.cmake
[0.808s] -- Up-to-date symlink: /home/umrob/M2/ros-2-planar-robot-p-3/install/ros2_planar_robot/share/ros2_planar_robot/package.xml
[0.808s] -- Up-to-date: /home/umrob/M2/ros-2-planar-robot-p-3/install/ros2_planar_robot/lib/libros2_planar_robot__rosidl_generator_c.so
[0.808s] -- Up-to-date: /home/umrob/M2/ros-2-planar-robot-p-3/install/ros2_planar_robot/lib/libros2_planar_robot__rosidl_typesupport_fastrtps_c.so
[0.809s] -- Up-to-date: /home/umrob/M2/ros-2-planar-robot-p-3/install/ros2_planar_robot/lib/libros2_planar_robot__rosidl_typesupport_fastrtps_cpp.so
[0.809s] -- Up-to-date: /home/umrob/M2/ros-2-planar-robot-p-3/install/ros2_planar_robot/lib/libros2_planar_robot__rosidl_typesupport_introspection_c.so
[0.809s] -- Up-to-date: /home/umrob/M2/ros-2-planar-robot-p-3/install/ros2_planar_robot/lib/libros2_planar_robot__rosidl_typesupport_c.so
[0.809s] -- Up-to-date: /home/umrob/M2/ros-2-planar-robot-p-3/install/ros2_planar_robot/lib/libros2_planar_robot__rosidl_typesupport_introspection_cpp.so
[0.810s] -- Up-to-date: /home/umrob/M2/ros-2-planar-robot-p-3/install/ros2_planar_robot/lib/libros2_planar_robot__rosidl_typesupport_cpp.so
[0.839s] Listing '/home/umrob/M2/ros-2-planar-robot-p-3/install/ros2_planar_robot/local/lib/python3.10/dist-packages/ros2_planar_robot'...
[0.839s] Listing '/home/umrob/M2/ros-2-planar-robot-p-3/install/ros2_planar_robot/local/lib/python3.10/dist-packages/ros2_planar_robot/msg'...
[0.843s] -- Up-to-date: /home/umrob/M2/ros-2-planar-robot-p-3/install/ros2_planar_robot/lib/libros2_planar_robot__rosidl_generator_py.so
[0.843s] -- Up-to-date: /home/umrob/M2/ros-2-planar-robot-p-3/install/ros2_planar_robot/share/ros2_planar_robot/cmake/export_ros2_planar_robot__rosidl_generator_cExport.cmake
[0.844s] -- Up-to-date: /home/umrob/M2/ros-2-planar-robot-p-3/install/ros2_planar_robot/share/ros2_planar_robot/cmake/export_ros2_planar_robot__rosidl_generator_cExport-noconfig.cmake
[0.844s] -- Up-to-date: /home/umrob/M2/ros-2-planar-robot-p-3/install/ros2_planar_robot/share/ros2_planar_robot/cmake/export_ros2_planar_robot__rosidl_typesupport_fastrtps_cExport.cmake
[0.844s] -- Up-to-date: /home/umrob/M2/ros-2-planar-robot-p-3/install/ros2_planar_robot/share/ros2_planar_robot/cmake/export_ros2_planar_robot__rosidl_typesupport_fastrtps_cExport-noconfig.cmake
[0.844s] -- Up-to-date: /home/umrob/M2/ros-2-planar-robot-p-3/install/ros2_planar_robot/share/ros2_planar_robot/cmake/export_ros2_planar_robot__rosidl_generator_cppExport.cmake
[0.844s] -- Up-to-date: /home/umrob/M2/ros-2-planar-robot-p-3/install/ros2_planar_robot/share/ros2_planar_robot/cmake/export_ros2_planar_robot__rosidl_typesupport_fastrtps_cppExport.cmake
[0.844s] -- Up-to-date: /home/umrob/M2/ros-2-planar-robot-p-3/install/ros2_planar_robot/share/ros2_planar_robot/cmake/export_ros2_planar_robot__rosidl_typesupport_fastrtps_cppExport-noconfig.cmake
[0.845s] -- Up-to-date: /home/umrob/M2/ros-2-planar-robot-p-3/install/ros2_planar_robot/share/ros2_planar_robot/cmake/ros2_planar_robot__rosidl_typesupport_introspection_cExport.cmake
[0.845s] -- Up-to-date: /home/umrob/M2/ros-2-planar-robot-p-3/install/ros2_planar_robot/share/ros2_planar_robot/cmake/ros2_planar_robot__rosidl_typesupport_introspection_cExport-noconfig.cmake
[0.845s] -- Up-to-date: /home/umrob/M2/ros-2-planar-robot-p-3/install/ros2_planar_robot/share/ros2_planar_robot/cmake/ros2_planar_robot__rosidl_typesupport_cExport.cmake
[0.845s] -- Up-to-date: /home/umrob/M2/ros-2-planar-robot-p-3/install/ros2_planar_robot/share/ros2_planar_robot/cmake/ros2_planar_robot__rosidl_typesupport_cExport-noconfig.cmake
[0.845s] -- Up-to-date: /home/umrob/M2/ros-2-planar-robot-p-3/install/ros2_planar_robot/share/ros2_planar_robot/cmake/ros2_planar_robot__rosidl_typesupport_introspection_cppExport.cmake
[0.845s] -- Up-to-date: /home/umrob/M2/ros-2-planar-robot-p-3/install/ros2_planar_robot/share/ros2_planar_robot/cmake/ros2_planar_robot__rosidl_typesupport_introspection_cppExport-noconfig.cmake
[0.846s] -- Up-to-date: /home/umrob/M2/ros-2-planar-robot-p-3/install/ros2_planar_robot/share/ros2_planar_robot/cmake/ros2_planar_robot__rosidl_typesupport_cppExport.cmake
[0.846s] -- Up-to-date: /home/umrob/M2/ros-2-planar-robot-p-3/install/ros2_planar_robot/share/ros2_planar_robot/cmake/ros2_planar_robot__rosidl_typesupport_cppExport-noconfig.cmake
[0.846s] -- Up-to-date: /home/umrob/M2/ros-2-planar-robot-p-3/install/ros2_planar_robot/share/ros2_planar_robot/cmake/export_ros2_planar_robot__rosidl_generator_pyExport.cmake
[0.846s] -- Up-to-date: /home/umrob/M2/ros-2-planar-robot-p-3/install/ros2_planar_robot/share/ros2_planar_robot/cmake/export_ros2_planar_robot__rosidl_generator_pyExport-noconfig.cmake
[0.848s] Invoked command in '/home/umrob/M2/ros-2-planar-robot-p-3/build/ros2_planar_robot' returned '0': CMAKE_PREFIX_PATH=/opt/ros/humble CONDA_PROMPT_MODIFIER=(base) /usr/bin/cmake --install /home/umrob/M2/ros-2-planar-robot-p-3/build/ros2_planar_robot
