[0.000000] (-) TimerEvent: {}
[0.000747] (ros2_planar_robot) JobQueued: {'identifier': 'ros2_planar_robot', 'dependencies': OrderedDict()}
[0.000851] (ros2_planar_robot) JobStarted: {'identifier': 'ros2_planar_robot'}
[0.049822] (ros2_planar_robot) JobProgress: {'identifier': 'ros2_planar_robot', 'progress': 'cmake'}
[0.052034] (ros2_planar_robot) JobProgress: {'identifier': 'ros2_planar_robot', 'progress': 'build'}
[0.052558] (ros2_planar_robot) Command: {'cmd': ['/usr/bin/cmake', '--build', '/home/umrob/M2/ros-2-planar-robot-p-3/build/ros2_planar_robot', '--', '-j8', '-l8'], 'cwd': '/home/umrob/M2/ros-2-planar-robot-p-3/build/ros2_planar_robot', 'env': OrderedDict([('GJS_DEBUG_TOPICS', 'JS ERROR;JS LOG'), ('LESSOPEN', '| /usr/bin/lesspipe %s'), ('CONDA_PROMPT_MODIFIER', '(base)'), ('LANGUAGE', 'fr_FR:en'), ('USER', 'umrob'), ('LC_TIME', 'en_US.UTF-8'), ('CONDA_MKL_INTERFACE_LAYER_BACKUP', ''), ('XDG_SESSION_TYPE', 'x11'), ('SHLVL', '1'), ('LD_LIBRARY_PATH', '/opt/ros/humble/opt/rviz_ogre_vendor/lib:/opt/ros/humble/lib/x86_64-linux-gnu:/opt/ros/humble/lib'), ('HOME', '/home/umrob'), ('CONDA_SHLVL', '1'), ('OLDPWD', '/home/umrob'), ('DESKTOP_SESSION', 'ubuntu'), ('GIO_LAUNCHED_DESKTOP_FILE', '/usr/share/applications/terminator.desktop'), ('ROS_PYTHON_VERSION', '3'), ('GNOME_SHELL_SESSION_MODE', 'ubuntu'), ('GTK_MODULES', 'gail:atk-bridge'), ('LC_MONETARY', 'en_US.UTF-8'), ('MANAGERPID', '2625'), ('SYSTEMD_EXEC_PID', '2992'), ('DBUS_SESSION_BUS_ADDRESS', 'unix:path=/run/user/1000/bus'), ('COLORTERM', 'truecolor'), ('_CE_M', ''), ('TERMINATOR_DBUS_NAME', 'net.tenshu.Terminator23558193cd9818af7fe4d2c2f5bd9d00f'), ('GIO_LAUNCHED_DESKTOP_FILE_PID', '24105'), ('IM_CONFIG_PHASE', '1'), ('ROS_DISTRO', 'humble'), ('GTK_IM_MODULE', 'ibus'), ('LOGNAME', 'umrob'), ('JOURNAL_STREAM', '8:39069'), ('_', '/usr/bin/colcon'), ('ROS_VERSION', '2'), ('XDG_SESSION_CLASS', 'user'), ('USERNAME', 'umrob'), ('TERM', 'xterm-256color'), ('GNOME_DESKTOP_SESSION_ID', 'this-is-deprecated'), ('_CE_CONDA', ''), ('ROS_LOCALHOST_ONLY', '1'), ('WINDOWPATH', '2'), ('PATH', '/opt/ros/humble/bin:/home/umrob/anaconda3/bin:/home/umrob/anaconda3/condabin:/home/umrob/.local/bin:/home/umrob/bin:/usr/local/sbin:/usr/local/bin:/usr/sbin:/usr/bin:/sbin:/bin:/usr/games:/usr/local/games:/snap/bin:/snap/bin:~/julia-1.9.3/bin'), ('SESSION_MANAGER', 'local/umrob-Latitude-5510:@/tmp/.ICE-unix/2973,unix/umrob-Latitude-5510:/tmp/.ICE-unix/2973'), ('INVOCATION_ID', 'fdc528229db640d6a55c96f399670289'), ('PAPERSIZE', 'letter'), ('GTK3_MODULES', 'xapp-gtk3-module'), ('XDG_MENU_PREFIX', 'gnome-'), ('LC_ADDRESS', 'en_US.UTF-8'), ('XDG_RUNTIME_DIR', '/run/user/1000'), ('DISPLAY', ':1'), ('TERMINATOR_DBUS_PATH', '/net/tenshu/Terminator2'), ('LANG', 'fr_FR.UTF-8'), ('XDG_CURRENT_DESKTOP', 'ubuntu:GNOME'), ('IBUS_DISABLE_SNOOPER', '1'), ('LC_TELEPHONE', 'en_US.UTF-8'), ('XMODIFIERS', '@im=ibus'), ('XDG_SESSION_DESKTOP', 'ubuntu'), ('XAUTHORITY', '/run/user/1000/gdm/Xauthority'), ('LS_COLORS', 'rs=0:di=01;34:ln=01;36:mh=00:pi=40;33:so=01;35:do=01;35:bd=40;33;01:cd=40;33;01:or=40;31;01:mi=00:su=37;41:sg=30;43:ca=30;41:tw=30;42:ow=34;42:st=37;44:ex=01;32:*.tar=01;31:*.tgz=01;31:*.arc=01;31:*.arj=01;31:*.taz=01;31:*.lha=01;31:*.lz4=01;31:*.lzh=01;31:*.lzma=01;31:*.tlz=01;31:*.txz=01;31:*.tzo=01;31:*.t7z=01;31:*.zip=01;31:*.z=01;31:*.dz=01;31:*.gz=01;31:*.lrz=01;31:*.lz=01;31:*.lzo=01;31:*.xz=01;31:*.zst=01;31:*.tzst=01;31:*.bz2=01;31:*.bz=01;31:*.tbz=01;31:*.tbz2=01;31:*.tz=01;31:*.deb=01;31:*.rpm=01;31:*.jar=01;31:*.war=01;31:*.ear=01;31:*.sar=01;31:*.rar=01;31:*.alz=01;31:*.ace=01;31:*.zoo=01;31:*.cpio=01;31:*.7z=01;31:*.rz=01;31:*.cab=01;31:*.wim=01;31:*.swm=01;31:*.dwm=01;31:*.esd=01;31:*.jpg=01;35:*.jpeg=01;35:*.mjpg=01;35:*.mjpeg=01;35:*.gif=01;35:*.bmp=01;35:*.pbm=01;35:*.pgm=01;35:*.ppm=01;35:*.tga=01;35:*.xbm=01;35:*.xpm=01;35:*.tif=01;35:*.tiff=01;35:*.png=01;35:*.svg=01;35:*.svgz=01;35:*.mng=01;35:*.pcx=01;35:*.mov=01;35:*.mpg=01;35:*.mpeg=01;35:*.m2v=01;35:*.mkv=01;35:*.webm=01;35:*.webp=01;35:*.ogm=01;35:*.mp4=01;35:*.m4v=01;35:*.mp4v=01;35:*.vob=01;35:*.qt=01;35:*.nuv=01;35:*.wmv=01;35:*.asf=01;35:*.rm=01;35:*.rmvb=01;35:*.flc=01;35:*.avi=01;35:*.fli=01;35:*.flv=01;35:*.gl=01;35:*.dl=01;35:*.xcf=01;35:*.xwd=01;35:*.yuv=01;35:*.cgm=01;35:*.emf=01;35:*.ogv=01;35:*.ogx=01;35:*.aac=00;36:*.au=00;36:*.flac=00;36:*.m4a=00;36:*.mid=00;36:*.midi=00;36:*.mka=00;36:*.mp3=00;36:*.mpc=00;36:*.ogg=00;36:*.ra=00;36:*.wav=00;36:*.oga=00;36:*.opus=00;36:*.spx=00;36:*.xspf=00;36:'), ('SSH_AGENT_LAUNCHER', 'gnome-keyring'), ('SSH_AUTH_SOCK', '/run/user/1000/keyring/ssh'), ('AMENT_PREFIX_PATH', '/opt/ros/humble'), ('CONDA_PYTHON_EXE', '/home/umrob/anaconda3/bin/python'), ('SHELL', '/bin/bash'), ('LC_NAME', 'en_US.UTF-8'), ('TERMINATOR_UUID', 'urn:uuid:32fefce4-8ec1-42cd-8631-5d48c7e04edd'), ('QT_ACCESSIBILITY', '1'), ('GDMSESSION', 'ubuntu'), ('LESSCLOSE', '/usr/bin/lesspipe %s %s'), ('CONDA_DEFAULT_ENV', 'base'), ('LC_MEASUREMENT', 'en_US.UTF-8'), ('GPG_AGENT_INFO', '/run/user/1000/gnupg/S.gpg-agent:0:1'), ('GJS_DEBUG_OUTPUT', 'stderr'), ('LC_IDENTIFICATION', 'en_US.UTF-8'), ('QT_IM_MODULE', 'ibus'), ('PWD', '/home/umrob/M2/ros-2-planar-robot-p-3/build/ros2_planar_robot'), ('LC_ALL', 'en_US.UTF-8'), ('XDG_CONFIG_DIRS', '/etc/xdg/xdg-ubuntu:/etc/xdg'), ('CONDA_EXE', '/home/umrob/anaconda3/bin/conda'), ('XDG_DATA_DIRS', '/usr/share/ubuntu:/usr/share/gnome:/usr/local/share/:/usr/share/:/var/lib/snapd/desktop'), ('PYTHONPATH', '/opt/ros/humble/lib/python3.10/site-packages:/opt/ros/humble/local/lib/python3.10/dist-packages'), ('LC_NUMERIC', 'en_US.UTF-8'), ('CONDA_PREFIX', '/home/umrob/anaconda3'), ('LC_PAPER', 'en_US.UTF-8'), ('MKL_INTERFACE_LAYER', 'LP64,GNU'), ('COLCON', '1'), ('VTE_VERSION', '6800'), ('CMAKE_PREFIX_PATH', '/opt/ros/humble')]), 'shell': False}
[0.099683] (-) TimerEvent: {}
[0.108188] (ros2_planar_robot) StdoutLine: {'line': b'[  2%] Built target ros2_planar_robot__cpp\n'}
[0.108565] (ros2_planar_robot) StdoutLine: {'line': b'[  3%] Built target trajectory_generation_lib\n'}
[0.110068] (ros2_planar_robot) StdoutLine: {'line': b'[ 13%] Built target ros2_planar_robot__rosidl_generator_c\n'}
[0.115377] (ros2_planar_robot) StdoutLine: {'line': b'[ 15%] Built target kinematic_model_lib\n'}
[0.129985] (ros2_planar_robot) StdoutLine: {'line': b'[ 15%] Built target ament_cmake_python_copy_ros2_planar_robot\n'}
[0.149056] (ros2_planar_robot) StdoutLine: {'line': b'[ 44%] Built target ros2_planar_robot__rosidl_typesupport_cpp\n'}
[0.149367] (ros2_planar_robot) StdoutLine: {'line': b'[ 44%] Built target ros2_planar_robot__rosidl_typesupport_introspection_c\n'}
[0.149917] (ros2_planar_robot) StdoutLine: {'line': b'[ 55%] Built target ros2_planar_robot__rosidl_typesupport_fastrtps_c\n'}
[0.150864] (ros2_planar_robot) StdoutLine: {'line': b'[ 57%] Built target ros2_planar_robot__rosidl_typesupport_fastrtps_cpp\n'}
[0.151374] (ros2_planar_robot) StdoutLine: {'line': b'[ 63%] Built target ros2_planar_robot__rosidl_typesupport_introspection_cpp\n'}
[0.154623] (ros2_planar_robot) StdoutLine: {'line': b'[ 73%] Built target ros2_planar_robot__rosidl_typesupport_c\n'}
[0.157007] (ros2_planar_robot) StdoutLine: {'line': b'[ 75%] Built target control_lib\n'}
[0.181072] (ros2_planar_robot) StdoutLine: {'line': b'[ 75%] Built target ros2_planar_robot\n'}
[0.189792] (ros2_planar_robot) StdoutLine: {'line': b'[ 78%] Built target high_lev_mng\n'}
[0.190055] (ros2_planar_robot) StdoutLine: {'line': b'[ 80%] Built target kinematic_modeller\n'}
[0.191023] (ros2_planar_robot) StdoutLine: {'line': b'[ 83%] Built target trajectory_generator\n'}
[0.199815] (-) TimerEvent: {}
[0.203555] (ros2_planar_robot) StdoutLine: {'line': b'[ 84%] Built target ros2_planar_robot__py\n'}
[0.225393] (ros2_planar_robot) StdoutLine: {'line': b'[ 92%] Built target ros2_planar_robot__rosidl_generator_py\n'}
[0.249343] (ros2_planar_robot) StdoutLine: {'line': b'[ 98%] Built target ros2_planar_robot__rosidl_typesupport_introspection_c__pyext\n'}
[0.249580] (ros2_planar_robot) StdoutLine: {'line': b'[ 98%] Built target ros2_planar_robot__rosidl_typesupport_fastrtps_c__pyext\n'}
[0.249765] (ros2_planar_robot) StdoutLine: {'line': b'[100%] Built target ros2_planar_robot__rosidl_typesupport_c__pyext\n'}
[0.299926] (-) TimerEvent: {}
[0.400469] (-) TimerEvent: {}
[0.486473] (ros2_planar_robot) StdoutLine: {'line': b'running egg_info\n'}
[0.487534] (ros2_planar_robot) StdoutLine: {'line': b'writing ros2_planar_robot.egg-info/PKG-INFO\n'}
[0.487800] (ros2_planar_robot) StdoutLine: {'line': b'writing dependency_links to ros2_planar_robot.egg-info/dependency_links.txt\n'}
[0.488032] (ros2_planar_robot) StdoutLine: {'line': b'writing top-level names to ros2_planar_robot.egg-info/top_level.txt\n'}
[0.490316] (ros2_planar_robot) StdoutLine: {'line': b"reading manifest file 'ros2_planar_robot.egg-info/SOURCES.txt'\n"}
[0.490964] (ros2_planar_robot) StdoutLine: {'line': b"writing manifest file 'ros2_planar_robot.egg-info/SOURCES.txt'\n"}
[0.500621] (-) TimerEvent: {}
[0.522266] (ros2_planar_robot) StdoutLine: {'line': b'[100%] Built target ament_cmake_python_build_ros2_planar_robot_egg\n'}
[0.534897] (ros2_planar_robot) CommandEnded: {'returncode': 0}
[0.600722] (-) TimerEvent: {}
[0.681298] (ros2_planar_robot) JobProgress: {'identifier': 'ros2_planar_robot', 'progress': 'install'}
[0.690597] (ros2_planar_robot) Command: {'cmd': ['/usr/bin/cmake', '--install', '/home/umrob/M2/ros-2-planar-robot-p-3/build/ros2_planar_robot'], 'cwd': '/home/umrob/M2/ros-2-planar-robot-p-3/build/ros2_planar_robot', 'env': OrderedDict([('GJS_DEBUG_TOPICS', 'JS ERROR;JS LOG'), ('LESSOPEN', '| /usr/bin/lesspipe %s'), ('CONDA_PROMPT_MODIFIER', '(base)'), ('LANGUAGE', 'fr_FR:en'), ('USER', 'umrob'), ('LC_TIME', 'en_US.UTF-8'), ('CONDA_MKL_INTERFACE_LAYER_BACKUP', ''), ('XDG_SESSION_TYPE', 'x11'), ('SHLVL', '1'), ('LD_LIBRARY_PATH', '/opt/ros/humble/opt/rviz_ogre_vendor/lib:/opt/ros/humble/lib/x86_64-linux-gnu:/opt/ros/humble/lib'), ('HOME', '/home/umrob'), ('CONDA_SHLVL', '1'), ('OLDPWD', '/home/umrob'), ('DESKTOP_SESSION', 'ubuntu'), ('GIO_LAUNCHED_DESKTOP_FILE', '/usr/share/applications/terminator.desktop'), ('ROS_PYTHON_VERSION', '3'), ('GNOME_SHELL_SESSION_MODE', 'ubuntu'), ('GTK_MODULES', 'gail:atk-bridge'), ('LC_MONETARY', 'en_US.UTF-8'), ('MANAGERPID', '2625'), ('SYSTEMD_EXEC_PID', '2992'), ('DBUS_SESSION_BUS_ADDRESS', 'unix:path=/run/user/1000/bus'), ('COLORTERM', 'truecolor'), ('_CE_M', ''), ('TERMINATOR_DBUS_NAME', 'net.tenshu.Terminator23558193cd9818af7fe4d2c2f5bd9d00f'), ('GIO_LAUNCHED_DESKTOP_FILE_PID', '24105'), ('IM_CONFIG_PHASE', '1'), ('ROS_DISTRO', 'humble'), ('GTK_IM_MODULE', 'ibus'), ('LOGNAME', 'umrob'), ('JOURNAL_STREAM', '8:39069'), ('_', '/usr/bin/colcon'), ('ROS_VERSION', '2'), ('XDG_SESSION_CLASS', 'user'), ('USERNAME', 'umrob'), ('TERM', 'xterm-256color'), ('GNOME_DESKTOP_SESSION_ID', 'this-is-deprecated'), ('_CE_CONDA', ''), ('ROS_LOCALHOST_ONLY', '1'), ('WINDOWPATH', '2'), ('PATH', '/opt/ros/humble/bin:/home/umrob/anaconda3/bin:/home/umrob/anaconda3/condabin:/home/umrob/.local/bin:/home/umrob/bin:/usr/local/sbin:/usr/local/bin:/usr/sbin:/usr/bin:/sbin:/bin:/usr/games:/usr/local/games:/snap/bin:/snap/bin:~/julia-1.9.3/bin'), ('SESSION_MANAGER', 'local/umrob-Latitude-5510:@/tmp/.ICE-unix/2973,unix/umrob-Latitude-5510:/tmp/.ICE-unix/2973'), ('INVOCATION_ID', 'fdc528229db640d6a55c96f399670289'), ('PAPERSIZE', 'letter'), ('GTK3_MODULES', 'xapp-gtk3-module'), ('XDG_MENU_PREFIX', 'gnome-'), ('LC_ADDRESS', 'en_US.UTF-8'), ('XDG_RUNTIME_DIR', '/run/user/1000'), ('DISPLAY', ':1'), ('TERMINATOR_DBUS_PATH', '/net/tenshu/Terminator2'), ('LANG', 'fr_FR.UTF-8'), ('XDG_CURRENT_DESKTOP', 'ubuntu:GNOME'), ('IBUS_DISABLE_SNOOPER', '1'), ('LC_TELEPHONE', 'en_US.UTF-8'), ('XMODIFIERS', '@im=ibus'), ('XDG_SESSION_DESKTOP', 'ubuntu'), ('XAUTHORITY', '/run/user/1000/gdm/Xauthority'), ('LS_COLORS', 'rs=0:di=01;34:ln=01;36:mh=00:pi=40;33:so=01;35:do=01;35:bd=40;33;01:cd=40;33;01:or=40;31;01:mi=00:su=37;41:sg=30;43:ca=30;41:tw=30;42:ow=34;42:st=37;44:ex=01;32:*.tar=01;31:*.tgz=01;31:*.arc=01;31:*.arj=01;31:*.taz=01;31:*.lha=01;31:*.lz4=01;31:*.lzh=01;31:*.lzma=01;31:*.tlz=01;31:*.txz=01;31:*.tzo=01;31:*.t7z=01;31:*.zip=01;31:*.z=01;31:*.dz=01;31:*.gz=01;31:*.lrz=01;31:*.lz=01;31:*.lzo=01;31:*.xz=01;31:*.zst=01;31:*.tzst=01;31:*.bz2=01;31:*.bz=01;31:*.tbz=01;31:*.tbz2=01;31:*.tz=01;31:*.deb=01;31:*.rpm=01;31:*.jar=01;31:*.war=01;31:*.ear=01;31:*.sar=01;31:*.rar=01;31:*.alz=01;31:*.ace=01;31:*.zoo=01;31:*.cpio=01;31:*.7z=01;31:*.rz=01;31:*.cab=01;31:*.wim=01;31:*.swm=01;31:*.dwm=01;31:*.esd=01;31:*.jpg=01;35:*.jpeg=01;35:*.mjpg=01;35:*.mjpeg=01;35:*.gif=01;35:*.bmp=01;35:*.pbm=01;35:*.pgm=01;35:*.ppm=01;35:*.tga=01;35:*.xbm=01;35:*.xpm=01;35:*.tif=01;35:*.tiff=01;35:*.png=01;35:*.svg=01;35:*.svgz=01;35:*.mng=01;35:*.pcx=01;35:*.mov=01;35:*.mpg=01;35:*.mpeg=01;35:*.m2v=01;35:*.mkv=01;35:*.webm=01;35:*.webp=01;35:*.ogm=01;35:*.mp4=01;35:*.m4v=01;35:*.mp4v=01;35:*.vob=01;35:*.qt=01;35:*.nuv=01;35:*.wmv=01;35:*.asf=01;35:*.rm=01;35:*.rmvb=01;35:*.flc=01;35:*.avi=01;35:*.fli=01;35:*.flv=01;35:*.gl=01;35:*.dl=01;35:*.xcf=01;35:*.xwd=01;35:*.yuv=01;35:*.cgm=01;35:*.emf=01;35:*.ogv=01;35:*.ogx=01;35:*.aac=00;36:*.au=00;36:*.flac=00;36:*.m4a=00;36:*.mid=00;36:*.midi=00;36:*.mka=00;36:*.mp3=00;36:*.mpc=00;36:*.ogg=00;36:*.ra=00;36:*.wav=00;36:*.oga=00;36:*.opus=00;36:*.spx=00;36:*.xspf=00;36:'), ('SSH_AGENT_LAUNCHER', 'gnome-keyring'), ('SSH_AUTH_SOCK', '/run/user/1000/keyring/ssh'), ('AMENT_PREFIX_PATH', '/opt/ros/humble'), ('CONDA_PYTHON_EXE', '/home/umrob/anaconda3/bin/python'), ('SHELL', '/bin/bash'), ('LC_NAME', 'en_US.UTF-8'), ('TERMINATOR_UUID', 'urn:uuid:32fefce4-8ec1-42cd-8631-5d48c7e04edd'), ('QT_ACCESSIBILITY', '1'), ('GDMSESSION', 'ubuntu'), ('LESSCLOSE', '/usr/bin/lesspipe %s %s'), ('CONDA_DEFAULT_ENV', 'base'), ('LC_MEASUREMENT', 'en_US.UTF-8'), ('GPG_AGENT_INFO', '/run/user/1000/gnupg/S.gpg-agent:0:1'), ('GJS_DEBUG_OUTPUT', 'stderr'), ('LC_IDENTIFICATION', 'en_US.UTF-8'), ('QT_IM_MODULE', 'ibus'), ('PWD', '/home/umrob/M2/ros-2-planar-robot-p-3/build/ros2_planar_robot'), ('LC_ALL', 'en_US.UTF-8'), ('XDG_CONFIG_DIRS', '/etc/xdg/xdg-ubuntu:/etc/xdg'), ('CONDA_EXE', '/home/umrob/anaconda3/bin/conda'), ('XDG_DATA_DIRS', '/usr/share/ubuntu:/usr/share/gnome:/usr/local/share/:/usr/share/:/var/lib/snapd/desktop'), ('PYTHONPATH', '/opt/ros/humble/lib/python3.10/site-packages:/opt/ros/humble/local/lib/python3.10/dist-packages'), ('LC_NUMERIC', 'en_US.UTF-8'), ('CONDA_PREFIX', '/home/umrob/anaconda3'), ('LC_PAPER', 'en_US.UTF-8'), ('MKL_INTERFACE_LAYER', 'LP64,GNU'), ('COLCON', '1'), ('VTE_VERSION', '6800'), ('CMAKE_PREFIX_PATH', '/opt/ros/humble')]), 'shell': False}
[0.698575] (ros2_planar_robot) StdoutLine: {'line': b'-- Install configuration: ""\n'}
[0.699073] (ros2_planar_robot) StdoutLine: {'line': b'-- Up-to-date: /home/umrob/M2/ros-2-planar-robot-p-3/install/ros2_planar_robot/share/ament_index/resource_index/rosidl_interfaces/ros2_planar_robot\n'}
[0.699353] (ros2_planar_robot) StdoutLine: {'line': b'-- Up-to-date: /home/umrob/M2/ros-2-planar-robot-p-3/install/ros2_planar_robot/include/ros2_planar_robot/ros2_planar_robot\n'}
[0.699626] (ros2_planar_robot) StdoutLine: {'line': b'-- Up-to-date: /home/umrob/M2/ros-2-planar-robot-p-3/install/ros2_planar_robot/include/ros2_planar_robot/ros2_planar_robot/msg\n'}
[0.699866] (ros2_planar_robot) StdoutLine: {'line': b'-- Up-to-date: /home/umrob/M2/ros-2-planar-robot-p-3/install/ros2_planar_robot/include/ros2_planar_robot/ros2_planar_robot/msg/detail\n'}
[0.700031] (ros2_planar_robot) StdoutLine: {'line': b'-- Up-to-date: /home/umrob/M2/ros-2-planar-robot-p-3/install/ros2_planar_robot/include/ros2_planar_robot/ros2_planar_robot/msg/detail/velocity__type_support.h\n'}
[0.700463] (ros2_planar_robot) StdoutLine: {'line': b'-- Up-to-date: /home/umrob/M2/ros-2-planar-robot-p-3/install/ros2_planar_robot/include/ros2_planar_robot/ros2_planar_robot/msg/detail/ref_pose__functions.c\n'}
[0.700679] (ros2_planar_robot) StdoutLine: {'line': b'-- Up-to-date: /home/umrob/M2/ros-2-planar-robot-p-3/install/ros2_planar_robot/include/ros2_planar_robot/ros2_planar_robot/msg/detail/cartesian_state__functions.h\n'}
[0.700880] (-) TimerEvent: {}
[0.701020] (ros2_planar_robot) StdoutLine: {'line': b'-- Up-to-date: /home/umrob/M2/ros-2-planar-robot-p-3/install/ros2_planar_robot/include/ros2_planar_robot/ros2_planar_robot/msg/detail/pose__functions.c\n'}
[0.701231] (ros2_planar_robot) StdoutLine: {'line': b'-- Up-to-date: /home/umrob/M2/ros-2-planar-robot-p-3/install/ros2_planar_robot/include/ros2_planar_robot/ros2_planar_robot/msg/detail/pose__type_support.h\n'}
[0.701394] (ros2_planar_robot) StdoutLine: {'line': b'-- Up-to-date: /home/umrob/M2/ros-2-planar-robot-p-3/install/ros2_planar_robot/include/ros2_planar_robot/ros2_planar_robot/msg/detail/joint_position__type_support.h\n'}
[0.701541] (ros2_planar_robot) StdoutLine: {'line': b'-- Up-to-date: /home/umrob/M2/ros-2-planar-robot-p-3/install/ros2_planar_robot/include/ros2_planar_robot/ros2_planar_robot/msg/detail/velocity__functions.c\n'}
[0.701621] (ros2_planar_robot) StdoutLine: {'line': b'-- Up-to-date: /home/umrob/M2/ros-2-planar-robot-p-3/install/ros2_planar_robot/include/ros2_planar_robot/ros2_planar_robot/msg/detail/kin_data__struct.h\n'}
[0.701780] (ros2_planar_robot) StdoutLine: {'line': b'-- Up-to-date: /home/umrob/M2/ros-2-planar-robot-p-3/install/ros2_planar_robot/include/ros2_planar_robot/ros2_planar_robot/msg/detail/kin_data__functions.h\n'}
[0.701882] (ros2_planar_robot) StdoutLine: {'line': b'-- Up-to-date: /home/umrob/M2/ros-2-planar-robot-p-3/install/ros2_planar_robot/include/ros2_planar_robot/ros2_planar_robot/msg/detail/kin_data__functions.c\n'}
[0.701953] (ros2_planar_robot) StdoutLine: {'line': b'-- Up-to-date: /home/umrob/M2/ros-2-planar-robot-p-3/install/ros2_planar_robot/include/ros2_planar_robot/ros2_planar_robot/msg/detail/ref_pose__type_support.h\n'}
[0.702040] (ros2_planar_robot) StdoutLine: {'line': b'-- Up-to-date: /home/umrob/M2/ros-2-planar-robot-p-3/install/ros2_planar_robot/include/ros2_planar_robot/ros2_planar_robot/msg/detail/velocity__struct.h\n'}
[0.702110] (ros2_planar_robot) StdoutLine: {'line': b'-- Up-to-date: /home/umrob/M2/ros-2-planar-robot-p-3/install/ros2_planar_robot/include/ros2_planar_robot/ros2_planar_robot/msg/detail/ref_pose__functions.h\n'}
[0.702215] (ros2_planar_robot) StdoutLine: {'line': b'-- Up-to-date: /home/umrob/M2/ros-2-planar-robot-p-3/install/ros2_planar_robot/include/ros2_planar_robot/ros2_planar_robot/msg/detail/velocity__functions.h\n'}
[0.702377] (ros2_planar_robot) StdoutLine: {'line': b'-- Up-to-date: /home/umrob/M2/ros-2-planar-robot-p-3/install/ros2_planar_robot/include/ros2_planar_robot/ros2_planar_robot/msg/detail/cartesian_state__struct.h\n'}
[0.702499] (ros2_planar_robot) StdoutLine: {'line': b'-- Up-to-date: /home/umrob/M2/ros-2-planar-robot-p-3/install/ros2_planar_robot/include/ros2_planar_robot/ros2_planar_robot/msg/detail/ref_pose__struct.h\n'}
[0.702585] (ros2_planar_robot) StdoutLine: {'line': b'-- Up-to-date: /home/umrob/M2/ros-2-planar-robot-p-3/install/ros2_planar_robot/include/ros2_planar_robot/ros2_planar_robot/msg/detail/joint_position__struct.h\n'}
[0.702668] (ros2_planar_robot) StdoutLine: {'line': b'-- Up-to-date: /home/umrob/M2/ros-2-planar-robot-p-3/install/ros2_planar_robot/include/ros2_planar_robot/ros2_planar_robot/msg/detail/cartesian_state__functions.c\n'}
[0.702738] (ros2_planar_robot) StdoutLine: {'line': b'-- Up-to-date: /home/umrob/M2/ros-2-planar-robot-p-3/install/ros2_planar_robot/include/ros2_planar_robot/ros2_planar_robot/msg/detail/pose__struct.h\n'}
[0.702806] (ros2_planar_robot) StdoutLine: {'line': b'-- Up-to-date: /home/umrob/M2/ros-2-planar-robot-p-3/install/ros2_planar_robot/include/ros2_planar_robot/ros2_planar_robot/msg/detail/joint_position__functions.c\n'}
[0.702888] (ros2_planar_robot) StdoutLine: {'line': b'-- Up-to-date: /home/umrob/M2/ros-2-planar-robot-p-3/install/ros2_planar_robot/include/ros2_planar_robot/ros2_planar_robot/msg/detail/cartesian_state__type_support.h\n'}
[0.702957] (ros2_planar_robot) StdoutLine: {'line': b'-- Up-to-date: /home/umrob/M2/ros-2-planar-robot-p-3/install/ros2_planar_robot/include/ros2_planar_robot/ros2_planar_robot/msg/detail/pose__functions.h\n'}
[0.703028] (ros2_planar_robot) StdoutLine: {'line': b'-- Up-to-date: /home/umrob/M2/ros-2-planar-robot-p-3/install/ros2_planar_robot/include/ros2_planar_robot/ros2_planar_robot/msg/detail/joint_position__functions.h\n'}
[0.703141] (ros2_planar_robot) StdoutLine: {'line': b'-- Up-to-date: /home/umrob/M2/ros-2-planar-robot-p-3/install/ros2_planar_robot/include/ros2_planar_robot/ros2_planar_robot/msg/detail/kin_data__type_support.h\n'}
[0.703276] (ros2_planar_robot) StdoutLine: {'line': b'-- Up-to-date: /home/umrob/M2/ros-2-planar-robot-p-3/install/ros2_planar_robot/include/ros2_planar_robot/ros2_planar_robot/msg/velocity.h\n'}
[0.703379] (ros2_planar_robot) StdoutLine: {'line': b'-- Up-to-date: /home/umrob/M2/ros-2-planar-robot-p-3/install/ros2_planar_robot/include/ros2_planar_robot/ros2_planar_robot/msg/pose.h\n'}
[0.703450] (ros2_planar_robot) StdoutLine: {'line': b'-- Up-to-date: /home/umrob/M2/ros-2-planar-robot-p-3/install/ros2_planar_robot/include/ros2_planar_robot/ros2_planar_robot/msg/ref_pose.h\n'}
[0.703536] (ros2_planar_robot) StdoutLine: {'line': b'-- Up-to-date: /home/umrob/M2/ros-2-planar-robot-p-3/install/ros2_planar_robot/include/ros2_planar_robot/ros2_planar_robot/msg/cartesian_state.h\n'}
[0.703605] (ros2_planar_robot) StdoutLine: {'line': b'-- Up-to-date: /home/umrob/M2/ros-2-planar-robot-p-3/install/ros2_planar_robot/include/ros2_planar_robot/ros2_planar_robot/msg/rosidl_generator_c__visibility_control.h\n'}
[0.703674] (ros2_planar_robot) StdoutLine: {'line': b'-- Up-to-date: /home/umrob/M2/ros-2-planar-robot-p-3/install/ros2_planar_robot/include/ros2_planar_robot/ros2_planar_robot/msg/kin_data.h\n'}
[0.703758] (ros2_planar_robot) StdoutLine: {'line': b'-- Up-to-date: /home/umrob/M2/ros-2-planar-robot-p-3/install/ros2_planar_robot/include/ros2_planar_robot/ros2_planar_robot/msg/joint_position.h\n'}
[0.703833] (ros2_planar_robot) StdoutLine: {'line': b'-- Up-to-date: /home/umrob/M2/ros-2-planar-robot-p-3/install/ros2_planar_robot/share/ros2_planar_robot/environment/library_path.sh\n'}
[0.703922] (ros2_planar_robot) StdoutLine: {'line': b'-- Up-to-date: /home/umrob/M2/ros-2-planar-robot-p-3/install/ros2_planar_robot/share/ros2_planar_robot/environment/library_path.dsv\n'}
[0.704032] (ros2_planar_robot) StdoutLine: {'line': b'-- Up-to-date: /home/umrob/M2/ros-2-planar-robot-p-3/install/ros2_planar_robot/lib/libros2_planar_robot__rosidl_generator_c.so\n'}
[0.704191] (ros2_planar_robot) StdoutLine: {'line': b'-- Up-to-date: /home/umrob/M2/ros-2-planar-robot-p-3/install/ros2_planar_robot/include/ros2_planar_robot/ros2_planar_robot\n'}
[0.704265] (ros2_planar_robot) StdoutLine: {'line': b'-- Up-to-date: /home/umrob/M2/ros-2-planar-robot-p-3/install/ros2_planar_robot/include/ros2_planar_robot/ros2_planar_robot/msg\n'}
[0.704351] (ros2_planar_robot) StdoutLine: {'line': b'-- Up-to-date: /home/umrob/M2/ros-2-planar-robot-p-3/install/ros2_planar_robot/include/ros2_planar_robot/ros2_planar_robot/msg/detail\n'}
[0.704438] (ros2_planar_robot) StdoutLine: {'line': b'-- Up-to-date: /home/umrob/M2/ros-2-planar-robot-p-3/install/ros2_planar_robot/include/ros2_planar_robot/ros2_planar_robot/msg/detail/pose__rosidl_typesupport_fastrtps_c.h\n'}
[0.704523] (ros2_planar_robot) StdoutLine: {'line': b'-- Up-to-date: /home/umrob/M2/ros-2-planar-robot-p-3/install/ros2_planar_robot/include/ros2_planar_robot/ros2_planar_robot/msg/detail/ref_pose__rosidl_typesupport_fastrtps_c.h\n'}
[0.704633] (ros2_planar_robot) StdoutLine: {'line': b'-- Up-to-date: /home/umrob/M2/ros-2-planar-robot-p-3/install/ros2_planar_robot/include/ros2_planar_robot/ros2_planar_robot/msg/detail/cartesian_state__rosidl_typesupport_fastrtps_c.h\n'}
[0.704814] (ros2_planar_robot) StdoutLine: {'line': b'-- Up-to-date: /home/umrob/M2/ros-2-planar-robot-p-3/install/ros2_planar_robot/include/ros2_planar_robot/ros2_planar_robot/msg/detail/velocity__rosidl_typesupport_fastrtps_c.h\n'}
[0.704903] (ros2_planar_robot) StdoutLine: {'line': b'-- Up-to-date: /home/umrob/M2/ros-2-planar-robot-p-3/install/ros2_planar_robot/include/ros2_planar_robot/ros2_planar_robot/msg/detail/kin_data__rosidl_typesupport_fastrtps_c.h\n'}
[0.705010] (ros2_planar_robot) StdoutLine: {'line': b'-- Up-to-date: /home/umrob/M2/ros-2-planar-robot-p-3/install/ros2_planar_robot/include/ros2_planar_robot/ros2_planar_robot/msg/detail/joint_position__rosidl_typesupport_fastrtps_c.h\n'}
[0.705174] (ros2_planar_robot) StdoutLine: {'line': b'-- Up-to-date: /home/umrob/M2/ros-2-planar-robot-p-3/install/ros2_planar_robot/include/ros2_planar_robot/ros2_planar_robot/msg/rosidl_typesupport_fastrtps_c__visibility_control.h\n'}
[0.705244] (ros2_planar_robot) StdoutLine: {'line': b'-- Up-to-date: /home/umrob/M2/ros-2-planar-robot-p-3/install/ros2_planar_robot/lib/libros2_planar_robot__rosidl_typesupport_fastrtps_c.so\n'}
[0.705313] (ros2_planar_robot) StdoutLine: {'line': b'-- Up-to-date: /home/umrob/M2/ros-2-planar-robot-p-3/install/ros2_planar_robot/include/ros2_planar_robot/ros2_planar_robot\n'}
[0.705381] (ros2_planar_robot) StdoutLine: {'line': b'-- Up-to-date: /home/umrob/M2/ros-2-planar-robot-p-3/install/ros2_planar_robot/include/ros2_planar_robot/ros2_planar_robot/msg\n'}
[0.705450] (ros2_planar_robot) StdoutLine: {'line': b'-- Up-to-date: /home/umrob/M2/ros-2-planar-robot-p-3/install/ros2_planar_robot/include/ros2_planar_robot/ros2_planar_robot/msg/detail\n'}
[0.705517] (ros2_planar_robot) StdoutLine: {'line': b'-- Up-to-date: /home/umrob/M2/ros-2-planar-robot-p-3/install/ros2_planar_robot/include/ros2_planar_robot/ros2_planar_robot/msg/detail/cartesian_state__struct.hpp\n'}
[0.705586] (ros2_planar_robot) StdoutLine: {'line': b'-- Up-to-date: /home/umrob/M2/ros-2-planar-robot-p-3/install/ros2_planar_robot/include/ros2_planar_robot/ros2_planar_robot/msg/detail/velocity__traits.hpp\n'}
[0.705655] (ros2_planar_robot) StdoutLine: {'line': b'-- Up-to-date: /home/umrob/M2/ros-2-planar-robot-p-3/install/ros2_planar_robot/include/ros2_planar_robot/ros2_planar_robot/msg/detail/kin_data__traits.hpp\n'}
[0.705723] (ros2_planar_robot) StdoutLine: {'line': b'-- Up-to-date: /home/umrob/M2/ros-2-planar-robot-p-3/install/ros2_planar_robot/include/ros2_planar_robot/ros2_planar_robot/msg/detail/kin_data__struct.hpp\n'}
[0.705791] (ros2_planar_robot) StdoutLine: {'line': b'-- Up-to-date: /home/umrob/M2/ros-2-planar-robot-p-3/install/ros2_planar_robot/include/ros2_planar_robot/ros2_planar_robot/msg/detail/joint_position__struct.hpp\n'}
[0.705859] (ros2_planar_robot) StdoutLine: {'line': b'-- Up-to-date: /home/umrob/M2/ros-2-planar-robot-p-3/install/ros2_planar_robot/include/ros2_planar_robot/ros2_planar_robot/msg/detail/ref_pose__traits.hpp\n'}
[0.705930] (ros2_planar_robot) StdoutLine: {'line': b'-- Up-to-date: /home/umrob/M2/ros-2-planar-robot-p-3/install/ros2_planar_robot/include/ros2_planar_robot/ros2_planar_robot/msg/detail/joint_position__traits.hpp\n'}
[0.705998] (ros2_planar_robot) StdoutLine: {'line': b'-- Up-to-date: /home/umrob/M2/ros-2-planar-robot-p-3/install/ros2_planar_robot/include/ros2_planar_robot/ros2_planar_robot/msg/detail/kin_data__builder.hpp\n'}
[0.706066] (ros2_planar_robot) StdoutLine: {'line': b'-- Up-to-date: /home/umrob/M2/ros-2-planar-robot-p-3/install/ros2_planar_robot/include/ros2_planar_robot/ros2_planar_robot/msg/detail/ref_pose__builder.hpp\n'}
[0.706143] (ros2_planar_robot) StdoutLine: {'line': b'-- Up-to-date: /home/umrob/M2/ros-2-planar-robot-p-3/install/ros2_planar_robot/include/ros2_planar_robot/ros2_planar_robot/msg/detail/pose__traits.hpp\n'}
[0.706213] (ros2_planar_robot) StdoutLine: {'line': b'-- Up-to-date: /home/umrob/M2/ros-2-planar-robot-p-3/install/ros2_planar_robot/include/ros2_planar_robot/ros2_planar_robot/msg/detail/cartesian_state__traits.hpp\n'}
[0.706281] (ros2_planar_robot) StdoutLine: {'line': b'-- Up-to-date: /home/umrob/M2/ros-2-planar-robot-p-3/install/ros2_planar_robot/include/ros2_planar_robot/ros2_planar_robot/msg/detail/ref_pose__struct.hpp\n'}
[0.706360] (ros2_planar_robot) StdoutLine: {'line': b'-- Up-to-date: /home/umrob/M2/ros-2-planar-robot-p-3/install/ros2_planar_robot/include/ros2_planar_robot/ros2_planar_robot/msg/detail/pose__builder.hpp\n'}
[0.706425] (ros2_planar_robot) StdoutLine: {'line': b'-- Up-to-date: /home/umrob/M2/ros-2-planar-robot-p-3/install/ros2_planar_robot/include/ros2_planar_robot/ros2_planar_robot/msg/detail/pose__struct.hpp\n'}
[0.706498] (ros2_planar_robot) StdoutLine: {'line': b'-- Up-to-date: /home/umrob/M2/ros-2-planar-robot-p-3/install/ros2_planar_robot/include/ros2_planar_robot/ros2_planar_robot/msg/detail/joint_position__builder.hpp\n'}
[0.706562] (ros2_planar_robot) StdoutLine: {'line': b'-- Up-to-date: /home/umrob/M2/ros-2-planar-robot-p-3/install/ros2_planar_robot/include/ros2_planar_robot/ros2_planar_robot/msg/detail/cartesian_state__builder.hpp\n'}
[0.706627] (ros2_planar_robot) StdoutLine: {'line': b'-- Up-to-date: /home/umrob/M2/ros-2-planar-robot-p-3/install/ros2_planar_robot/include/ros2_planar_robot/ros2_planar_robot/msg/detail/velocity__builder.hpp\n'}
[0.706692] (ros2_planar_robot) StdoutLine: {'line': b'-- Up-to-date: /home/umrob/M2/ros-2-planar-robot-p-3/install/ros2_planar_robot/include/ros2_planar_robot/ros2_planar_robot/msg/detail/velocity__struct.hpp\n'}
[0.706772] (ros2_planar_robot) StdoutLine: {'line': b'-- Up-to-date: /home/umrob/M2/ros-2-planar-robot-p-3/install/ros2_planar_robot/include/ros2_planar_robot/ros2_planar_robot/msg/ref_pose.hpp\n'}
[0.706859] (ros2_planar_robot) StdoutLine: {'line': b'-- Up-to-date: /home/umrob/M2/ros-2-planar-robot-p-3/install/ros2_planar_robot/include/ros2_planar_robot/ros2_planar_robot/msg/joint_position.hpp\n'}
[0.706927] (ros2_planar_robot) StdoutLine: {'line': b'-- Up-to-date: /home/umrob/M2/ros-2-planar-robot-p-3/install/ros2_planar_robot/include/ros2_planar_robot/ros2_planar_robot/msg/cartesian_state.hpp\n'}
[0.706995] (ros2_planar_robot) StdoutLine: {'line': b'-- Up-to-date: /home/umrob/M2/ros-2-planar-robot-p-3/install/ros2_planar_robot/include/ros2_planar_robot/ros2_planar_robot/msg/kin_data.hpp\n'}
[0.707064] (ros2_planar_robot) StdoutLine: {'line': b'-- Up-to-date: /home/umrob/M2/ros-2-planar-robot-p-3/install/ros2_planar_robot/include/ros2_planar_robot/ros2_planar_robot/msg/pose.hpp\n'}
[0.707132] (ros2_planar_robot) StdoutLine: {'line': b'-- Up-to-date: /home/umrob/M2/ros-2-planar-robot-p-3/install/ros2_planar_robot/include/ros2_planar_robot/ros2_planar_robot/msg/velocity.hpp\n'}
[0.707199] (ros2_planar_robot) StdoutLine: {'line': b'-- Up-to-date: /home/umrob/M2/ros-2-planar-robot-p-3/install/ros2_planar_robot/include/ros2_planar_robot/ros2_planar_robot\n'}
[0.707267] (ros2_planar_robot) StdoutLine: {'line': b'-- Up-to-date: /home/umrob/M2/ros-2-planar-robot-p-3/install/ros2_planar_robot/include/ros2_planar_robot/ros2_planar_robot/msg\n'}
[0.707334] (ros2_planar_robot) StdoutLine: {'line': b'-- Up-to-date: /home/umrob/M2/ros-2-planar-robot-p-3/install/ros2_planar_robot/include/ros2_planar_robot/ros2_planar_robot/msg/detail\n'}
[0.707401] (ros2_planar_robot) StdoutLine: {'line': b'-- Up-to-date: /home/umrob/M2/ros-2-planar-robot-p-3/install/ros2_planar_robot/include/ros2_planar_robot/ros2_planar_robot/msg/detail/velocity__rosidl_typesupport_fastrtps_cpp.hpp\n'}
[0.707469] (ros2_planar_robot) StdoutLine: {'line': b'-- Up-to-date: /home/umrob/M2/ros-2-planar-robot-p-3/install/ros2_planar_robot/include/ros2_planar_robot/ros2_planar_robot/msg/detail/pose__rosidl_typesupport_fastrtps_cpp.hpp\n'}
[0.707538] (ros2_planar_robot) StdoutLine: {'line': b'-- Up-to-date: /home/umrob/M2/ros-2-planar-robot-p-3/install/ros2_planar_robot/include/ros2_planar_robot/ros2_planar_robot/msg/detail/dds_fastrtps\n'}
[0.707605] (ros2_planar_robot) StdoutLine: {'line': b'-- Up-to-date: /home/umrob/M2/ros-2-planar-robot-p-3/install/ros2_planar_robot/include/ros2_planar_robot/ros2_planar_robot/msg/detail/cartesian_state__rosidl_typesupport_fastrtps_cpp.hpp\n'}
[0.707677] (ros2_planar_robot) StdoutLine: {'line': b'-- Up-to-date: /home/umrob/M2/ros-2-planar-robot-p-3/install/ros2_planar_robot/include/ros2_planar_robot/ros2_planar_robot/msg/detail/ref_pose__rosidl_typesupport_fastrtps_cpp.hpp\n'}
[0.707744] (ros2_planar_robot) StdoutLine: {'line': b'-- Up-to-date: /home/umrob/M2/ros-2-planar-robot-p-3/install/ros2_planar_robot/include/ros2_planar_robot/ros2_planar_robot/msg/detail/joint_position__rosidl_typesupport_fastrtps_cpp.hpp\n'}
[0.707812] (ros2_planar_robot) StdoutLine: {'line': b'-- Up-to-date: /home/umrob/M2/ros-2-planar-robot-p-3/install/ros2_planar_robot/include/ros2_planar_robot/ros2_planar_robot/msg/detail/kin_data__rosidl_typesupport_fastrtps_cpp.hpp\n'}
[0.707892] (ros2_planar_robot) StdoutLine: {'line': b'-- Up-to-date: /home/umrob/M2/ros-2-planar-robot-p-3/install/ros2_planar_robot/include/ros2_planar_robot/ros2_planar_robot/msg/rosidl_typesupport_fastrtps_cpp__visibility_control.h\n'}
[0.707974] (ros2_planar_robot) StdoutLine: {'line': b'-- Up-to-date: /home/umrob/M2/ros-2-planar-robot-p-3/install/ros2_planar_robot/lib/libros2_planar_robot__rosidl_typesupport_fastrtps_cpp.so\n'}
[0.708038] (ros2_planar_robot) StdoutLine: {'line': b'-- Up-to-date: /home/umrob/M2/ros-2-planar-robot-p-3/install/ros2_planar_robot/include/ros2_planar_robot/ros2_planar_robot\n'}
[0.708126] (ros2_planar_robot) StdoutLine: {'line': b'-- Up-to-date: /home/umrob/M2/ros-2-planar-robot-p-3/install/ros2_planar_robot/include/ros2_planar_robot/ros2_planar_robot/msg\n'}
[0.708191] (ros2_planar_robot) StdoutLine: {'line': b'-- Up-to-date: /home/umrob/M2/ros-2-planar-robot-p-3/install/ros2_planar_robot/include/ros2_planar_robot/ros2_planar_robot/msg/detail\n'}
[0.708255] (ros2_planar_robot) StdoutLine: {'line': b'-- Up-to-date: /home/umrob/M2/ros-2-planar-robot-p-3/install/ros2_planar_robot/include/ros2_planar_robot/ros2_planar_robot/msg/detail/pose__rosidl_typesupport_introspection_c.h\n'}
[0.708319] (ros2_planar_robot) StdoutLine: {'line': b'-- Up-to-date: /home/umrob/M2/ros-2-planar-robot-p-3/install/ros2_planar_robot/include/ros2_planar_robot/ros2_planar_robot/msg/detail/kin_data__rosidl_typesupport_introspection_c.h\n'}
[0.708383] (ros2_planar_robot) StdoutLine: {'line': b'-- Up-to-date: /home/umrob/M2/ros-2-planar-robot-p-3/install/ros2_planar_robot/include/ros2_planar_robot/ros2_planar_robot/msg/detail/kin_data__type_support.c\n'}
[0.708446] (ros2_planar_robot) StdoutLine: {'line': b'-- Up-to-date: /home/umrob/M2/ros-2-planar-robot-p-3/install/ros2_planar_robot/include/ros2_planar_robot/ros2_planar_robot/msg/detail/ref_pose__type_support.c\n'}
[0.708510] (ros2_planar_robot) StdoutLine: {'line': b'-- Up-to-date: /home/umrob/M2/ros-2-planar-robot-p-3/install/ros2_planar_robot/include/ros2_planar_robot/ros2_planar_robot/msg/detail/pose__type_support.c\n'}
[0.708574] (ros2_planar_robot) StdoutLine: {'line': b'-- Up-to-date: /home/umrob/M2/ros-2-planar-robot-p-3/install/ros2_planar_robot/include/ros2_planar_robot/ros2_planar_robot/msg/detail/velocity__type_support.c\n'}
[0.708649] (ros2_planar_robot) StdoutLine: {'line': b'-- Up-to-date: /home/umrob/M2/ros-2-planar-robot-p-3/install/ros2_planar_robot/include/ros2_planar_robot/ros2_planar_robot/msg/detail/joint_position__rosidl_typesupport_introspection_c.h\n'}
[0.708715] (ros2_planar_robot) StdoutLine: {'line': b'-- Up-to-date: /home/umrob/M2/ros-2-planar-robot-p-3/install/ros2_planar_robot/include/ros2_planar_robot/ros2_planar_robot/msg/detail/velocity__rosidl_typesupport_introspection_c.h\n'}
[0.708779] (ros2_planar_robot) StdoutLine: {'line': b'-- Up-to-date: /home/umrob/M2/ros-2-planar-robot-p-3/install/ros2_planar_robot/include/ros2_planar_robot/ros2_planar_robot/msg/detail/ref_pose__rosidl_typesupport_introspection_c.h\n'}
[0.708843] (ros2_planar_robot) StdoutLine: {'line': b'-- Up-to-date: /home/umrob/M2/ros-2-planar-robot-p-3/install/ros2_planar_robot/include/ros2_planar_robot/ros2_planar_robot/msg/detail/joint_position__type_support.c\n'}
[0.708906] (ros2_planar_robot) StdoutLine: {'line': b'-- Up-to-date: /home/umrob/M2/ros-2-planar-robot-p-3/install/ros2_planar_robot/include/ros2_planar_robot/ros2_planar_robot/msg/detail/cartesian_state__rosidl_typesupport_introspection_c.h\n'}
[0.708969] (ros2_planar_robot) StdoutLine: {'line': b'-- Up-to-date: /home/umrob/M2/ros-2-planar-robot-p-3/install/ros2_planar_robot/include/ros2_planar_robot/ros2_planar_robot/msg/detail/cartesian_state__type_support.c\n'}
[0.709034] (ros2_planar_robot) StdoutLine: {'line': b'-- Up-to-date: /home/umrob/M2/ros-2-planar-robot-p-3/install/ros2_planar_robot/include/ros2_planar_robot/ros2_planar_robot/msg/rosidl_typesupport_introspection_c__visibility_control.h\n'}
[0.709103] (ros2_planar_robot) StdoutLine: {'line': b'-- Up-to-date: /home/umrob/M2/ros-2-planar-robot-p-3/install/ros2_planar_robot/lib/libros2_planar_robot__rosidl_typesupport_introspection_c.so\n'}
[0.709167] (ros2_planar_robot) StdoutLine: {'line': b'-- Up-to-date: /home/umrob/M2/ros-2-planar-robot-p-3/install/ros2_planar_robot/lib/libros2_planar_robot__rosidl_typesupport_c.so\n'}
[0.709230] (ros2_planar_robot) StdoutLine: {'line': b'-- Up-to-date: /home/umrob/M2/ros-2-planar-robot-p-3/install/ros2_planar_robot/include/ros2_planar_robot/ros2_planar_robot\n'}
[0.709294] (ros2_planar_robot) StdoutLine: {'line': b'-- Up-to-date: /home/umrob/M2/ros-2-planar-robot-p-3/install/ros2_planar_robot/include/ros2_planar_robot/ros2_planar_robot/msg\n'}
[0.709358] (ros2_planar_robot) StdoutLine: {'line': b'-- Up-to-date: /home/umrob/M2/ros-2-planar-robot-p-3/install/ros2_planar_robot/include/ros2_planar_robot/ros2_planar_robot/msg/detail\n'}
[0.709420] (ros2_planar_robot) StdoutLine: {'line': b'-- Up-to-date: /home/umrob/M2/ros-2-planar-robot-p-3/install/ros2_planar_robot/include/ros2_planar_robot/ros2_planar_robot/msg/detail/kin_data__rosidl_typesupport_introspection_cpp.hpp\n'}
[0.709489] (ros2_planar_robot) StdoutLine: {'line': b'-- Up-to-date: /home/umrob/M2/ros-2-planar-robot-p-3/install/ros2_planar_robot/include/ros2_planar_robot/ros2_planar_robot/msg/detail/kin_data__type_support.cpp\n'}
[0.709554] (ros2_planar_robot) StdoutLine: {'line': b'-- Up-to-date: /home/umrob/M2/ros-2-planar-robot-p-3/install/ros2_planar_robot/include/ros2_planar_robot/ros2_planar_robot/msg/detail/ref_pose__rosidl_typesupport_introspection_cpp.hpp\n'}
[0.709617] (ros2_planar_robot) StdoutLine: {'line': b'-- Up-to-date: /home/umrob/M2/ros-2-planar-robot-p-3/install/ros2_planar_robot/include/ros2_planar_robot/ros2_planar_robot/msg/detail/velocity__rosidl_typesupport_introspection_cpp.hpp\n'}
[0.709681] (ros2_planar_robot) StdoutLine: {'line': b'-- Up-to-date: /home/umrob/M2/ros-2-planar-robot-p-3/install/ros2_planar_robot/include/ros2_planar_robot/ros2_planar_robot/msg/detail/joint_position__rosidl_typesupport_introspection_cpp.hpp\n'}
[0.709744] (ros2_planar_robot) StdoutLine: {'line': b'-- Up-to-date: /home/umrob/M2/ros-2-planar-robot-p-3/install/ros2_planar_robot/include/ros2_planar_robot/ros2_planar_robot/msg/detail/cartesian_state__type_support.cpp\n'}
[0.709808] (ros2_planar_robot) StdoutLine: {'line': b'-- Up-to-date: /home/umrob/M2/ros-2-planar-robot-p-3/install/ros2_planar_robot/include/ros2_planar_robot/ros2_planar_robot/msg/detail/pose__type_support.cpp\n'}
[0.709871] (ros2_planar_robot) StdoutLine: {'line': b'-- Up-to-date: /home/umrob/M2/ros-2-planar-robot-p-3/install/ros2_planar_robot/include/ros2_planar_robot/ros2_planar_robot/msg/detail/cartesian_state__rosidl_typesupport_introspection_cpp.hpp\n'}
[0.709936] (ros2_planar_robot) StdoutLine: {'line': b'-- Up-to-date: /home/umrob/M2/ros-2-planar-robot-p-3/install/ros2_planar_robot/include/ros2_planar_robot/ros2_planar_robot/msg/detail/pose__rosidl_typesupport_introspection_cpp.hpp\n'}
[0.709999] (ros2_planar_robot) StdoutLine: {'line': b'-- Up-to-date: /home/umrob/M2/ros-2-planar-robot-p-3/install/ros2_planar_robot/include/ros2_planar_robot/ros2_planar_robot/msg/detail/ref_pose__type_support.cpp\n'}
[0.710062] (ros2_planar_robot) StdoutLine: {'line': b'-- Up-to-date: /home/umrob/M2/ros-2-planar-robot-p-3/install/ros2_planar_robot/include/ros2_planar_robot/ros2_planar_robot/msg/detail/velocity__type_support.cpp\n'}
[0.710125] (ros2_planar_robot) StdoutLine: {'line': b'-- Up-to-date: /home/umrob/M2/ros-2-planar-robot-p-3/install/ros2_planar_robot/include/ros2_planar_robot/ros2_planar_robot/msg/detail/joint_position__type_support.cpp\n'}
[0.710188] (ros2_planar_robot) StdoutLine: {'line': b'-- Up-to-date: /home/umrob/M2/ros-2-planar-robot-p-3/install/ros2_planar_robot/lib/libros2_planar_robot__rosidl_typesupport_introspection_cpp.so\n'}
[0.710262] (ros2_planar_robot) StdoutLine: {'line': b'-- Up-to-date: /home/umrob/M2/ros-2-planar-robot-p-3/install/ros2_planar_robot/lib/libros2_planar_robot__rosidl_typesupport_cpp.so\n'}
[0.710331] (ros2_planar_robot) StdoutLine: {'line': b'-- Up-to-date: /home/umrob/M2/ros-2-planar-robot-p-3/install/ros2_planar_robot/share/ros2_planar_robot/environment/pythonpath.sh\n'}
[0.710394] (ros2_planar_robot) StdoutLine: {'line': b'-- Up-to-date: /home/umrob/M2/ros-2-planar-robot-p-3/install/ros2_planar_robot/share/ros2_planar_robot/environment/pythonpath.dsv\n'}
[0.710456] (ros2_planar_robot) StdoutLine: {'line': b'-- Up-to-date: /home/umrob/M2/ros-2-planar-robot-p-3/install/ros2_planar_robot/local/lib/python3.10/dist-packages/ros2_planar_robot-0.0.0-py3.10.egg-info\n'}
[0.710518] (ros2_planar_robot) StdoutLine: {'line': b'-- Installing: /home/umrob/M2/ros-2-planar-robot-p-3/install/ros2_planar_robot/local/lib/python3.10/dist-packages/ros2_planar_robot-0.0.0-py3.10.egg-info/dependency_links.txt\n'}
[0.710582] (ros2_planar_robot) StdoutLine: {'line': b'-- Installing: /home/umrob/M2/ros-2-planar-robot-p-3/install/ros2_planar_robot/local/lib/python3.10/dist-packages/ros2_planar_robot-0.0.0-py3.10.egg-info/SOURCES.txt\n'}
[0.710644] (ros2_planar_robot) StdoutLine: {'line': b'-- Installing: /home/umrob/M2/ros-2-planar-robot-p-3/install/ros2_planar_robot/local/lib/python3.10/dist-packages/ros2_planar_robot-0.0.0-py3.10.egg-info/PKG-INFO\n'}
[0.710707] (ros2_planar_robot) StdoutLine: {'line': b'-- Installing: /home/umrob/M2/ros-2-planar-robot-p-3/install/ros2_planar_robot/local/lib/python3.10/dist-packages/ros2_planar_robot-0.0.0-py3.10.egg-info/top_level.txt\n'}
[0.710769] (ros2_planar_robot) StdoutLine: {'line': b'-- Up-to-date: /home/umrob/M2/ros-2-planar-robot-p-3/install/ros2_planar_robot/local/lib/python3.10/dist-packages/ros2_planar_robot\n'}
[0.710832] (ros2_planar_robot) StdoutLine: {'line': b'-- Up-to-date: /home/umrob/M2/ros-2-planar-robot-p-3/install/ros2_planar_robot/local/lib/python3.10/dist-packages/ros2_planar_robot/_ros2_planar_robot_s.ep.rosidl_typesupport_c.c\n'}
[0.710896] (ros2_planar_robot) StdoutLine: {'line': b'-- Up-to-date: /home/umrob/M2/ros-2-planar-robot-p-3/install/ros2_planar_robot/local/lib/python3.10/dist-packages/ros2_planar_robot/ros2_planar_robot_s__rosidl_typesupport_fastrtps_c.cpython-38-x86_64-linux-gnu.so\n'}
[0.710961] (ros2_planar_robot) StdoutLine: {'line': b'-- Up-to-date: /home/umrob/M2/ros-2-planar-robot-p-3/install/ros2_planar_robot/local/lib/python3.10/dist-packages/ros2_planar_robot/_ros2_planar_robot_s.ep.rosidl_typesupport_introspection_c.c\n'}
[0.711029] (ros2_planar_robot) StdoutLine: {'line': b'-- Up-to-date: /home/umrob/M2/ros-2-planar-robot-p-3/install/ros2_planar_robot/local/lib/python3.10/dist-packages/ros2_planar_robot/_ros2_planar_robot_s.ep.rosidl_typesupport_fastrtps_c.c\n'}
[0.711094] (ros2_planar_robot) StdoutLine: {'line': b'-- Up-to-date: /home/umrob/M2/ros-2-planar-robot-p-3/install/ros2_planar_robot/local/lib/python3.10/dist-packages/ros2_planar_robot/ros2_planar_robot_s__rosidl_typesupport_introspection_c.cpython-38-x86_64-linux-gnu.so\n'}
[0.711158] (ros2_planar_robot) StdoutLine: {'line': b'-- Up-to-date: /home/umrob/M2/ros-2-planar-robot-p-3/install/ros2_planar_robot/local/lib/python3.10/dist-packages/ros2_planar_robot/msg\n'}
[0.711236] (ros2_planar_robot) StdoutLine: {'line': b'-- Up-to-date: /home/umrob/M2/ros-2-planar-robot-p-3/install/ros2_planar_robot/local/lib/python3.10/dist-packages/ros2_planar_robot/msg/_ref_pose.py\n'}
[0.711303] (ros2_planar_robot) StdoutLine: {'line': b'-- Up-to-date: /home/umrob/M2/ros-2-planar-robot-p-3/install/ros2_planar_robot/local/lib/python3.10/dist-packages/ros2_planar_robot/msg/_kin_data.py\n'}
[0.711370] (ros2_planar_robot) StdoutLine: {'line': b'-- Up-to-date: /home/umrob/M2/ros-2-planar-robot-p-3/install/ros2_planar_robot/local/lib/python3.10/dist-packages/ros2_planar_robot/msg/_velocity_s.c\n'}
[0.711436] (ros2_planar_robot) StdoutLine: {'line': b'-- Up-to-date: /home/umrob/M2/ros-2-planar-robot-p-3/install/ros2_planar_robot/local/lib/python3.10/dist-packages/ros2_planar_robot/msg/_kin_data_s.c\n'}
[0.711503] (ros2_planar_robot) StdoutLine: {'line': b'-- Up-to-date: /home/umrob/M2/ros-2-planar-robot-p-3/install/ros2_planar_robot/local/lib/python3.10/dist-packages/ros2_planar_robot/msg/_cartesian_state.py\n'}
[0.711576] (ros2_planar_robot) StdoutLine: {'line': b'-- Up-to-date: /home/umrob/M2/ros-2-planar-robot-p-3/install/ros2_planar_robot/local/lib/python3.10/dist-packages/ros2_planar_robot/msg/_joint_position_s.c\n'}
[0.711642] (ros2_planar_robot) StdoutLine: {'line': b'-- Up-to-date: /home/umrob/M2/ros-2-planar-robot-p-3/install/ros2_planar_robot/local/lib/python3.10/dist-packages/ros2_planar_robot/msg/_pose.py\n'}
[0.711708] (ros2_planar_robot) StdoutLine: {'line': b'-- Up-to-date: /home/umrob/M2/ros-2-planar-robot-p-3/install/ros2_planar_robot/local/lib/python3.10/dist-packages/ros2_planar_robot/msg/_cartesian_state_s.c\n'}
[0.711775] (ros2_planar_robot) StdoutLine: {'line': b'-- Up-to-date: /home/umrob/M2/ros-2-planar-robot-p-3/install/ros2_planar_robot/local/lib/python3.10/dist-packages/ros2_planar_robot/msg/_joint_position.py\n'}
[0.711841] (ros2_planar_robot) StdoutLine: {'line': b'-- Up-to-date: /home/umrob/M2/ros-2-planar-robot-p-3/install/ros2_planar_robot/local/lib/python3.10/dist-packages/ros2_planar_robot/msg/_ref_pose_s.c\n'}
[0.711920] (ros2_planar_robot) StdoutLine: {'line': b'-- Up-to-date: /home/umrob/M2/ros-2-planar-robot-p-3/install/ros2_planar_robot/local/lib/python3.10/dist-packages/ros2_planar_robot/msg/_pose_s.c\n'}
[0.711998] (ros2_planar_robot) StdoutLine: {'line': b'-- Up-to-date: /home/umrob/M2/ros-2-planar-robot-p-3/install/ros2_planar_robot/local/lib/python3.10/dist-packages/ros2_planar_robot/msg/__init__.py\n'}
[0.712110] (ros2_planar_robot) StdoutLine: {'line': b'-- Up-to-date: /home/umrob/M2/ros-2-planar-robot-p-3/install/ros2_planar_robot/local/lib/python3.10/dist-packages/ros2_planar_robot/msg/_velocity.py\n'}
[0.712201] (ros2_planar_robot) StdoutLine: {'line': b'-- Up-to-date: /home/umrob/M2/ros-2-planar-robot-p-3/install/ros2_planar_robot/local/lib/python3.10/dist-packages/ros2_planar_robot/libros2_planar_robot__rosidl_generator_py.so\n'}
[0.712290] (ros2_planar_robot) StdoutLine: {'line': b'-- Up-to-date: /home/umrob/M2/ros-2-planar-robot-p-3/install/ros2_planar_robot/local/lib/python3.10/dist-packages/ros2_planar_robot/__init__.py\n'}
[0.712357] (ros2_planar_robot) StdoutLine: {'line': b'-- Up-to-date: /home/umrob/M2/ros-2-planar-robot-p-3/install/ros2_planar_robot/local/lib/python3.10/dist-packages/ros2_planar_robot/ros2_planar_robot_s__rosidl_typesupport_c.cpython-38-x86_64-linux-gnu.so\n'}
[0.736339] (ros2_planar_robot) StdoutLine: {'line': b"Listing '/home/umrob/M2/ros-2-planar-robot-p-3/install/ros2_planar_robot/local/lib/python3.10/dist-packages/ros2_planar_robot'...\n"}
[0.736624] (ros2_planar_robot) StdoutLine: {'line': b"Listing '/home/umrob/M2/ros-2-planar-robot-p-3/install/ros2_planar_robot/local/lib/python3.10/dist-packages/ros2_planar_robot/msg'...\n"}
[0.742646] (ros2_planar_robot) StdoutLine: {'line': b'-- Up-to-date: /home/umrob/M2/ros-2-planar-robot-p-3/install/ros2_planar_robot/local/lib/python3.10/dist-packages/ros2_planar_robot/ros2_planar_robot_s__rosidl_typesupport_fastrtps_c.cpython-38-x86_64-linux-gnu.so\n'}
[0.742965] (ros2_planar_robot) StdoutLine: {'line': b'-- Up-to-date: /home/umrob/M2/ros-2-planar-robot-p-3/install/ros2_planar_robot/local/lib/python3.10/dist-packages/ros2_planar_robot/ros2_planar_robot_s__rosidl_typesupport_introspection_c.cpython-38-x86_64-linux-gnu.so\n'}
[0.743208] (ros2_planar_robot) StdoutLine: {'line': b'-- Up-to-date: /home/umrob/M2/ros-2-planar-robot-p-3/install/ros2_planar_robot/local/lib/python3.10/dist-packages/ros2_planar_robot/ros2_planar_robot_s__rosidl_typesupport_c.cpython-38-x86_64-linux-gnu.so\n'}
[0.743483] (ros2_planar_robot) StdoutLine: {'line': b'-- Up-to-date: /home/umrob/M2/ros-2-planar-robot-p-3/install/ros2_planar_robot/lib/libros2_planar_robot__rosidl_generator_py.so\n'}
[0.743716] (ros2_planar_robot) StdoutLine: {'line': b'-- Up-to-date: /home/umrob/M2/ros-2-planar-robot-p-3/install/ros2_planar_robot/share/ros2_planar_robot/msg/RefPose.idl\n'}
[0.743878] (ros2_planar_robot) StdoutLine: {'line': b'-- Up-to-date: /home/umrob/M2/ros-2-planar-robot-p-3/install/ros2_planar_robot/share/ros2_planar_robot/msg/Pose.idl\n'}
[0.744016] (ros2_planar_robot) StdoutLine: {'line': b'-- Up-to-date: /home/umrob/M2/ros-2-planar-robot-p-3/install/ros2_planar_robot/share/ros2_planar_robot/msg/CartesianState.idl\n'}
[0.744203] (ros2_planar_robot) StdoutLine: {'line': b'-- Up-to-date: /home/umrob/M2/ros-2-planar-robot-p-3/install/ros2_planar_robot/share/ros2_planar_robot/msg/Velocity.idl\n'}
[0.744287] (ros2_planar_robot) StdoutLine: {'line': b'-- Up-to-date: /home/umrob/M2/ros-2-planar-robot-p-3/install/ros2_planar_robot/share/ros2_planar_robot/msg/KinData.idl\n'}
[0.744384] (ros2_planar_robot) StdoutLine: {'line': b'-- Up-to-date: /home/umrob/M2/ros-2-planar-robot-p-3/install/ros2_planar_robot/share/ros2_planar_robot/msg/JointPosition.idl\n'}
[0.744455] (ros2_planar_robot) StdoutLine: {'line': b'-- Up-to-date: /home/umrob/M2/ros-2-planar-robot-p-3/install/ros2_planar_robot/share/ros2_planar_robot/msg/RefPose.msg\n'}
[0.744524] (ros2_planar_robot) StdoutLine: {'line': b'-- Up-to-date: /home/umrob/M2/ros-2-planar-robot-p-3/install/ros2_planar_robot/share/ros2_planar_robot/msg/Pose.msg\n'}
[0.744596] (ros2_planar_robot) StdoutLine: {'line': b'-- Up-to-date: /home/umrob/M2/ros-2-planar-robot-p-3/install/ros2_planar_robot/share/ros2_planar_robot/msg/CartesianState.msg\n'}
[0.744693] (ros2_planar_robot) StdoutLine: {'line': b'-- Up-to-date: /home/umrob/M2/ros-2-planar-robot-p-3/install/ros2_planar_robot/share/ros2_planar_robot/msg/Velocity.msg\n'}
[0.744761] (ros2_planar_robot) StdoutLine: {'line': b'-- Up-to-date: /home/umrob/M2/ros-2-planar-robot-p-3/install/ros2_planar_robot/share/ros2_planar_robot/msg/KinData.msg\n'}
[0.744829] (ros2_planar_robot) StdoutLine: {'line': b'-- Up-to-date: /home/umrob/M2/ros-2-planar-robot-p-3/install/ros2_planar_robot/share/ros2_planar_robot/msg/JointPosition.msg\n'}
[0.744951] (ros2_planar_robot) StdoutLine: {'line': b'-- Up-to-date: /home/umrob/M2/ros-2-planar-robot-p-3/install/ros2_planar_robot/lib/ros2_planar_robot/trajectory_generator\n'}
[0.745040] (ros2_planar_robot) StdoutLine: {'line': b'-- Up-to-date: /home/umrob/M2/ros-2-planar-robot-p-3/install/ros2_planar_robot/lib/ros2_planar_robot/high_lev_mng\n'}
[0.745108] (ros2_planar_robot) StdoutLine: {'line': b'-- Up-to-date: /home/umrob/M2/ros-2-planar-robot-p-3/install/ros2_planar_robot/lib/ros2_planar_robot/kinematic_modeller\n'}
[0.745193] (ros2_planar_robot) StdoutLine: {'line': b'-- Up-to-date: /home/umrob/M2/ros-2-planar-robot-p-3/install/ros2_planar_robot/lib/libtrajectory_generation_lib.so\n'}
[0.745294] (ros2_planar_robot) StdoutLine: {'line': b'-- Up-to-date: /home/umrob/M2/ros-2-planar-robot-p-3/install/ros2_planar_robot/lib/libkinematic_model_lib.so\n'}
[0.745413] (ros2_planar_robot) StdoutLine: {'line': b'-- Up-to-date: /home/umrob/M2/ros-2-planar-robot-p-3/install/ros2_planar_robot/share/ament_index/resource_index/package_run_dependencies/ros2_planar_robot\n'}
[0.745521] (ros2_planar_robot) StdoutLine: {'line': b'-- Up-to-date: /home/umrob/M2/ros-2-planar-robot-p-3/install/ros2_planar_robot/share/ament_index/resource_index/parent_prefix_path/ros2_planar_robot\n'}
[0.745631] (ros2_planar_robot) StdoutLine: {'line': b'-- Up-to-date: /home/umrob/M2/ros-2-planar-robot-p-3/install/ros2_planar_robot/share/ros2_planar_robot/environment/ament_prefix_path.sh\n'}
[0.745738] (ros2_planar_robot) StdoutLine: {'line': b'-- Up-to-date: /home/umrob/M2/ros-2-planar-robot-p-3/install/ros2_planar_robot/share/ros2_planar_robot/environment/ament_prefix_path.dsv\n'}
[0.745838] (ros2_planar_robot) StdoutLine: {'line': b'-- Up-to-date: /home/umrob/M2/ros-2-planar-robot-p-3/install/ros2_planar_robot/share/ros2_planar_robot/environment/path.sh\n'}
[0.745924] (ros2_planar_robot) StdoutLine: {'line': b'-- Up-to-date: /home/umrob/M2/ros-2-planar-robot-p-3/install/ros2_planar_robot/share/ros2_planar_robot/environment/path.dsv\n'}
[0.745992] (ros2_planar_robot) StdoutLine: {'line': b'-- Up-to-date: /home/umrob/M2/ros-2-planar-robot-p-3/install/ros2_planar_robot/share/ros2_planar_robot/local_setup.bash\n'}
[0.746078] (ros2_planar_robot) StdoutLine: {'line': b'-- Up-to-date: /home/umrob/M2/ros-2-planar-robot-p-3/install/ros2_planar_robot/share/ros2_planar_robot/local_setup.sh\n'}
[0.746172] (ros2_planar_robot) StdoutLine: {'line': b'-- Up-to-date: /home/umrob/M2/ros-2-planar-robot-p-3/install/ros2_planar_robot/share/ros2_planar_robot/local_setup.zsh\n'}
[0.746242] (ros2_planar_robot) StdoutLine: {'line': b'-- Up-to-date: /home/umrob/M2/ros-2-planar-robot-p-3/install/ros2_planar_robot/share/ros2_planar_robot/local_setup.dsv\n'}
[0.746337] (ros2_planar_robot) StdoutLine: {'line': b'-- Installing: /home/umrob/M2/ros-2-planar-robot-p-3/install/ros2_planar_robot/share/ros2_planar_robot/package.dsv\n'}
[0.746407] (ros2_planar_robot) StdoutLine: {'line': b'-- Up-to-date: /home/umrob/M2/ros-2-planar-robot-p-3/install/ros2_planar_robot/share/ament_index/resource_index/packages/ros2_planar_robot\n'}
[0.746508] (ros2_planar_robot) StdoutLine: {'line': b'-- Up-to-date: /home/umrob/M2/ros-2-planar-robot-p-3/install/ros2_planar_robot/share/ros2_planar_robot/cmake/export_ros2_planar_robot__rosidl_generator_cExport.cmake\n'}
[0.746592] (ros2_planar_robot) StdoutLine: {'line': b'-- Up-to-date: /home/umrob/M2/ros-2-planar-robot-p-3/install/ros2_planar_robot/share/ros2_planar_robot/cmake/export_ros2_planar_robot__rosidl_generator_cExport-noconfig.cmake\n'}
[0.746691] (ros2_planar_robot) StdoutLine: {'line': b'-- Up-to-date: /home/umrob/M2/ros-2-planar-robot-p-3/install/ros2_planar_robot/share/ros2_planar_robot/cmake/export_ros2_planar_robot__rosidl_typesupport_fastrtps_cExport.cmake\n'}
[0.746772] (ros2_planar_robot) StdoutLine: {'line': b'-- Up-to-date: /home/umrob/M2/ros-2-planar-robot-p-3/install/ros2_planar_robot/share/ros2_planar_robot/cmake/export_ros2_planar_robot__rosidl_typesupport_fastrtps_cExport-noconfig.cmake\n'}
[0.746860] (ros2_planar_robot) StdoutLine: {'line': b'-- Up-to-date: /home/umrob/M2/ros-2-planar-robot-p-3/install/ros2_planar_robot/share/ros2_planar_robot/cmake/export_ros2_planar_robot__rosidl_generator_cppExport.cmake\n'}
[0.746956] (ros2_planar_robot) StdoutLine: {'line': b'-- Up-to-date: /home/umrob/M2/ros-2-planar-robot-p-3/install/ros2_planar_robot/share/ros2_planar_robot/cmake/export_ros2_planar_robot__rosidl_typesupport_fastrtps_cppExport.cmake\n'}
[0.747027] (ros2_planar_robot) StdoutLine: {'line': b'-- Up-to-date: /home/umrob/M2/ros-2-planar-robot-p-3/install/ros2_planar_robot/share/ros2_planar_robot/cmake/export_ros2_planar_robot__rosidl_typesupport_fastrtps_cppExport-noconfig.cmake\n'}
[0.747127] (ros2_planar_robot) StdoutLine: {'line': b'-- Up-to-date: /home/umrob/M2/ros-2-planar-robot-p-3/install/ros2_planar_robot/share/ros2_planar_robot/cmake/ros2_planar_robot__rosidl_typesupport_introspection_cExport.cmake\n'}
[0.747213] (ros2_planar_robot) StdoutLine: {'line': b'-- Up-to-date: /home/umrob/M2/ros-2-planar-robot-p-3/install/ros2_planar_robot/share/ros2_planar_robot/cmake/ros2_planar_robot__rosidl_typesupport_introspection_cExport-noconfig.cmake\n'}
[0.747314] (ros2_planar_robot) StdoutLine: {'line': b'-- Up-to-date: /home/umrob/M2/ros-2-planar-robot-p-3/install/ros2_planar_robot/share/ros2_planar_robot/cmake/ros2_planar_robot__rosidl_typesupport_cExport.cmake\n'}
[0.747414] (ros2_planar_robot) StdoutLine: {'line': b'-- Up-to-date: /home/umrob/M2/ros-2-planar-robot-p-3/install/ros2_planar_robot/share/ros2_planar_robot/cmake/ros2_planar_robot__rosidl_typesupport_cExport-noconfig.cmake\n'}
[0.747511] (ros2_planar_robot) StdoutLine: {'line': b'-- Up-to-date: /home/umrob/M2/ros-2-planar-robot-p-3/install/ros2_planar_robot/share/ros2_planar_robot/cmake/ros2_planar_robot__rosidl_typesupport_introspection_cppExport.cmake\n'}
[0.747635] (ros2_planar_robot) StdoutLine: {'line': b'-- Up-to-date: /home/umrob/M2/ros-2-planar-robot-p-3/install/ros2_planar_robot/share/ros2_planar_robot/cmake/ros2_planar_robot__rosidl_typesupport_introspection_cppExport-noconfig.cmake\n'}
[0.747762] (ros2_planar_robot) StdoutLine: {'line': b'-- Up-to-date: /home/umrob/M2/ros-2-planar-robot-p-3/install/ros2_planar_robot/share/ros2_planar_robot/cmake/ros2_planar_robot__rosidl_typesupport_cppExport.cmake\n'}
[0.747841] (ros2_planar_robot) StdoutLine: {'line': b'-- Up-to-date: /home/umrob/M2/ros-2-planar-robot-p-3/install/ros2_planar_robot/share/ros2_planar_robot/cmake/ros2_planar_robot__rosidl_typesupport_cppExport-noconfig.cmake\n'}
[0.747920] (ros2_planar_robot) StdoutLine: {'line': b'-- Up-to-date: /home/umrob/M2/ros-2-planar-robot-p-3/install/ros2_planar_robot/share/ros2_planar_robot/cmake/export_ros2_planar_robot__rosidl_generator_pyExport.cmake\n'}
[0.747988] (ros2_planar_robot) StdoutLine: {'line': b'-- Up-to-date: /home/umrob/M2/ros-2-planar-robot-p-3/install/ros2_planar_robot/share/ros2_planar_robot/cmake/export_ros2_planar_robot__rosidl_generator_pyExport-noconfig.cmake\n'}
[0.748067] (ros2_planar_robot) StdoutLine: {'line': b'-- Up-to-date: /home/umrob/M2/ros-2-planar-robot-p-3/install/ros2_planar_robot/share/ros2_planar_robot/cmake/rosidl_cmake-extras.cmake\n'}
[0.748140] (ros2_planar_robot) StdoutLine: {'line': b'-- Up-to-date: /home/umrob/M2/ros-2-planar-robot-p-3/install/ros2_planar_robot/share/ros2_planar_robot/cmake/ament_cmake_export_include_directories-extras.cmake\n'}
[0.748225] (ros2_planar_robot) StdoutLine: {'line': b'-- Up-to-date: /home/umrob/M2/ros-2-planar-robot-p-3/install/ros2_planar_robot/share/ros2_planar_robot/cmake/ament_cmake_export_libraries-extras.cmake\n'}
[0.748312] (ros2_planar_robot) StdoutLine: {'line': b'-- Up-to-date: /home/umrob/M2/ros-2-planar-robot-p-3/install/ros2_planar_robot/share/ros2_planar_robot/cmake/ament_cmake_export_targets-extras.cmake\n'}
[0.748381] (ros2_planar_robot) StdoutLine: {'line': b'-- Up-to-date: /home/umrob/M2/ros-2-planar-robot-p-3/install/ros2_planar_robot/share/ros2_planar_robot/cmake/rosidl_cmake_export_typesupport_targets-extras.cmake\n'}
[0.748450] (ros2_planar_robot) StdoutLine: {'line': b'-- Up-to-date: /home/umrob/M2/ros-2-planar-robot-p-3/install/ros2_planar_robot/share/ros2_planar_robot/cmake/ament_cmake_export_dependencies-extras.cmake\n'}
[0.748526] (ros2_planar_robot) StdoutLine: {'line': b'-- Up-to-date: /home/umrob/M2/ros-2-planar-robot-p-3/install/ros2_planar_robot/share/ros2_planar_robot/cmake/rosidl_cmake_export_typesupport_libraries-extras.cmake\n'}
[0.748596] (ros2_planar_robot) StdoutLine: {'line': b'-- Up-to-date: /home/umrob/M2/ros-2-planar-robot-p-3/install/ros2_planar_robot/share/ros2_planar_robot/cmake/ros2_planar_robotConfig.cmake\n'}
[0.748665] (ros2_planar_robot) StdoutLine: {'line': b'-- Up-to-date: /home/umrob/M2/ros-2-planar-robot-p-3/install/ros2_planar_robot/share/ros2_planar_robot/cmake/ros2_planar_robotConfig-version.cmake\n'}
[0.748734] (ros2_planar_robot) StdoutLine: {'line': b'-- Up-to-date: /home/umrob/M2/ros-2-planar-robot-p-3/install/ros2_planar_robot/share/ros2_planar_robot/package.xml\n'}
[0.749973] (ros2_planar_robot) CommandEnded: {'returncode': 0}
[0.801102] (-) TimerEvent: {}
[0.901673] (-) TimerEvent: {}
[1.002242] (-) TimerEvent: {}
[1.038101] (ros2_planar_robot) JobEnded: {'identifier': 'ros2_planar_robot', 'rc': 0}
[1.038986] (-) EventReactorShutdown: {}
