[0.000000] (-) TimerEvent: {}
[0.000194] (ros2_planar_robot) JobQueued: {'identifier': 'ros2_planar_robot', 'dependencies': OrderedDict()}
[0.000272] (ros2_planar_robot) JobStarted: {'identifier': 'ros2_planar_robot'}
[0.059732] (ros2_planar_robot) JobProgress: {'identifier': 'ros2_planar_robot', 'progress': 'cmake'}
[0.060572] (ros2_planar_robot) JobProgress: {'identifier': 'ros2_planar_robot', 'progress': 'build'}
[0.061588] (ros2_planar_robot) Command: {'cmd': ['/usr/bin/cmake', '--build', '/home/umrob/M2/ros-2-planar-robot-p-3/build/ros2_planar_robot', '--', '-j8', '-l8'], 'cwd': '/home/umrob/M2/ros-2-planar-robot-p-3/build/ros2_planar_robot', 'env': OrderedDict([('GJS_DEBUG_TOPICS', 'JS ERROR;JS LOG'), ('LESSOPEN', '| /usr/bin/lesspipe %s'), ('CONDA_PROMPT_MODIFIER', '(base)'), ('LANGUAGE', 'fr_FR:en'), ('USER', 'umrob'), ('LC_TIME', 'en_US.UTF-8'), ('CONDA_MKL_INTERFACE_LAYER_BACKUP', ''), ('XDG_SESSION_TYPE', 'x11'), ('SHLVL', '1'), ('LD_LIBRARY_PATH', '/home/umrob/M2/ros-2-planar-robot-p-3/install/ros2_planar_robot/lib:/opt/ros/humble/opt/rviz_ogre_vendor/lib:/opt/ros/humble/lib/x86_64-linux-gnu:/opt/ros/humble/lib'), ('HOME', '/home/umrob'), ('CONDA_SHLVL', '1'), ('OLDPWD', '/home/umrob'), ('DESKTOP_SESSION', 'ubuntu'), ('GIO_LAUNCHED_DESKTOP_FILE', '/usr/share/applications/terminator.desktop'), ('ROS_PYTHON_VERSION', '3'), ('GNOME_SHELL_SESSION_MODE', 'ubuntu'), ('GTK_MODULES', 'gail:atk-bridge'), ('LC_MONETARY', 'en_US.UTF-8'), ('MANAGERPID', '2625'), ('SYSTEMD_EXEC_PID', '2992'), ('DBUS_SESSION_BUS_ADDRESS', 'unix:path=/run/user/1000/bus'), ('COLORTERM', 'truecolor'), ('_CE_M', ''), ('TERMINATOR_DBUS_NAME', 'net.tenshu.Terminator23558193cd9818af7fe4d2c2f5bd9d00f'), ('GIO_LAUNCHED_DESKTOP_FILE_PID', '24105'), ('IM_CONFIG_PHASE', '1'), ('COLCON_PREFIX_PATH', '/home/umrob/M2/ros-2-planar-robot-p-3/install'), ('ROS_DISTRO', 'humble'), ('GTK_IM_MODULE', 'ibus'), ('LOGNAME', 'umrob'), ('JOURNAL_STREAM', '8:39069'), ('_', '/usr/bin/colcon'), ('ROS_VERSION', '2'), ('XDG_SESSION_CLASS', 'user'), ('USERNAME', 'umrob'), ('TERM', 'xterm-256color'), ('GNOME_DESKTOP_SESSION_ID', 'this-is-deprecated'), ('_CE_CONDA', ''), ('ROS_LOCALHOST_ONLY', '1'), ('WINDOWPATH', '2'), ('PATH', '/opt/ros/humble/bin:/home/umrob/anaconda3/bin:/home/umrob/anaconda3/condabin:/home/umrob/.local/bin:/home/umrob/bin:/usr/local/sbin:/usr/local/bin:/usr/sbin:/usr/bin:/sbin:/bin:/usr/games:/usr/local/games:/snap/bin:/snap/bin:~/julia-1.9.3/bin'), ('SESSION_MANAGER', 'local/umrob-Latitude-5510:@/tmp/.ICE-unix/2973,unix/umrob-Latitude-5510:/tmp/.ICE-unix/2973'), ('INVOCATION_ID', 'fdc528229db640d6a55c96f399670289'), ('PAPERSIZE', 'letter'), ('GTK3_MODULES', 'xapp-gtk3-module'), ('XDG_MENU_PREFIX', 'gnome-'), ('LC_ADDRESS', 'en_US.UTF-8'), ('XDG_RUNTIME_DIR', '/run/user/1000'), ('DISPLAY', ':1'), ('TERMINATOR_DBUS_PATH', '/net/tenshu/Terminator2'), ('LANG', 'fr_FR.UTF-8'), ('XDG_CURRENT_DESKTOP', 'ubuntu:GNOME'), ('IBUS_DISABLE_SNOOPER', '1'), ('LC_TELEPHONE', 'en_US.UTF-8'), ('XMODIFIERS', '@im=ibus'), ('XDG_SESSION_DESKTOP', 'ubuntu'), ('XAUTHORITY', '/run/user/1000/gdm/Xauthority'), ('LS_COLORS', 'rs=0:di=01;34:ln=01;36:mh=00:pi=40;33:so=01;35:do=01;35:bd=40;33;01:cd=40;33;01:or=40;31;01:mi=00:su=37;41:sg=30;43:ca=30;41:tw=30;42:ow=34;42:st=37;44:ex=01;32:*.tar=01;31:*.tgz=01;31:*.arc=01;31:*.arj=01;31:*.taz=01;31:*.lha=01;31:*.lz4=01;31:*.lzh=01;31:*.lzma=01;31:*.tlz=01;31:*.txz=01;31:*.tzo=01;31:*.t7z=01;31:*.zip=01;31:*.z=01;31:*.dz=01;31:*.gz=01;31:*.lrz=01;31:*.lz=01;31:*.lzo=01;31:*.xz=01;31:*.zst=01;31:*.tzst=01;31:*.bz2=01;31:*.bz=01;31:*.tbz=01;31:*.tbz2=01;31:*.tz=01;31:*.deb=01;31:*.rpm=01;31:*.jar=01;31:*.war=01;31:*.ear=01;31:*.sar=01;31:*.rar=01;31:*.alz=01;31:*.ace=01;31:*.zoo=01;31:*.cpio=01;31:*.7z=01;31:*.rz=01;31:*.cab=01;31:*.wim=01;31:*.swm=01;31:*.dwm=01;31:*.esd=01;31:*.jpg=01;35:*.jpeg=01;35:*.mjpg=01;35:*.mjpeg=01;35:*.gif=01;35:*.bmp=01;35:*.pbm=01;35:*.pgm=01;35:*.ppm=01;35:*.tga=01;35:*.xbm=01;35:*.xpm=01;35:*.tif=01;35:*.tiff=01;35:*.png=01;35:*.svg=01;35:*.svgz=01;35:*.mng=01;35:*.pcx=01;35:*.mov=01;35:*.mpg=01;35:*.mpeg=01;35:*.m2v=01;35:*.mkv=01;35:*.webm=01;35:*.webp=01;35:*.ogm=01;35:*.mp4=01;35:*.m4v=01;35:*.mp4v=01;35:*.vob=01;35:*.qt=01;35:*.nuv=01;35:*.wmv=01;35:*.asf=01;35:*.rm=01;35:*.rmvb=01;35:*.flc=01;35:*.avi=01;35:*.fli=01;35:*.flv=01;35:*.gl=01;35:*.dl=01;35:*.xcf=01;35:*.xwd=01;35:*.yuv=01;35:*.cgm=01;35:*.emf=01;35:*.ogv=01;35:*.ogx=01;35:*.aac=00;36:*.au=00;36:*.flac=00;36:*.m4a=00;36:*.mid=00;36:*.midi=00;36:*.mka=00;36:*.mp3=00;36:*.mpc=00;36:*.ogg=00;36:*.ra=00;36:*.wav=00;36:*.oga=00;36:*.opus=00;36:*.spx=00;36:*.xspf=00;36:'), ('SSH_AGENT_LAUNCHER', 'gnome-keyring'), ('SSH_AUTH_SOCK', '/run/user/1000/keyring/ssh'), ('AMENT_PREFIX_PATH', '/home/umrob/M2/ros-2-planar-robot-p-3/install/ros2_planar_robot:/opt/ros/humble'), ('CONDA_PYTHON_EXE', '/home/umrob/anaconda3/bin/python'), ('SHELL', '/bin/bash'), ('LC_NAME', 'en_US.UTF-8'), ('TERMINATOR_UUID', 'urn:uuid:a066f2b0-0cc3-4236-9fc4-0398a45a871e'), ('QT_ACCESSIBILITY', '1'), ('GDMSESSION', 'ubuntu'), ('LESSCLOSE', '/usr/bin/lesspipe %s %s'), ('CONDA_DEFAULT_ENV', 'base'), ('LC_MEASUREMENT', 'en_US.UTF-8'), ('GPG_AGENT_INFO', '/run/user/1000/gnupg/S.gpg-agent:0:1'), ('GJS_DEBUG_OUTPUT', 'stderr'), ('LC_IDENTIFICATION', 'en_US.UTF-8'), ('QT_IM_MODULE', 'ibus'), ('PWD', '/home/umrob/M2/ros-2-planar-robot-p-3/build/ros2_planar_robot'), ('LC_ALL', 'en_US.UTF-8'), ('XDG_CONFIG_DIRS', '/etc/xdg/xdg-ubuntu:/etc/xdg'), ('CONDA_EXE', '/home/umrob/anaconda3/bin/conda'), ('XDG_DATA_DIRS', '/usr/share/ubuntu:/usr/share/gnome:/usr/local/share/:/usr/share/:/var/lib/snapd/desktop'), ('PYTHONPATH', '/home/umrob/M2/ros-2-planar-robot-p-3/install/ros2_planar_robot/local/lib/python3.10/dist-packages:/opt/ros/humble/lib/python3.10/site-packages:/opt/ros/humble/local/lib/python3.10/dist-packages'), ('LC_NUMERIC', 'en_US.UTF-8'), ('CONDA_PREFIX', '/home/umrob/anaconda3'), ('LC_PAPER', 'en_US.UTF-8'), ('MKL_INTERFACE_LAYER', 'LP64,GNU'), ('COLCON', '1'), ('VTE_VERSION', '6800'), ('CMAKE_PREFIX_PATH', '/home/umrob/M2/ros-2-planar-robot-p-3/install/ros2_planar_robot:/opt/ros/humble')]), 'shell': False}
[0.099213] (-) TimerEvent: {}
[0.117969] (ros2_planar_robot) StdoutLine: {'line': b'[  1%] Built target ros2_planar_robot__cpp\n'}
[0.119458] (ros2_planar_robot) StdoutLine: {'line': b'[  7%] Built target trajectory_generation_lib\n'}
[0.119893] (ros2_planar_robot) StdoutLine: {'line': b'[ 13%] Built target ros2_planar_robot__rosidl_generator_c\n'}
[0.124802] (ros2_planar_robot) StdoutLine: {'line': b'[ 15%] Built target kinematic_model_lib\n'}
[0.128874] (ros2_planar_robot) StdoutLine: {'line': b'[ 15%] Built target ament_cmake_python_symlink_ros2_planar_robot\n'}
[0.158748] (ros2_planar_robot) StdoutLine: {'line': b'[ 30%] Built target ros2_planar_robot__rosidl_typesupport_cpp\n'}
[0.160343] (ros2_planar_robot) StdoutLine: {'line': b'[ 39%] Built target ros2_planar_robot__rosidl_typesupport_c\n'}
[0.162185] (ros2_planar_robot) StdoutLine: {'line': b'[ 49%] Built target ros2_planar_robot__rosidl_typesupport_introspection_cpp\n'}
[0.164967] (ros2_planar_robot) StdoutLine: {'line': b'[ 59%] Built target ros2_planar_robot__rosidl_typesupport_fastrtps_c\n'}
[0.165261] (ros2_planar_robot) StdoutLine: {'line': b'[ 68%] Built target ros2_planar_robot__rosidl_typesupport_fastrtps_cpp\n'}
[0.167256] (ros2_planar_robot) StdoutLine: {'line': b'[ 73%] Built target ros2_planar_robot__rosidl_typesupport_introspection_c\n'}
[0.170915] (ros2_planar_robot) StdoutLine: {'line': b'[ 75%] Built target control_lib\n'}
[0.180449] (ros2_planar_robot) StdoutLine: {'line': b'\x1b[35m\x1b[1mConsolidate compiler generated dependencies of target kinematic_modeller\x1b[0m\n'}
[0.192094] (ros2_planar_robot) StdoutLine: {'line': b'[ 75%] Built target ros2_planar_robot\n'}
[0.194399] (ros2_planar_robot) StdoutLine: {'line': b'[ 78%] Built target trajectory_generator\n'}
[0.199353] (-) TimerEvent: {}
[0.199609] (ros2_planar_robot) StdoutLine: {'line': b'[ 80%] Built target high_lev_mng\n'}
[0.209019] (ros2_planar_robot) StdoutLine: {'line': b'[ 83%] Built target kinematic_modeller\n'}
[0.211932] (ros2_planar_robot) StdoutLine: {'line': b'[ 84%] Built target ros2_planar_robot__py\n'}
[0.234135] (ros2_planar_robot) StdoutLine: {'line': b'[ 92%] Built target ros2_planar_robot__rosidl_generator_py\n'}
[0.259406] (ros2_planar_robot) StdoutLine: {'line': b'[ 95%] Built target ros2_planar_robot__rosidl_typesupport_fastrtps_c__pyext\n'}
[0.261838] (ros2_planar_robot) StdoutLine: {'line': b'[ 98%] Built target ros2_planar_robot__rosidl_typesupport_introspection_c__pyext\n'}
[0.262128] (ros2_planar_robot) StdoutLine: {'line': b'[100%] Built target ros2_planar_robot__rosidl_typesupport_c__pyext\n'}
[0.299477] (-) TimerEvent: {}
[0.399781] (-) TimerEvent: {}
[0.414483] (ros2_planar_robot) StdoutLine: {'line': b'running egg_info\n'}
[0.415200] (ros2_planar_robot) StdoutLine: {'line': b'writing ros2_planar_robot.egg-info/PKG-INFO\n'}
[0.415442] (ros2_planar_robot) StdoutLine: {'line': b'writing dependency_links to ros2_planar_robot.egg-info/dependency_links.txt\n'}
[0.415615] (ros2_planar_robot) StdoutLine: {'line': b'writing top-level names to ros2_planar_robot.egg-info/top_level.txt\n'}
[0.417491] (ros2_planar_robot) StdoutLine: {'line': b"reading manifest file 'ros2_planar_robot.egg-info/SOURCES.txt'\n"}
[0.418127] (ros2_planar_robot) StdoutLine: {'line': b"writing manifest file 'ros2_planar_robot.egg-info/SOURCES.txt'\n"}
[0.447055] (ros2_planar_robot) StdoutLine: {'line': b'[100%] Built target ament_cmake_python_build_ros2_planar_robot_egg\n'}
[0.458039] (ros2_planar_robot) CommandEnded: {'returncode': 0}
[0.499904] (-) TimerEvent: {}
[0.598471] (ros2_planar_robot) JobProgress: {'identifier': 'ros2_planar_robot', 'progress': 'install'}
[0.599970] (-) TimerEvent: {}
[0.607820] (ros2_planar_robot) Command: {'cmd': ['/usr/bin/cmake', '--install', '/home/umrob/M2/ros-2-planar-robot-p-3/build/ros2_planar_robot'], 'cwd': '/home/umrob/M2/ros-2-planar-robot-p-3/build/ros2_planar_robot', 'env': OrderedDict([('GJS_DEBUG_TOPICS', 'JS ERROR;JS LOG'), ('LESSOPEN', '| /usr/bin/lesspipe %s'), ('CONDA_PROMPT_MODIFIER', '(base)'), ('LANGUAGE', 'fr_FR:en'), ('USER', 'umrob'), ('LC_TIME', 'en_US.UTF-8'), ('CONDA_MKL_INTERFACE_LAYER_BACKUP', ''), ('XDG_SESSION_TYPE', 'x11'), ('SHLVL', '1'), ('LD_LIBRARY_PATH', '/home/umrob/M2/ros-2-planar-robot-p-3/install/ros2_planar_robot/lib:/opt/ros/humble/opt/rviz_ogre_vendor/lib:/opt/ros/humble/lib/x86_64-linux-gnu:/opt/ros/humble/lib'), ('HOME', '/home/umrob'), ('CONDA_SHLVL', '1'), ('OLDPWD', '/home/umrob'), ('DESKTOP_SESSION', 'ubuntu'), ('GIO_LAUNCHED_DESKTOP_FILE', '/usr/share/applications/terminator.desktop'), ('ROS_PYTHON_VERSION', '3'), ('GNOME_SHELL_SESSION_MODE', 'ubuntu'), ('GTK_MODULES', 'gail:atk-bridge'), ('LC_MONETARY', 'en_US.UTF-8'), ('MANAGERPID', '2625'), ('SYSTEMD_EXEC_PID', '2992'), ('DBUS_SESSION_BUS_ADDRESS', 'unix:path=/run/user/1000/bus'), ('COLORTERM', 'truecolor'), ('_CE_M', ''), ('TERMINATOR_DBUS_NAME', 'net.tenshu.Terminator23558193cd9818af7fe4d2c2f5bd9d00f'), ('GIO_LAUNCHED_DESKTOP_FILE_PID', '24105'), ('IM_CONFIG_PHASE', '1'), ('COLCON_PREFIX_PATH', '/home/umrob/M2/ros-2-planar-robot-p-3/install'), ('ROS_DISTRO', 'humble'), ('GTK_IM_MODULE', 'ibus'), ('LOGNAME', 'umrob'), ('JOURNAL_STREAM', '8:39069'), ('_', '/usr/bin/colcon'), ('ROS_VERSION', '2'), ('XDG_SESSION_CLASS', 'user'), ('USERNAME', 'umrob'), ('TERM', 'xterm-256color'), ('GNOME_DESKTOP_SESSION_ID', 'this-is-deprecated'), ('_CE_CONDA', ''), ('ROS_LOCALHOST_ONLY', '1'), ('WINDOWPATH', '2'), ('PATH', '/opt/ros/humble/bin:/home/umrob/anaconda3/bin:/home/umrob/anaconda3/condabin:/home/umrob/.local/bin:/home/umrob/bin:/usr/local/sbin:/usr/local/bin:/usr/sbin:/usr/bin:/sbin:/bin:/usr/games:/usr/local/games:/snap/bin:/snap/bin:~/julia-1.9.3/bin'), ('SESSION_MANAGER', 'local/umrob-Latitude-5510:@/tmp/.ICE-unix/2973,unix/umrob-Latitude-5510:/tmp/.ICE-unix/2973'), ('INVOCATION_ID', 'fdc528229db640d6a55c96f399670289'), ('PAPERSIZE', 'letter'), ('GTK3_MODULES', 'xapp-gtk3-module'), ('XDG_MENU_PREFIX', 'gnome-'), ('LC_ADDRESS', 'en_US.UTF-8'), ('XDG_RUNTIME_DIR', '/run/user/1000'), ('DISPLAY', ':1'), ('TERMINATOR_DBUS_PATH', '/net/tenshu/Terminator2'), ('LANG', 'fr_FR.UTF-8'), ('XDG_CURRENT_DESKTOP', 'ubuntu:GNOME'), ('IBUS_DISABLE_SNOOPER', '1'), ('LC_TELEPHONE', 'en_US.UTF-8'), ('XMODIFIERS', '@im=ibus'), ('XDG_SESSION_DESKTOP', 'ubuntu'), ('XAUTHORITY', '/run/user/1000/gdm/Xauthority'), ('LS_COLORS', 'rs=0:di=01;34:ln=01;36:mh=00:pi=40;33:so=01;35:do=01;35:bd=40;33;01:cd=40;33;01:or=40;31;01:mi=00:su=37;41:sg=30;43:ca=30;41:tw=30;42:ow=34;42:st=37;44:ex=01;32:*.tar=01;31:*.tgz=01;31:*.arc=01;31:*.arj=01;31:*.taz=01;31:*.lha=01;31:*.lz4=01;31:*.lzh=01;31:*.lzma=01;31:*.tlz=01;31:*.txz=01;31:*.tzo=01;31:*.t7z=01;31:*.zip=01;31:*.z=01;31:*.dz=01;31:*.gz=01;31:*.lrz=01;31:*.lz=01;31:*.lzo=01;31:*.xz=01;31:*.zst=01;31:*.tzst=01;31:*.bz2=01;31:*.bz=01;31:*.tbz=01;31:*.tbz2=01;31:*.tz=01;31:*.deb=01;31:*.rpm=01;31:*.jar=01;31:*.war=01;31:*.ear=01;31:*.sar=01;31:*.rar=01;31:*.alz=01;31:*.ace=01;31:*.zoo=01;31:*.cpio=01;31:*.7z=01;31:*.rz=01;31:*.cab=01;31:*.wim=01;31:*.swm=01;31:*.dwm=01;31:*.esd=01;31:*.jpg=01;35:*.jpeg=01;35:*.mjpg=01;35:*.mjpeg=01;35:*.gif=01;35:*.bmp=01;35:*.pbm=01;35:*.pgm=01;35:*.ppm=01;35:*.tga=01;35:*.xbm=01;35:*.xpm=01;35:*.tif=01;35:*.tiff=01;35:*.png=01;35:*.svg=01;35:*.svgz=01;35:*.mng=01;35:*.pcx=01;35:*.mov=01;35:*.mpg=01;35:*.mpeg=01;35:*.m2v=01;35:*.mkv=01;35:*.webm=01;35:*.webp=01;35:*.ogm=01;35:*.mp4=01;35:*.m4v=01;35:*.mp4v=01;35:*.vob=01;35:*.qt=01;35:*.nuv=01;35:*.wmv=01;35:*.asf=01;35:*.rm=01;35:*.rmvb=01;35:*.flc=01;35:*.avi=01;35:*.fli=01;35:*.flv=01;35:*.gl=01;35:*.dl=01;35:*.xcf=01;35:*.xwd=01;35:*.yuv=01;35:*.cgm=01;35:*.emf=01;35:*.ogv=01;35:*.ogx=01;35:*.aac=00;36:*.au=00;36:*.flac=00;36:*.m4a=00;36:*.mid=00;36:*.midi=00;36:*.mka=00;36:*.mp3=00;36:*.mpc=00;36:*.ogg=00;36:*.ra=00;36:*.wav=00;36:*.oga=00;36:*.opus=00;36:*.spx=00;36:*.xspf=00;36:'), ('SSH_AGENT_LAUNCHER', 'gnome-keyring'), ('SSH_AUTH_SOCK', '/run/user/1000/keyring/ssh'), ('AMENT_PREFIX_PATH', '/home/umrob/M2/ros-2-planar-robot-p-3/install/ros2_planar_robot:/opt/ros/humble'), ('CONDA_PYTHON_EXE', '/home/umrob/anaconda3/bin/python'), ('SHELL', '/bin/bash'), ('LC_NAME', 'en_US.UTF-8'), ('TERMINATOR_UUID', 'urn:uuid:a066f2b0-0cc3-4236-9fc4-0398a45a871e'), ('QT_ACCESSIBILITY', '1'), ('GDMSESSION', 'ubuntu'), ('LESSCLOSE', '/usr/bin/lesspipe %s %s'), ('CONDA_DEFAULT_ENV', 'base'), ('LC_MEASUREMENT', 'en_US.UTF-8'), ('GPG_AGENT_INFO', '/run/user/1000/gnupg/S.gpg-agent:0:1'), ('GJS_DEBUG_OUTPUT', 'stderr'), ('LC_IDENTIFICATION', 'en_US.UTF-8'), ('QT_IM_MODULE', 'ibus'), ('PWD', '/home/umrob/M2/ros-2-planar-robot-p-3/build/ros2_planar_robot'), ('LC_ALL', 'en_US.UTF-8'), ('XDG_CONFIG_DIRS', '/etc/xdg/xdg-ubuntu:/etc/xdg'), ('CONDA_EXE', '/home/umrob/anaconda3/bin/conda'), ('XDG_DATA_DIRS', '/usr/share/ubuntu:/usr/share/gnome:/usr/local/share/:/usr/share/:/var/lib/snapd/desktop'), ('PYTHONPATH', '/home/umrob/M2/ros-2-planar-robot-p-3/install/ros2_planar_robot/local/lib/python3.10/dist-packages:/opt/ros/humble/lib/python3.10/site-packages:/opt/ros/humble/local/lib/python3.10/dist-packages'), ('LC_NUMERIC', 'en_US.UTF-8'), ('CONDA_PREFIX', '/home/umrob/anaconda3'), ('LC_PAPER', 'en_US.UTF-8'), ('MKL_INTERFACE_LAYER', 'LP64,GNU'), ('COLCON', '1'), ('VTE_VERSION', '6800'), ('CMAKE_PREFIX_PATH', '/home/umrob/M2/ros-2-planar-robot-p-3/install/ros2_planar_robot:/opt/ros/humble')]), 'shell': False}
[0.615962] (ros2_planar_robot) StdoutLine: {'line': b'-- Install configuration: ""\n'}
[0.616737] (ros2_planar_robot) StdoutLine: {'line': b'-- Execute custom install script\n'}
[0.617055] (ros2_planar_robot) StdoutLine: {'line': b'-- Up-to-date symlink: /home/umrob/M2/ros-2-planar-robot-p-3/install/ros2_planar_robot/share/ament_index/resource_index/rosidl_interfaces/ros2_planar_robot\n'}
[0.617997] (ros2_planar_robot) StdoutLine: {'line': b'-- Up-to-date symlink: /home/umrob/M2/ros-2-planar-robot-p-3/install/ros2_planar_robot/include/ros2_planar_robot/ros2_planar_robot/msg/cartesian_state.h\n'}
[0.618161] (ros2_planar_robot) StdoutLine: {'line': b'-- Up-to-date symlink: /home/umrob/M2/ros-2-planar-robot-p-3/install/ros2_planar_robot/include/ros2_planar_robot/ros2_planar_robot/msg/detail/cartesian_state__functions.h\n'}
[0.618351] (ros2_planar_robot) StdoutLine: {'line': b'-- Up-to-date symlink: /home/umrob/M2/ros-2-planar-robot-p-3/install/ros2_planar_robot/include/ros2_planar_robot/ros2_planar_robot/msg/detail/cartesian_state__struct.h\n'}
[0.618545] (ros2_planar_robot) StdoutLine: {'line': b'-- Up-to-date symlink: /home/umrob/M2/ros-2-planar-robot-p-3/install/ros2_planar_robot/include/ros2_planar_robot/ros2_planar_robot/msg/detail/cartesian_state__type_support.h\n'}
[0.618763] (ros2_planar_robot) StdoutLine: {'line': b'-- Up-to-date symlink: /home/umrob/M2/ros-2-planar-robot-p-3/install/ros2_planar_robot/include/ros2_planar_robot/ros2_planar_robot/msg/detail/joint_position__functions.h\n'}
[0.618953] (ros2_planar_robot) StdoutLine: {'line': b'-- Up-to-date symlink: /home/umrob/M2/ros-2-planar-robot-p-3/install/ros2_planar_robot/include/ros2_planar_robot/ros2_planar_robot/msg/detail/joint_position__struct.h\n'}
[0.619184] (ros2_planar_robot) StdoutLine: {'line': b'-- Up-to-date symlink: /home/umrob/M2/ros-2-planar-robot-p-3/install/ros2_planar_robot/include/ros2_planar_robot/ros2_planar_robot/msg/detail/joint_position__type_support.h\n'}
[0.619339] (ros2_planar_robot) StdoutLine: {'line': b'-- Up-to-date symlink: /home/umrob/M2/ros-2-planar-robot-p-3/install/ros2_planar_robot/include/ros2_planar_robot/ros2_planar_robot/msg/detail/kin_data__functions.h\n'}
[0.619455] (ros2_planar_robot) StdoutLine: {'line': b'-- Up-to-date symlink: /home/umrob/M2/ros-2-planar-robot-p-3/install/ros2_planar_robot/include/ros2_planar_robot/ros2_planar_robot/msg/detail/kin_data__struct.h\n'}
[0.619594] (ros2_planar_robot) StdoutLine: {'line': b'-- Up-to-date symlink: /home/umrob/M2/ros-2-planar-robot-p-3/install/ros2_planar_robot/include/ros2_planar_robot/ros2_planar_robot/msg/detail/kin_data__type_support.h\n'}
[0.619730] (ros2_planar_robot) StdoutLine: {'line': b'-- Up-to-date symlink: /home/umrob/M2/ros-2-planar-robot-p-3/install/ros2_planar_robot/include/ros2_planar_robot/ros2_planar_robot/msg/detail/pose__functions.h\n'}
[0.619948] (ros2_planar_robot) StdoutLine: {'line': b'-- Up-to-date symlink: /home/umrob/M2/ros-2-planar-robot-p-3/install/ros2_planar_robot/include/ros2_planar_robot/ros2_planar_robot/msg/detail/pose__struct.h\n'}
[0.620146] (ros2_planar_robot) StdoutLine: {'line': b'-- Up-to-date symlink: /home/umrob/M2/ros-2-planar-robot-p-3/install/ros2_planar_robot/include/ros2_planar_robot/ros2_planar_robot/msg/detail/pose__type_support.h\n'}
[0.620327] (ros2_planar_robot) StdoutLine: {'line': b'-- Up-to-date symlink: /home/umrob/M2/ros-2-planar-robot-p-3/install/ros2_planar_robot/include/ros2_planar_robot/ros2_planar_robot/msg/detail/ref_pose__functions.h\n'}
[0.620571] (ros2_planar_robot) StdoutLine: {'line': b'-- Up-to-date symlink: /home/umrob/M2/ros-2-planar-robot-p-3/install/ros2_planar_robot/include/ros2_planar_robot/ros2_planar_robot/msg/detail/ref_pose__struct.h\n'}
[0.620764] (ros2_planar_robot) StdoutLine: {'line': b'-- Up-to-date symlink: /home/umrob/M2/ros-2-planar-robot-p-3/install/ros2_planar_robot/include/ros2_planar_robot/ros2_planar_robot/msg/detail/ref_pose__type_support.h\n'}
[0.620936] (ros2_planar_robot) StdoutLine: {'line': b'-- Up-to-date symlink: /home/umrob/M2/ros-2-planar-robot-p-3/install/ros2_planar_robot/include/ros2_planar_robot/ros2_planar_robot/msg/detail/velocity__functions.h\n'}
[0.621053] (ros2_planar_robot) StdoutLine: {'line': b'-- Up-to-date symlink: /home/umrob/M2/ros-2-planar-robot-p-3/install/ros2_planar_robot/include/ros2_planar_robot/ros2_planar_robot/msg/detail/velocity__struct.h\n'}
[0.621194] (ros2_planar_robot) StdoutLine: {'line': b'-- Up-to-date symlink: /home/umrob/M2/ros-2-planar-robot-p-3/install/ros2_planar_robot/include/ros2_planar_robot/ros2_planar_robot/msg/detail/velocity__type_support.h\n'}
[0.621424] (ros2_planar_robot) StdoutLine: {'line': b'-- Up-to-date symlink: /home/umrob/M2/ros-2-planar-robot-p-3/install/ros2_planar_robot/include/ros2_planar_robot/ros2_planar_robot/msg/joint_position.h\n'}
[0.621561] (ros2_planar_robot) StdoutLine: {'line': b'-- Up-to-date symlink: /home/umrob/M2/ros-2-planar-robot-p-3/install/ros2_planar_robot/include/ros2_planar_robot/ros2_planar_robot/msg/kin_data.h\n'}
[0.621709] (ros2_planar_robot) StdoutLine: {'line': b'-- Up-to-date symlink: /home/umrob/M2/ros-2-planar-robot-p-3/install/ros2_planar_robot/include/ros2_planar_robot/ros2_planar_robot/msg/pose.h\n'}
[0.621878] (ros2_planar_robot) StdoutLine: {'line': b'-- Up-to-date symlink: /home/umrob/M2/ros-2-planar-robot-p-3/install/ros2_planar_robot/include/ros2_planar_robot/ros2_planar_robot/msg/ref_pose.h\n'}
[0.622054] (ros2_planar_robot) StdoutLine: {'line': b'-- Up-to-date symlink: /home/umrob/M2/ros-2-planar-robot-p-3/install/ros2_planar_robot/include/ros2_planar_robot/ros2_planar_robot/msg/rosidl_generator_c__visibility_control.h\n'}
[0.622226] (ros2_planar_robot) StdoutLine: {'line': b'-- Up-to-date symlink: /home/umrob/M2/ros-2-planar-robot-p-3/install/ros2_planar_robot/include/ros2_planar_robot/ros2_planar_robot/msg/velocity.h\n'}
[0.622499] (ros2_planar_robot) StdoutLine: {'line': b'-- Up-to-date symlink: /home/umrob/M2/ros-2-planar-robot-p-3/install/ros2_planar_robot/share/ros2_planar_robot/environment/library_path.sh\n'}
[0.622778] (ros2_planar_robot) StdoutLine: {'line': b'-- Up-to-date symlink: /home/umrob/M2/ros-2-planar-robot-p-3/install/ros2_planar_robot/share/ros2_planar_robot/environment/library_path.dsv\n'}
[0.623782] (ros2_planar_robot) StdoutLine: {'line': b'-- Up-to-date symlink: /home/umrob/M2/ros-2-planar-robot-p-3/install/ros2_planar_robot/include/ros2_planar_robot/ros2_planar_robot/msg/detail/cartesian_state__rosidl_typesupport_fastrtps_c.h\n'}
[0.624022] (ros2_planar_robot) StdoutLine: {'line': b'-- Up-to-date symlink: /home/umrob/M2/ros-2-planar-robot-p-3/install/ros2_planar_robot/include/ros2_planar_robot/ros2_planar_robot/msg/detail/joint_position__rosidl_typesupport_fastrtps_c.h\n'}
[0.624233] (ros2_planar_robot) StdoutLine: {'line': b'-- Up-to-date symlink: /home/umrob/M2/ros-2-planar-robot-p-3/install/ros2_planar_robot/include/ros2_planar_robot/ros2_planar_robot/msg/detail/kin_data__rosidl_typesupport_fastrtps_c.h\n'}
[0.624436] (ros2_planar_robot) StdoutLine: {'line': b'-- Up-to-date symlink: /home/umrob/M2/ros-2-planar-robot-p-3/install/ros2_planar_robot/include/ros2_planar_robot/ros2_planar_robot/msg/detail/pose__rosidl_typesupport_fastrtps_c.h\n'}
[0.624640] (ros2_planar_robot) StdoutLine: {'line': b'-- Up-to-date symlink: /home/umrob/M2/ros-2-planar-robot-p-3/install/ros2_planar_robot/include/ros2_planar_robot/ros2_planar_robot/msg/detail/ref_pose__rosidl_typesupport_fastrtps_c.h\n'}
[0.624838] (ros2_planar_robot) StdoutLine: {'line': b'-- Up-to-date symlink: /home/umrob/M2/ros-2-planar-robot-p-3/install/ros2_planar_robot/include/ros2_planar_robot/ros2_planar_robot/msg/detail/velocity__rosidl_typesupport_fastrtps_c.h\n'}
[0.625030] (ros2_planar_robot) StdoutLine: {'line': b'-- Up-to-date symlink: /home/umrob/M2/ros-2-planar-robot-p-3/install/ros2_planar_robot/include/ros2_planar_robot/ros2_planar_robot/msg/rosidl_typesupport_fastrtps_c__visibility_control.h\n'}
[0.625987] (ros2_planar_robot) StdoutLine: {'line': b'-- Up-to-date symlink: /home/umrob/M2/ros-2-planar-robot-p-3/install/ros2_planar_robot/include/ros2_planar_robot/ros2_planar_robot/msg/cartesian_state.hpp\n'}
[0.626220] (ros2_planar_robot) StdoutLine: {'line': b'-- Up-to-date symlink: /home/umrob/M2/ros-2-planar-robot-p-3/install/ros2_planar_robot/include/ros2_planar_robot/ros2_planar_robot/msg/detail/cartesian_state__builder.hpp\n'}
[0.626433] (ros2_planar_robot) StdoutLine: {'line': b'-- Up-to-date symlink: /home/umrob/M2/ros-2-planar-robot-p-3/install/ros2_planar_robot/include/ros2_planar_robot/ros2_planar_robot/msg/detail/cartesian_state__struct.hpp\n'}
[0.626644] (ros2_planar_robot) StdoutLine: {'line': b'-- Up-to-date symlink: /home/umrob/M2/ros-2-planar-robot-p-3/install/ros2_planar_robot/include/ros2_planar_robot/ros2_planar_robot/msg/detail/cartesian_state__traits.hpp\n'}
[0.626876] (ros2_planar_robot) StdoutLine: {'line': b'-- Up-to-date symlink: /home/umrob/M2/ros-2-planar-robot-p-3/install/ros2_planar_robot/include/ros2_planar_robot/ros2_planar_robot/msg/detail/joint_position__builder.hpp\n'}
[0.627095] (ros2_planar_robot) StdoutLine: {'line': b'-- Up-to-date symlink: /home/umrob/M2/ros-2-planar-robot-p-3/install/ros2_planar_robot/include/ros2_planar_robot/ros2_planar_robot/msg/detail/joint_position__struct.hpp\n'}
[0.627322] (ros2_planar_robot) StdoutLine: {'line': b'-- Up-to-date symlink: /home/umrob/M2/ros-2-planar-robot-p-3/install/ros2_planar_robot/include/ros2_planar_robot/ros2_planar_robot/msg/detail/joint_position__traits.hpp\n'}
[0.627579] (ros2_planar_robot) StdoutLine: {'line': b'-- Up-to-date symlink: /home/umrob/M2/ros-2-planar-robot-p-3/install/ros2_planar_robot/include/ros2_planar_robot/ros2_planar_robot/msg/detail/kin_data__builder.hpp\n'}
[0.627797] (ros2_planar_robot) StdoutLine: {'line': b'-- Up-to-date symlink: /home/umrob/M2/ros-2-planar-robot-p-3/install/ros2_planar_robot/include/ros2_planar_robot/ros2_planar_robot/msg/detail/kin_data__struct.hpp\n'}
[0.628040] (ros2_planar_robot) StdoutLine: {'line': b'-- Up-to-date symlink: /home/umrob/M2/ros-2-planar-robot-p-3/install/ros2_planar_robot/include/ros2_planar_robot/ros2_planar_robot/msg/detail/kin_data__traits.hpp\n'}
[0.628266] (ros2_planar_robot) StdoutLine: {'line': b'-- Up-to-date symlink: /home/umrob/M2/ros-2-planar-robot-p-3/install/ros2_planar_robot/include/ros2_planar_robot/ros2_planar_robot/msg/detail/pose__builder.hpp\n'}
[0.628506] (ros2_planar_robot) StdoutLine: {'line': b'-- Up-to-date symlink: /home/umrob/M2/ros-2-planar-robot-p-3/install/ros2_planar_robot/include/ros2_planar_robot/ros2_planar_robot/msg/detail/pose__struct.hpp\n'}
[0.628747] (ros2_planar_robot) StdoutLine: {'line': b'-- Up-to-date symlink: /home/umrob/M2/ros-2-planar-robot-p-3/install/ros2_planar_robot/include/ros2_planar_robot/ros2_planar_robot/msg/detail/pose__traits.hpp\n'}
[0.628945] (ros2_planar_robot) StdoutLine: {'line': b'-- Up-to-date symlink: /home/umrob/M2/ros-2-planar-robot-p-3/install/ros2_planar_robot/include/ros2_planar_robot/ros2_planar_robot/msg/detail/ref_pose__builder.hpp\n'}
[0.629134] (ros2_planar_robot) StdoutLine: {'line': b'-- Up-to-date symlink: /home/umrob/M2/ros-2-planar-robot-p-3/install/ros2_planar_robot/include/ros2_planar_robot/ros2_planar_robot/msg/detail/ref_pose__struct.hpp\n'}
[0.629433] (ros2_planar_robot) StdoutLine: {'line': b'-- Up-to-date symlink: /home/umrob/M2/ros-2-planar-robot-p-3/install/ros2_planar_robot/include/ros2_planar_robot/ros2_planar_robot/msg/detail/ref_pose__traits.hpp\n'}
[0.629639] (ros2_planar_robot) StdoutLine: {'line': b'-- Up-to-date symlink: /home/umrob/M2/ros-2-planar-robot-p-3/install/ros2_planar_robot/include/ros2_planar_robot/ros2_planar_robot/msg/detail/velocity__builder.hpp\n'}
[0.629829] (ros2_planar_robot) StdoutLine: {'line': b'-- Up-to-date symlink: /home/umrob/M2/ros-2-planar-robot-p-3/install/ros2_planar_robot/include/ros2_planar_robot/ros2_planar_robot/msg/detail/velocity__struct.hpp\n'}
[0.630025] (ros2_planar_robot) StdoutLine: {'line': b'-- Up-to-date symlink: /home/umrob/M2/ros-2-planar-robot-p-3/install/ros2_planar_robot/include/ros2_planar_robot/ros2_planar_robot/msg/detail/velocity__traits.hpp\n'}
[0.630221] (ros2_planar_robot) StdoutLine: {'line': b'-- Up-to-date symlink: /home/umrob/M2/ros-2-planar-robot-p-3/install/ros2_planar_robot/include/ros2_planar_robot/ros2_planar_robot/msg/joint_position.hpp\n'}
[0.630413] (ros2_planar_robot) StdoutLine: {'line': b'-- Up-to-date symlink: /home/umrob/M2/ros-2-planar-robot-p-3/install/ros2_planar_robot/include/ros2_planar_robot/ros2_planar_robot/msg/kin_data.hpp\n'}
[0.630604] (ros2_planar_robot) StdoutLine: {'line': b'-- Up-to-date symlink: /home/umrob/M2/ros-2-planar-robot-p-3/install/ros2_planar_robot/include/ros2_planar_robot/ros2_planar_robot/msg/pose.hpp\n'}
[0.630794] (ros2_planar_robot) StdoutLine: {'line': b'-- Up-to-date symlink: /home/umrob/M2/ros-2-planar-robot-p-3/install/ros2_planar_robot/include/ros2_planar_robot/ros2_planar_robot/msg/ref_pose.hpp\n'}
[0.630990] (ros2_planar_robot) StdoutLine: {'line': b'-- Up-to-date symlink: /home/umrob/M2/ros-2-planar-robot-p-3/install/ros2_planar_robot/include/ros2_planar_robot/ros2_planar_robot/msg/velocity.hpp\n'}
[0.632041] (ros2_planar_robot) StdoutLine: {'line': b'-- Up-to-date symlink: /home/umrob/M2/ros-2-planar-robot-p-3/install/ros2_planar_robot/include/ros2_planar_robot/ros2_planar_robot/msg/detail/cartesian_state__rosidl_typesupport_fastrtps_cpp.hpp\n'}
[0.632248] (ros2_planar_robot) StdoutLine: {'line': b'-- Up-to-date symlink: /home/umrob/M2/ros-2-planar-robot-p-3/install/ros2_planar_robot/include/ros2_planar_robot/ros2_planar_robot/msg/detail/joint_position__rosidl_typesupport_fastrtps_cpp.hpp\n'}
[0.632465] (ros2_planar_robot) StdoutLine: {'line': b'-- Up-to-date symlink: /home/umrob/M2/ros-2-planar-robot-p-3/install/ros2_planar_robot/include/ros2_planar_robot/ros2_planar_robot/msg/detail/kin_data__rosidl_typesupport_fastrtps_cpp.hpp\n'}
[0.632671] (ros2_planar_robot) StdoutLine: {'line': b'-- Up-to-date symlink: /home/umrob/M2/ros-2-planar-robot-p-3/install/ros2_planar_robot/include/ros2_planar_robot/ros2_planar_robot/msg/detail/pose__rosidl_typesupport_fastrtps_cpp.hpp\n'}
[0.632870] (ros2_planar_robot) StdoutLine: {'line': b'-- Up-to-date symlink: /home/umrob/M2/ros-2-planar-robot-p-3/install/ros2_planar_robot/include/ros2_planar_robot/ros2_planar_robot/msg/detail/ref_pose__rosidl_typesupport_fastrtps_cpp.hpp\n'}
[0.633069] (ros2_planar_robot) StdoutLine: {'line': b'-- Up-to-date symlink: /home/umrob/M2/ros-2-planar-robot-p-3/install/ros2_planar_robot/include/ros2_planar_robot/ros2_planar_robot/msg/detail/velocity__rosidl_typesupport_fastrtps_cpp.hpp\n'}
[0.633358] (ros2_planar_robot) StdoutLine: {'line': b'-- Up-to-date symlink: /home/umrob/M2/ros-2-planar-robot-p-3/install/ros2_planar_robot/include/ros2_planar_robot/ros2_planar_robot/msg/rosidl_typesupport_fastrtps_cpp__visibility_control.h\n'}
[0.633961] (ros2_planar_robot) StdoutLine: {'line': b'-- Up-to-date symlink: /home/umrob/M2/ros-2-planar-robot-p-3/install/ros2_planar_robot/include/ros2_planar_robot/ros2_planar_robot/msg/detail/cartesian_state__rosidl_typesupport_introspection_c.h\n'}
[0.634166] (ros2_planar_robot) StdoutLine: {'line': b'-- Up-to-date symlink: /home/umrob/M2/ros-2-planar-robot-p-3/install/ros2_planar_robot/include/ros2_planar_robot/ros2_planar_robot/msg/detail/joint_position__rosidl_typesupport_introspection_c.h\n'}
[0.634374] (ros2_planar_robot) StdoutLine: {'line': b'-- Up-to-date symlink: /home/umrob/M2/ros-2-planar-robot-p-3/install/ros2_planar_robot/include/ros2_planar_robot/ros2_planar_robot/msg/detail/kin_data__rosidl_typesupport_introspection_c.h\n'}
[0.634580] (ros2_planar_robot) StdoutLine: {'line': b'-- Up-to-date symlink: /home/umrob/M2/ros-2-planar-robot-p-3/install/ros2_planar_robot/include/ros2_planar_robot/ros2_planar_robot/msg/detail/pose__rosidl_typesupport_introspection_c.h\n'}
[0.634808] (ros2_planar_robot) StdoutLine: {'line': b'-- Up-to-date symlink: /home/umrob/M2/ros-2-planar-robot-p-3/install/ros2_planar_robot/include/ros2_planar_robot/ros2_planar_robot/msg/detail/ref_pose__rosidl_typesupport_introspection_c.h\n'}
[0.635018] (ros2_planar_robot) StdoutLine: {'line': b'-- Up-to-date symlink: /home/umrob/M2/ros-2-planar-robot-p-3/install/ros2_planar_robot/include/ros2_planar_robot/ros2_planar_robot/msg/detail/velocity__rosidl_typesupport_introspection_c.h\n'}
[0.635218] (ros2_planar_robot) StdoutLine: {'line': b'-- Up-to-date symlink: /home/umrob/M2/ros-2-planar-robot-p-3/install/ros2_planar_robot/include/ros2_planar_robot/ros2_planar_robot/msg/rosidl_typesupport_introspection_c__visibility_control.h\n'}
[0.636005] (ros2_planar_robot) StdoutLine: {'line': b'-- Up-to-date symlink: /home/umrob/M2/ros-2-planar-robot-p-3/install/ros2_planar_robot/include/ros2_planar_robot/ros2_planar_robot/msg/detail/cartesian_state__rosidl_typesupport_introspection_cpp.hpp\n'}
[0.636210] (ros2_planar_robot) StdoutLine: {'line': b'-- Up-to-date symlink: /home/umrob/M2/ros-2-planar-robot-p-3/install/ros2_planar_robot/include/ros2_planar_robot/ros2_planar_robot/msg/detail/joint_position__rosidl_typesupport_introspection_cpp.hpp\n'}
[0.636432] (ros2_planar_robot) StdoutLine: {'line': b'-- Up-to-date symlink: /home/umrob/M2/ros-2-planar-robot-p-3/install/ros2_planar_robot/include/ros2_planar_robot/ros2_planar_robot/msg/detail/kin_data__rosidl_typesupport_introspection_cpp.hpp\n'}
[0.636658] (ros2_planar_robot) StdoutLine: {'line': b'-- Up-to-date symlink: /home/umrob/M2/ros-2-planar-robot-p-3/install/ros2_planar_robot/include/ros2_planar_robot/ros2_planar_robot/msg/detail/pose__rosidl_typesupport_introspection_cpp.hpp\n'}
[0.636867] (ros2_planar_robot) StdoutLine: {'line': b'-- Up-to-date symlink: /home/umrob/M2/ros-2-planar-robot-p-3/install/ros2_planar_robot/include/ros2_planar_robot/ros2_planar_robot/msg/detail/ref_pose__rosidl_typesupport_introspection_cpp.hpp\n'}
[0.637107] (ros2_planar_robot) StdoutLine: {'line': b'-- Up-to-date symlink: /home/umrob/M2/ros-2-planar-robot-p-3/install/ros2_planar_robot/include/ros2_planar_robot/ros2_planar_robot/msg/detail/velocity__rosidl_typesupport_introspection_cpp.hpp\n'}
[0.637490] (ros2_planar_robot) StdoutLine: {'line': b'-- Up-to-date symlink: /home/umrob/M2/ros-2-planar-robot-p-3/install/ros2_planar_robot/share/ros2_planar_robot/environment/pythonpath.sh\n'}
[0.637683] (ros2_planar_robot) StdoutLine: {'line': b'-- Up-to-date symlink: /home/umrob/M2/ros-2-planar-robot-p-3/install/ros2_planar_robot/share/ros2_planar_robot/environment/pythonpath.dsv\n'}
[0.638036] (ros2_planar_robot) StdoutLine: {'line': b'-- Up-to-date symlink: /home/umrob/M2/ros-2-planar-robot-p-3/install/ros2_planar_robot/local/lib/python3.10/dist-packages/ros2_planar_robot-0.0.0-py3.10.egg-info/PKG-INFO\n'}
[0.638168] (ros2_planar_robot) StdoutLine: {'line': b'-- Up-to-date symlink: /home/umrob/M2/ros-2-planar-robot-p-3/install/ros2_planar_robot/local/lib/python3.10/dist-packages/ros2_planar_robot-0.0.0-py3.10.egg-info/SOURCES.txt\n'}
[0.638305] (ros2_planar_robot) StdoutLine: {'line': b'-- Up-to-date symlink: /home/umrob/M2/ros-2-planar-robot-p-3/install/ros2_planar_robot/local/lib/python3.10/dist-packages/ros2_planar_robot-0.0.0-py3.10.egg-info/dependency_links.txt\n'}
[0.638447] (ros2_planar_robot) StdoutLine: {'line': b'-- Up-to-date symlink: /home/umrob/M2/ros-2-planar-robot-p-3/install/ros2_planar_robot/local/lib/python3.10/dist-packages/ros2_planar_robot-0.0.0-py3.10.egg-info/top_level.txt\n'}
[0.639211] (ros2_planar_robot) StdoutLine: {'line': b'-- Up-to-date symlink: /home/umrob/M2/ros-2-planar-robot-p-3/install/ros2_planar_robot/local/lib/python3.10/dist-packages/ros2_planar_robot/__init__.py\n'}
[0.639344] (ros2_planar_robot) StdoutLine: {'line': b'-- Up-to-date symlink: /home/umrob/M2/ros-2-planar-robot-p-3/install/ros2_planar_robot/local/lib/python3.10/dist-packages/ros2_planar_robot/_ros2_planar_robot_s.ep.rosidl_typesupport_c.c\n'}
[0.639526] (ros2_planar_robot) StdoutLine: {'line': b'-- Up-to-date symlink: /home/umrob/M2/ros-2-planar-robot-p-3/install/ros2_planar_robot/local/lib/python3.10/dist-packages/ros2_planar_robot/_ros2_planar_robot_s.ep.rosidl_typesupport_fastrtps_c.c\n'}
[0.639685] (ros2_planar_robot) StdoutLine: {'line': b'-- Up-to-date symlink: /home/umrob/M2/ros-2-planar-robot-p-3/install/ros2_planar_robot/local/lib/python3.10/dist-packages/ros2_planar_robot/_ros2_planar_robot_s.ep.rosidl_typesupport_introspection_c.c\n'}
[0.639828] (ros2_planar_robot) StdoutLine: {'line': b'-- Up-to-date symlink: /home/umrob/M2/ros-2-planar-robot-p-3/install/ros2_planar_robot/local/lib/python3.10/dist-packages/ros2_planar_robot/libros2_planar_robot__rosidl_generator_py.so\n'}
[0.639959] (ros2_planar_robot) StdoutLine: {'line': b'-- Up-to-date symlink: /home/umrob/M2/ros-2-planar-robot-p-3/install/ros2_planar_robot/local/lib/python3.10/dist-packages/ros2_planar_robot/msg/__init__.py\n'}
[0.640086] (ros2_planar_robot) StdoutLine: {'line': b'-- Up-to-date symlink: /home/umrob/M2/ros-2-planar-robot-p-3/install/ros2_planar_robot/local/lib/python3.10/dist-packages/ros2_planar_robot/msg/_cartesian_state.py\n'}
[0.640212] (ros2_planar_robot) StdoutLine: {'line': b'-- Up-to-date symlink: /home/umrob/M2/ros-2-planar-robot-p-3/install/ros2_planar_robot/local/lib/python3.10/dist-packages/ros2_planar_robot/msg/_cartesian_state_s.c\n'}
[0.640347] (ros2_planar_robot) StdoutLine: {'line': b'-- Up-to-date symlink: /home/umrob/M2/ros-2-planar-robot-p-3/install/ros2_planar_robot/local/lib/python3.10/dist-packages/ros2_planar_robot/msg/_joint_position.py\n'}
[0.640476] (ros2_planar_robot) StdoutLine: {'line': b'-- Up-to-date symlink: /home/umrob/M2/ros-2-planar-robot-p-3/install/ros2_planar_robot/local/lib/python3.10/dist-packages/ros2_planar_robot/msg/_joint_position_s.c\n'}
[0.640592] (ros2_planar_robot) StdoutLine: {'line': b'-- Up-to-date symlink: /home/umrob/M2/ros-2-planar-robot-p-3/install/ros2_planar_robot/local/lib/python3.10/dist-packages/ros2_planar_robot/msg/_kin_data.py\n'}
[0.640725] (ros2_planar_robot) StdoutLine: {'line': b'-- Up-to-date symlink: /home/umrob/M2/ros-2-planar-robot-p-3/install/ros2_planar_robot/local/lib/python3.10/dist-packages/ros2_planar_robot/msg/_kin_data_s.c\n'}
[0.640847] (ros2_planar_robot) StdoutLine: {'line': b'-- Up-to-date symlink: /home/umrob/M2/ros-2-planar-robot-p-3/install/ros2_planar_robot/local/lib/python3.10/dist-packages/ros2_planar_robot/msg/_pose.py\n'}
[0.640965] (ros2_planar_robot) StdoutLine: {'line': b'-- Up-to-date symlink: /home/umrob/M2/ros-2-planar-robot-p-3/install/ros2_planar_robot/local/lib/python3.10/dist-packages/ros2_planar_robot/msg/_pose_s.c\n'}
[0.641097] (ros2_planar_robot) StdoutLine: {'line': b'-- Up-to-date symlink: /home/umrob/M2/ros-2-planar-robot-p-3/install/ros2_planar_robot/local/lib/python3.10/dist-packages/ros2_planar_robot/msg/_ref_pose.py\n'}
[0.641219] (ros2_planar_robot) StdoutLine: {'line': b'-- Up-to-date symlink: /home/umrob/M2/ros-2-planar-robot-p-3/install/ros2_planar_robot/local/lib/python3.10/dist-packages/ros2_planar_robot/msg/_ref_pose_s.c\n'}
[0.641347] (ros2_planar_robot) StdoutLine: {'line': b'-- Up-to-date symlink: /home/umrob/M2/ros-2-planar-robot-p-3/install/ros2_planar_robot/local/lib/python3.10/dist-packages/ros2_planar_robot/msg/_velocity.py\n'}
[0.641465] (ros2_planar_robot) StdoutLine: {'line': b'-- Up-to-date symlink: /home/umrob/M2/ros-2-planar-robot-p-3/install/ros2_planar_robot/local/lib/python3.10/dist-packages/ros2_planar_robot/msg/_velocity_s.c\n'}
[0.641596] (ros2_planar_robot) StdoutLine: {'line': b'-- Up-to-date symlink: /home/umrob/M2/ros-2-planar-robot-p-3/install/ros2_planar_robot/local/lib/python3.10/dist-packages/ros2_planar_robot/ros2_planar_robot_s__rosidl_typesupport_c.cpython-310-x86_64-linux-gnu.so\n'}
[0.641718] (ros2_planar_robot) StdoutLine: {'line': b'-- Up-to-date symlink: /home/umrob/M2/ros-2-planar-robot-p-3/install/ros2_planar_robot/local/lib/python3.10/dist-packages/ros2_planar_robot/ros2_planar_robot_s__rosidl_typesupport_fastrtps_c.cpython-310-x86_64-linux-gnu.so\n'}
[0.641836] (ros2_planar_robot) StdoutLine: {'line': b'-- Up-to-date symlink: /home/umrob/M2/ros-2-planar-robot-p-3/install/ros2_planar_robot/local/lib/python3.10/dist-packages/ros2_planar_robot/ros2_planar_robot_s__rosidl_typesupport_introspection_c.cpython-310-x86_64-linux-gnu.so\n'}
[0.642051] (ros2_planar_robot) StdoutLine: {'line': b'-- Up-to-date symlink: /home/umrob/M2/ros-2-planar-robot-p-3/install/ros2_planar_robot/local/lib/python3.10/dist-packages/ros2_planar_robot/ros2_planar_robot_s__rosidl_typesupport_fastrtps_c.cpython-310-x86_64-linux-gnu.so\n'}
[0.642339] (ros2_planar_robot) StdoutLine: {'line': b'-- Up-to-date symlink: /home/umrob/M2/ros-2-planar-robot-p-3/install/ros2_planar_robot/local/lib/python3.10/dist-packages/ros2_planar_robot/ros2_planar_robot_s__rosidl_typesupport_introspection_c.cpython-310-x86_64-linux-gnu.so\n'}
[0.642628] (ros2_planar_robot) StdoutLine: {'line': b'-- Up-to-date symlink: /home/umrob/M2/ros-2-planar-robot-p-3/install/ros2_planar_robot/local/lib/python3.10/dist-packages/ros2_planar_robot/ros2_planar_robot_s__rosidl_typesupport_c.cpython-310-x86_64-linux-gnu.so\n'}
[0.642822] (ros2_planar_robot) StdoutLine: {'line': b'-- Up-to-date symlink: /home/umrob/M2/ros-2-planar-robot-p-3/install/ros2_planar_robot/share/ros2_planar_robot/msg/RefPose.idl\n'}
[0.643010] (ros2_planar_robot) StdoutLine: {'line': b'-- Up-to-date symlink: /home/umrob/M2/ros-2-planar-robot-p-3/install/ros2_planar_robot/share/ros2_planar_robot/msg/Pose.idl\n'}
[0.643190] (ros2_planar_robot) StdoutLine: {'line': b'-- Up-to-date symlink: /home/umrob/M2/ros-2-planar-robot-p-3/install/ros2_planar_robot/share/ros2_planar_robot/msg/CartesianState.idl\n'}
[0.643364] (ros2_planar_robot) StdoutLine: {'line': b'-- Up-to-date symlink: /home/umrob/M2/ros-2-planar-robot-p-3/install/ros2_planar_robot/share/ros2_planar_robot/msg/Velocity.idl\n'}
[0.643537] (ros2_planar_robot) StdoutLine: {'line': b'-- Up-to-date symlink: /home/umrob/M2/ros-2-planar-robot-p-3/install/ros2_planar_robot/share/ros2_planar_robot/msg/KinData.idl\n'}
[0.643710] (ros2_planar_robot) StdoutLine: {'line': b'-- Up-to-date symlink: /home/umrob/M2/ros-2-planar-robot-p-3/install/ros2_planar_robot/share/ros2_planar_robot/msg/JointPosition.idl\n'}
[0.643878] (ros2_planar_robot) StdoutLine: {'line': b'-- Up-to-date symlink: /home/umrob/M2/ros-2-planar-robot-p-3/install/ros2_planar_robot/share/ros2_planar_robot/msg/RefPose.msg\n'}
[0.644040] (ros2_planar_robot) StdoutLine: {'line': b'-- Up-to-date symlink: /home/umrob/M2/ros-2-planar-robot-p-3/install/ros2_planar_robot/share/ros2_planar_robot/msg/Pose.msg\n'}
[0.644205] (ros2_planar_robot) StdoutLine: {'line': b'-- Up-to-date symlink: /home/umrob/M2/ros-2-planar-robot-p-3/install/ros2_planar_robot/share/ros2_planar_robot/msg/CartesianState.msg\n'}
[0.644385] (ros2_planar_robot) StdoutLine: {'line': b'-- Up-to-date symlink: /home/umrob/M2/ros-2-planar-robot-p-3/install/ros2_planar_robot/share/ros2_planar_robot/msg/Velocity.msg\n'}
[0.644558] (ros2_planar_robot) StdoutLine: {'line': b'-- Up-to-date symlink: /home/umrob/M2/ros-2-planar-robot-p-3/install/ros2_planar_robot/share/ros2_planar_robot/msg/KinData.msg\n'}
[0.644726] (ros2_planar_robot) StdoutLine: {'line': b'-- Up-to-date symlink: /home/umrob/M2/ros-2-planar-robot-p-3/install/ros2_planar_robot/share/ros2_planar_robot/msg/JointPosition.msg\n'}
[0.645027] (ros2_planar_robot) StdoutLine: {'line': b'-- Up-to-date symlink: /home/umrob/M2/ros-2-planar-robot-p-3/install/ros2_planar_robot/lib/ros2_planar_robot/trajectory_generator\n'}
[0.645204] (ros2_planar_robot) StdoutLine: {'line': b'-- Up-to-date symlink: /home/umrob/M2/ros-2-planar-robot-p-3/install/ros2_planar_robot/lib/ros2_planar_robot/high_lev_mng\n'}
[0.645457] (ros2_planar_robot) StdoutLine: {'line': b'-- Up-to-date symlink: /home/umrob/M2/ros-2-planar-robot-p-3/install/ros2_planar_robot/lib/ros2_planar_robot/kinematic_modeller\n'}
[0.645748] (ros2_planar_robot) StdoutLine: {'line': b'-- Up-to-date symlink: /home/umrob/M2/ros-2-planar-robot-p-3/install/ros2_planar_robot/lib/libtrajectory_generation_lib.so\n'}
[0.645916] (ros2_planar_robot) StdoutLine: {'line': b'-- Up-to-date symlink: /home/umrob/M2/ros-2-planar-robot-p-3/install/ros2_planar_robot/lib/libkinematic_model_lib.so\n'}
[0.646120] (ros2_planar_robot) StdoutLine: {'line': b'-- Up-to-date symlink: /home/umrob/M2/ros-2-planar-robot-p-3/install/ros2_planar_robot/share/ament_index/resource_index/package_run_dependencies/ros2_planar_robot\n'}
[0.646322] (ros2_planar_robot) StdoutLine: {'line': b'-- Up-to-date symlink: /home/umrob/M2/ros-2-planar-robot-p-3/install/ros2_planar_robot/share/ament_index/resource_index/parent_prefix_path/ros2_planar_robot\n'}
[0.646505] (ros2_planar_robot) StdoutLine: {'line': b'-- Up-to-date symlink: /home/umrob/M2/ros-2-planar-robot-p-3/install/ros2_planar_robot/share/ros2_planar_robot/environment/ament_prefix_path.sh\n'}
[0.646695] (ros2_planar_robot) StdoutLine: {'line': b'-- Up-to-date symlink: /home/umrob/M2/ros-2-planar-robot-p-3/install/ros2_planar_robot/share/ros2_planar_robot/environment/ament_prefix_path.dsv\n'}
[0.646871] (ros2_planar_robot) StdoutLine: {'line': b'-- Up-to-date symlink: /home/umrob/M2/ros-2-planar-robot-p-3/install/ros2_planar_robot/share/ros2_planar_robot/environment/path.sh\n'}
[0.647045] (ros2_planar_robot) StdoutLine: {'line': b'-- Up-to-date symlink: /home/umrob/M2/ros-2-planar-robot-p-3/install/ros2_planar_robot/share/ros2_planar_robot/environment/path.dsv\n'}
[0.647214] (ros2_planar_robot) StdoutLine: {'line': b'-- Up-to-date symlink: /home/umrob/M2/ros-2-planar-robot-p-3/install/ros2_planar_robot/share/ros2_planar_robot/local_setup.bash\n'}
[0.647422] (ros2_planar_robot) StdoutLine: {'line': b'-- Up-to-date symlink: /home/umrob/M2/ros-2-planar-robot-p-3/install/ros2_planar_robot/share/ros2_planar_robot/local_setup.sh\n'}
[0.647634] (ros2_planar_robot) StdoutLine: {'line': b'-- Up-to-date symlink: /home/umrob/M2/ros-2-planar-robot-p-3/install/ros2_planar_robot/share/ros2_planar_robot/local_setup.zsh\n'}
[0.647796] (ros2_planar_robot) StdoutLine: {'line': b'-- Up-to-date symlink: /home/umrob/M2/ros-2-planar-robot-p-3/install/ros2_planar_robot/share/ros2_planar_robot/local_setup.dsv\n'}
[0.647932] (ros2_planar_robot) StdoutLine: {'line': b'-- Symlinking: /home/umrob/M2/ros-2-planar-robot-p-3/install/ros2_planar_robot/share/ros2_planar_robot/package.dsv\n'}
[0.657008] (ros2_planar_robot) StdoutLine: {'line': b'-- Up-to-date symlink: /home/umrob/M2/ros-2-planar-robot-p-3/install/ros2_planar_robot/share/ament_index/resource_index/packages/ros2_planar_robot\n'}
[0.657268] (ros2_planar_robot) StdoutLine: {'line': b'-- Up-to-date symlink: /home/umrob/M2/ros-2-planar-robot-p-3/install/ros2_planar_robot/share/ros2_planar_robot/cmake/rosidl_cmake-extras.cmake\n'}
[0.657419] (ros2_planar_robot) StdoutLine: {'line': b'-- Up-to-date symlink: /home/umrob/M2/ros-2-planar-robot-p-3/install/ros2_planar_robot/share/ros2_planar_robot/cmake/ament_cmake_export_include_directories-extras.cmake\n'}
[0.657571] (ros2_planar_robot) StdoutLine: {'line': b'-- Up-to-date symlink: /home/umrob/M2/ros-2-planar-robot-p-3/install/ros2_planar_robot/share/ros2_planar_robot/cmake/ament_cmake_export_libraries-extras.cmake\n'}
[0.657751] (ros2_planar_robot) StdoutLine: {'line': b'-- Up-to-date symlink: /home/umrob/M2/ros-2-planar-robot-p-3/install/ros2_planar_robot/share/ros2_planar_robot/cmake/ament_cmake_export_targets-extras.cmake\n'}
[0.657906] (ros2_planar_robot) StdoutLine: {'line': b'-- Up-to-date symlink: /home/umrob/M2/ros-2-planar-robot-p-3/install/ros2_planar_robot/share/ros2_planar_robot/cmake/rosidl_cmake_export_typesupport_targets-extras.cmake\n'}
[0.658067] (ros2_planar_robot) StdoutLine: {'line': b'-- Up-to-date symlink: /home/umrob/M2/ros-2-planar-robot-p-3/install/ros2_planar_robot/share/ros2_planar_robot/cmake/ament_cmake_export_dependencies-extras.cmake\n'}
[0.658239] (ros2_planar_robot) StdoutLine: {'line': b'-- Up-to-date symlink: /home/umrob/M2/ros-2-planar-robot-p-3/install/ros2_planar_robot/share/ros2_planar_robot/cmake/rosidl_cmake_export_typesupport_libraries-extras.cmake\n'}
[0.658418] (ros2_planar_robot) StdoutLine: {'line': b'-- Up-to-date symlink: /home/umrob/M2/ros-2-planar-robot-p-3/install/ros2_planar_robot/share/ros2_planar_robot/cmake/ros2_planar_robotConfig.cmake\n'}
[0.658549] (ros2_planar_robot) StdoutLine: {'line': b'-- Up-to-date symlink: /home/umrob/M2/ros-2-planar-robot-p-3/install/ros2_planar_robot/share/ros2_planar_robot/cmake/ros2_planar_robotConfig-version.cmake\n'}
[0.658696] (ros2_planar_robot) StdoutLine: {'line': b'-- Up-to-date symlink: /home/umrob/M2/ros-2-planar-robot-p-3/install/ros2_planar_robot/share/ros2_planar_robot/package.xml\n'}
[0.659049] (ros2_planar_robot) StdoutLine: {'line': b'-- Up-to-date: /home/umrob/M2/ros-2-planar-robot-p-3/install/ros2_planar_robot/lib/libros2_planar_robot__rosidl_generator_c.so\n'}
[0.659315] (ros2_planar_robot) StdoutLine: {'line': b'-- Up-to-date: /home/umrob/M2/ros-2-planar-robot-p-3/install/ros2_planar_robot/lib/libros2_planar_robot__rosidl_typesupport_fastrtps_c.so\n'}
[0.659660] (ros2_planar_robot) StdoutLine: {'line': b'-- Up-to-date: /home/umrob/M2/ros-2-planar-robot-p-3/install/ros2_planar_robot/lib/libros2_planar_robot__rosidl_typesupport_fastrtps_cpp.so\n'}
[0.659904] (ros2_planar_robot) StdoutLine: {'line': b'-- Up-to-date: /home/umrob/M2/ros-2-planar-robot-p-3/install/ros2_planar_robot/lib/libros2_planar_robot__rosidl_typesupport_introspection_c.so\n'}
[0.660114] (ros2_planar_robot) StdoutLine: {'line': b'-- Up-to-date: /home/umrob/M2/ros-2-planar-robot-p-3/install/ros2_planar_robot/lib/libros2_planar_robot__rosidl_typesupport_c.so\n'}
[0.660361] (ros2_planar_robot) StdoutLine: {'line': b'-- Up-to-date: /home/umrob/M2/ros-2-planar-robot-p-3/install/ros2_planar_robot/lib/libros2_planar_robot__rosidl_typesupport_introspection_cpp.so\n'}
[0.660643] (ros2_planar_robot) StdoutLine: {'line': b'-- Up-to-date: /home/umrob/M2/ros-2-planar-robot-p-3/install/ros2_planar_robot/lib/libros2_planar_robot__rosidl_typesupport_cpp.so\n'}
[0.689916] (ros2_planar_robot) StdoutLine: {'line': b"Listing '/home/umrob/M2/ros-2-planar-robot-p-3/install/ros2_planar_robot/local/lib/python3.10/dist-packages/ros2_planar_robot'...\n"}
[0.690159] (ros2_planar_robot) StdoutLine: {'line': b"Listing '/home/umrob/M2/ros-2-planar-robot-p-3/install/ros2_planar_robot/local/lib/python3.10/dist-packages/ros2_planar_robot/msg'...\n"}
[0.694274] (ros2_planar_robot) StdoutLine: {'line': b'-- Up-to-date: /home/umrob/M2/ros-2-planar-robot-p-3/install/ros2_planar_robot/lib/libros2_planar_robot__rosidl_generator_py.so\n'}
[0.694536] (ros2_planar_robot) StdoutLine: {'line': b'-- Up-to-date: /home/umrob/M2/ros-2-planar-robot-p-3/install/ros2_planar_robot/share/ros2_planar_robot/cmake/export_ros2_planar_robot__rosidl_generator_cExport.cmake\n'}
[0.694729] (ros2_planar_robot) StdoutLine: {'line': b'-- Up-to-date: /home/umrob/M2/ros-2-planar-robot-p-3/install/ros2_planar_robot/share/ros2_planar_robot/cmake/export_ros2_planar_robot__rosidl_generator_cExport-noconfig.cmake\n'}
[0.694883] (ros2_planar_robot) StdoutLine: {'line': b'-- Up-to-date: /home/umrob/M2/ros-2-planar-robot-p-3/install/ros2_planar_robot/share/ros2_planar_robot/cmake/export_ros2_planar_robot__rosidl_typesupport_fastrtps_cExport.cmake\n'}
[0.695031] (ros2_planar_robot) StdoutLine: {'line': b'-- Up-to-date: /home/umrob/M2/ros-2-planar-robot-p-3/install/ros2_planar_robot/share/ros2_planar_robot/cmake/export_ros2_planar_robot__rosidl_typesupport_fastrtps_cExport-noconfig.cmake\n'}
[0.695175] (ros2_planar_robot) StdoutLine: {'line': b'-- Up-to-date: /home/umrob/M2/ros-2-planar-robot-p-3/install/ros2_planar_robot/share/ros2_planar_robot/cmake/export_ros2_planar_robot__rosidl_generator_cppExport.cmake\n'}
[0.695252] (ros2_planar_robot) StdoutLine: {'line': b'-- Up-to-date: /home/umrob/M2/ros-2-planar-robot-p-3/install/ros2_planar_robot/share/ros2_planar_robot/cmake/export_ros2_planar_robot__rosidl_typesupport_fastrtps_cppExport.cmake\n'}
[0.695365] (ros2_planar_robot) StdoutLine: {'line': b'-- Up-to-date: /home/umrob/M2/ros-2-planar-robot-p-3/install/ros2_planar_robot/share/ros2_planar_robot/cmake/export_ros2_planar_robot__rosidl_typesupport_fastrtps_cppExport-noconfig.cmake\n'}
[0.695500] (ros2_planar_robot) StdoutLine: {'line': b'-- Up-to-date: /home/umrob/M2/ros-2-planar-robot-p-3/install/ros2_planar_robot/share/ros2_planar_robot/cmake/ros2_planar_robot__rosidl_typesupport_introspection_cExport.cmake\n'}
[0.695593] (ros2_planar_robot) StdoutLine: {'line': b'-- Up-to-date: /home/umrob/M2/ros-2-planar-robot-p-3/install/ros2_planar_robot/share/ros2_planar_robot/cmake/ros2_planar_robot__rosidl_typesupport_introspection_cExport-noconfig.cmake\n'}
[0.695701] (ros2_planar_robot) StdoutLine: {'line': b'-- Up-to-date: /home/umrob/M2/ros-2-planar-robot-p-3/install/ros2_planar_robot/share/ros2_planar_robot/cmake/ros2_planar_robot__rosidl_typesupport_cExport.cmake\n'}
[0.695776] (ros2_planar_robot) StdoutLine: {'line': b'-- Up-to-date: /home/umrob/M2/ros-2-planar-robot-p-3/install/ros2_planar_robot/share/ros2_planar_robot/cmake/ros2_planar_robot__rosidl_typesupport_cExport-noconfig.cmake\n'}
[0.695858] (ros2_planar_robot) StdoutLine: {'line': b'-- Up-to-date: /home/umrob/M2/ros-2-planar-robot-p-3/install/ros2_planar_robot/share/ros2_planar_robot/cmake/ros2_planar_robot__rosidl_typesupport_introspection_cppExport.cmake\n'}
[0.695987] (ros2_planar_robot) StdoutLine: {'line': b'-- Up-to-date: /home/umrob/M2/ros-2-planar-robot-p-3/install/ros2_planar_robot/share/ros2_planar_robot/cmake/ros2_planar_robot__rosidl_typesupport_introspection_cppExport-noconfig.cmake\n'}
[0.696112] (ros2_planar_robot) StdoutLine: {'line': b'-- Up-to-date: /home/umrob/M2/ros-2-planar-robot-p-3/install/ros2_planar_robot/share/ros2_planar_robot/cmake/ros2_planar_robot__rosidl_typesupport_cppExport.cmake\n'}
[0.696187] (ros2_planar_robot) StdoutLine: {'line': b'-- Up-to-date: /home/umrob/M2/ros-2-planar-robot-p-3/install/ros2_planar_robot/share/ros2_planar_robot/cmake/ros2_planar_robot__rosidl_typesupport_cppExport-noconfig.cmake\n'}
[0.696264] (ros2_planar_robot) StdoutLine: {'line': b'-- Up-to-date: /home/umrob/M2/ros-2-planar-robot-p-3/install/ros2_planar_robot/share/ros2_planar_robot/cmake/export_ros2_planar_robot__rosidl_generator_pyExport.cmake\n'}
[0.696374] (ros2_planar_robot) StdoutLine: {'line': b'-- Up-to-date: /home/umrob/M2/ros-2-planar-robot-p-3/install/ros2_planar_robot/share/ros2_planar_robot/cmake/export_ros2_planar_robot__rosidl_generator_pyExport-noconfig.cmake\n'}
[0.698561] (ros2_planar_robot) CommandEnded: {'returncode': 0}
[0.700087] (-) TimerEvent: {}
[0.800439] (-) TimerEvent: {}
[0.900966] (-) TimerEvent: {}
[0.987628] (ros2_planar_robot) JobEnded: {'identifier': 'ros2_planar_robot', 'rc': 0}
[0.988574] (-) EventReactorShutdown: {}
