[0.857s] DEBUG:colcon:Command line arguments: ['/usr/bin/colcon', 'build']
[0.858s] DEBUG:colcon:Parsed command line arguments: Namespace(log_base=None, log_level=None, verb_name='build', build_base='build', install_base='install', merge_install=False, symlink_install=False, test_result_base=None, continue_on_error=False, executor='parallel', parallel_workers=8, event_handlers=None, ignore_user_meta=False, metas=['./colcon.meta'], base_paths=['.'], packages_ignore=None, packages_ignore_regex=None, paths=None, packages_up_to=None, packages_up_to_regex=None, packages_above=None, packages_above_and_dependencies=None, packages_above_depth=None, packages_select_by_dep=None, packages_skip_by_dep=None, packages_skip_up_to=None, packages_select_build_failed=False, packages_skip_build_finished=False, packages_select_test_failures=False, packages_skip_test_passed=False, packages_select=None, packages_skip=None, packages_select_regex=None, packages_skip_regex=None, packages_start=None, packages_end=None, allow_overriding=[], cmake_args=None, cmake_target=None, cmake_target_skip_unavailable=False, cmake_clean_cache=False, cmake_clean_first=False, cmake_force_configure=False, ament_cmake_args=None, catkin_cmake_args=None, catkin_skip_building_tests=False, verb_parser=<colcon_defaults.argument_parser.defaults.DefaultArgumentsDecorator object at 0x7fd53e280f10>, verb_extension=<colcon_core.verb.build.BuildVerb object at 0x7fd53e2801c0>, main=<bound method BuildVerb.main of <colcon_core.verb.build.BuildVerb object at 0x7fd53e2801c0>>)
[0.897s] Level 1:colcon.colcon_core.package_discovery:discover_packages(colcon_meta) check parameters
[0.897s] Level 1:colcon.colcon_core.package_discovery:discover_packages(recursive) check parameters
[0.897s] Level 1:colcon.colcon_core.package_discovery:discover_packages(ignore) check parameters
[0.897s] Level 1:colcon.colcon_core.package_discovery:discover_packages(path) check parameters
[0.897s] Level 1:colcon.colcon_core.package_discovery:discover_packages(colcon_meta) discover
[0.897s] Level 1:colcon.colcon_core.package_discovery:discover_packages(recursive) discover
[0.897s] INFO:colcon.colcon_core.package_discovery:Crawling recursively for packages in '/home/umrob/M2/ros-2-planar-robot-p-3'
[0.897s] Level 1:colcon.colcon_core.package_identification:_identify(.) by extensions ['ignore', 'ignore_ament_install']
[0.897s] Level 1:colcon.colcon_core.package_identification:_identify(.) by extension 'ignore'
[0.897s] Level 1:colcon.colcon_core.package_identification:_identify(.) by extension 'ignore_ament_install'
[0.897s] Level 1:colcon.colcon_core.package_identification:_identify(.) by extensions ['colcon_pkg']
[0.897s] Level 1:colcon.colcon_core.package_identification:_identify(.) by extension 'colcon_pkg'
[0.897s] Level 1:colcon.colcon_core.package_identification:_identify(.) by extensions ['colcon_meta']
[0.897s] Level 1:colcon.colcon_core.package_identification:_identify(.) by extension 'colcon_meta'
[0.897s] Level 1:colcon.colcon_core.package_identification:_identify(.) by extensions ['ros']
[0.898s] Level 1:colcon.colcon_core.package_identification:_identify(.) by extension 'ros'
[0.909s] DEBUG:colcon.colcon_core.package_identification:Package '.' with type 'ros.ament_cmake' and name 'ros2_planar_robot'
[0.909s] Level 1:colcon.colcon_core.package_discovery:discover_packages(recursive) using defaults
[0.910s] Level 1:colcon.colcon_core.package_discovery:discover_packages(ignore) discover
[0.910s] Level 1:colcon.colcon_core.package_discovery:discover_packages(ignore) using defaults
[0.910s] Level 1:colcon.colcon_core.package_discovery:discover_packages(path) discover
[0.910s] Level 1:colcon.colcon_core.package_discovery:discover_packages(path) using defaults
[0.987s] Level 1:colcon.colcon_core.package_discovery:discover_packages(prefix_path) check parameters
[0.987s] Level 1:colcon.colcon_core.package_discovery:discover_packages(prefix_path) discover
[1.013s] DEBUG:colcon.colcon_installed_package_information.package_discovery:Found 1 installed packages in /home/umrob/M2/ros-2-planar-robot-p-3/install
[1.026s] DEBUG:colcon.colcon_installed_package_information.package_discovery:Found 270 installed packages in /opt/ros/humble
[1.027s] Level 1:colcon.colcon_core.package_discovery:discover_packages(prefix_path) using defaults
[1.105s] Level 5:colcon.colcon_core.verb:set package 'ros2_planar_robot' build argument 'cmake_args' from command line to 'None'
[1.105s] Level 5:colcon.colcon_core.verb:set package 'ros2_planar_robot' build argument 'cmake_target' from command line to 'None'
[1.105s] Level 5:colcon.colcon_core.verb:set package 'ros2_planar_robot' build argument 'cmake_target_skip_unavailable' from command line to 'False'
[1.105s] Level 5:colcon.colcon_core.verb:set package 'ros2_planar_robot' build argument 'cmake_clean_cache' from command line to 'False'
[1.105s] Level 5:colcon.colcon_core.verb:set package 'ros2_planar_robot' build argument 'cmake_clean_first' from command line to 'False'
[1.105s] Level 5:colcon.colcon_core.verb:set package 'ros2_planar_robot' build argument 'cmake_force_configure' from command line to 'False'
[1.105s] Level 5:colcon.colcon_core.verb:set package 'ros2_planar_robot' build argument 'ament_cmake_args' from command line to 'None'
[1.105s] Level 5:colcon.colcon_core.verb:set package 'ros2_planar_robot' build argument 'catkin_cmake_args' from command line to 'None'
[1.105s] Level 5:colcon.colcon_core.verb:set package 'ros2_planar_robot' build argument 'catkin_skip_building_tests' from command line to 'False'
[1.105s] DEBUG:colcon.colcon_core.verb:Building package 'ros2_planar_robot' with the following arguments: {'ament_cmake_args': None, 'build_base': '/home/umrob/M2/ros-2-planar-robot-p-3/build/ros2_planar_robot', 'catkin_cmake_args': None, 'catkin_skip_building_tests': False, 'cmake_args': None, 'cmake_clean_cache': False, 'cmake_clean_first': False, 'cmake_force_configure': False, 'cmake_target': None, 'cmake_target_skip_unavailable': False, 'install_base': '/home/umrob/M2/ros-2-planar-robot-p-3/install/ros2_planar_robot', 'merge_install': False, 'path': '/home/umrob/M2/ros-2-planar-robot-p-3', 'symlink_install': False, 'test_result_base': None}
[1.117s] INFO:colcon.colcon_core.executor:Executing jobs using 'parallel' executor
[1.130s] DEBUG:colcon.colcon_parallel_executor.executor.parallel:run_until_complete
[1.130s] INFO:colcon.colcon_ros.task.ament_cmake.build:Building ROS package in '/home/umrob/M2/ros-2-planar-robot-p-3' with build type 'ament_cmake'
[1.130s] INFO:colcon.colcon_cmake.task.cmake.build:Building CMake package in '/home/umrob/M2/ros-2-planar-robot-p-3'
[1.144s] INFO:colcon.colcon_core.plugin_system:Skipping extension 'colcon_core.shell.bat': Not used on non-Windows systems
[1.144s] INFO:colcon.colcon_core.shell:Skip shell extension 'powershell' for command environment: Not usable outside of PowerShell
[1.144s] DEBUG:colcon.colcon_core.shell:Skip shell extension 'dsv' for command environment
[1.191s] DEBUG:colcon.colcon_core.event_handler.log_command:Invoking command in '/home/umrob/M2/ros-2-planar-robot-p-3/build/ros2_planar_robot': CMAKE_PREFIX_PATH=${CMAKE_PREFIX_PATH}:/opt/ros/humble CONDA_PROMPT_MODIFIER=(base) /usr/bin/cmake --build /home/umrob/M2/ros-2-planar-robot-p-3/build/ros2_planar_robot -- -j8 -l8
[13.431s] DEBUG:colcon.colcon_core.event_handler.log_command:Invoked command in '/home/umrob/M2/ros-2-planar-robot-p-3/build/ros2_planar_robot' returned '0': CMAKE_PREFIX_PATH=${CMAKE_PREFIX_PATH}:/opt/ros/humble CONDA_PROMPT_MODIFIER=(base) /usr/bin/cmake --build /home/umrob/M2/ros-2-planar-robot-p-3/build/ros2_planar_robot -- -j8 -l8
[13.563s] DEBUG:colcon.colcon_core.event_handler.log_command:Invoking command in '/home/umrob/M2/ros-2-planar-robot-p-3/build/ros2_planar_robot': CMAKE_PREFIX_PATH=${CMAKE_PREFIX_PATH}:/opt/ros/humble CONDA_PROMPT_MODIFIER=(base) /usr/bin/cmake --install /home/umrob/M2/ros-2-planar-robot-p-3/build/ros2_planar_robot
[13.637s] Level 1:colcon.colcon_core.environment:create_environment_scripts_only(ros2_planar_robot)
[13.637s] DEBUG:colcon.colcon_core.event_handler.log_command:Invoked command in '/home/umrob/M2/ros-2-planar-robot-p-3/build/ros2_planar_robot' returned '0': CMAKE_PREFIX_PATH=${CMAKE_PREFIX_PATH}:/opt/ros/humble CONDA_PROMPT_MODIFIER=(base) /usr/bin/cmake --install /home/umrob/M2/ros-2-planar-robot-p-3/build/ros2_planar_robot
[13.652s] Level 1:colcon.colcon_core.environment:checking '/home/umrob/M2/ros-2-planar-robot-p-3/install/ros2_planar_robot' for CMake module files
[13.652s] Level 1:colcon.colcon_core.environment:checking '/home/umrob/M2/ros-2-planar-robot-p-3/install/ros2_planar_robot' for CMake config files
[13.653s] Level 1:colcon.colcon_core.shell:create_environment_hook('ros2_planar_robot', 'cmake_prefix_path')
[13.665s] INFO:colcon.colcon_core.shell:Creating environment hook '/home/umrob/M2/ros-2-planar-robot-p-3/install/ros2_planar_robot/share/ros2_planar_robot/hook/cmake_prefix_path.ps1'
[13.666s] INFO:colcon.colcon_core.shell:Creating environment descriptor '/home/umrob/M2/ros-2-planar-robot-p-3/install/ros2_planar_robot/share/ros2_planar_robot/hook/cmake_prefix_path.dsv'
[13.666s] INFO:colcon.colcon_core.shell:Creating environment hook '/home/umrob/M2/ros-2-planar-robot-p-3/install/ros2_planar_robot/share/ros2_planar_robot/hook/cmake_prefix_path.sh'
[13.667s] Level 1:colcon.colcon_core.environment:checking '/home/umrob/M2/ros-2-planar-robot-p-3/install/ros2_planar_robot/lib'
[13.667s] Level 1:colcon.colcon_core.shell:create_environment_hook('ros2_planar_robot', 'ld_library_path_lib')
[13.680s] INFO:colcon.colcon_core.shell:Creating environment hook '/home/umrob/M2/ros-2-planar-robot-p-3/install/ros2_planar_robot/share/ros2_planar_robot/hook/ld_library_path_lib.ps1'
[13.680s] INFO:colcon.colcon_core.shell:Creating environment descriptor '/home/umrob/M2/ros-2-planar-robot-p-3/install/ros2_planar_robot/share/ros2_planar_robot/hook/ld_library_path_lib.dsv'
[13.680s] INFO:colcon.colcon_core.shell:Creating environment hook '/home/umrob/M2/ros-2-planar-robot-p-3/install/ros2_planar_robot/share/ros2_planar_robot/hook/ld_library_path_lib.sh'
[13.681s] Level 1:colcon.colcon_core.environment:checking '/home/umrob/M2/ros-2-planar-robot-p-3/install/ros2_planar_robot/bin'
[13.681s] Level 1:colcon.colcon_core.environment:checking '/home/umrob/M2/ros-2-planar-robot-p-3/install/ros2_planar_robot/lib/pkgconfig/ros2_planar_robot.pc'
[13.681s] Level 1:colcon.colcon_core.environment:checking '/home/umrob/M2/ros-2-planar-robot-p-3/install/ros2_planar_robot/lib/python3.10/site-packages'
[13.681s] Level 1:colcon.colcon_core.environment:checking '/home/umrob/M2/ros-2-planar-robot-p-3/install/ros2_planar_robot/bin'
[13.694s] INFO:colcon.colcon_core.shell:Creating package script '/home/umrob/M2/ros-2-planar-robot-p-3/install/ros2_planar_robot/share/ros2_planar_robot/package.ps1'
[13.694s] INFO:colcon.colcon_core.shell:Creating package descriptor '/home/umrob/M2/ros-2-planar-robot-p-3/install/ros2_planar_robot/share/ros2_planar_robot/package.dsv'
[13.695s] INFO:colcon.colcon_core.shell:Creating package script '/home/umrob/M2/ros-2-planar-robot-p-3/install/ros2_planar_robot/share/ros2_planar_robot/package.sh'
[13.695s] INFO:colcon.colcon_core.shell:Creating package script '/home/umrob/M2/ros-2-planar-robot-p-3/install/ros2_planar_robot/share/ros2_planar_robot/package.bash'
[13.696s] INFO:colcon.colcon_core.shell:Creating package script '/home/umrob/M2/ros-2-planar-robot-p-3/install/ros2_planar_robot/share/ros2_planar_robot/package.zsh'
[13.697s] Level 1:colcon.colcon_core.environment:create_file_with_runtime_dependencies(/home/umrob/M2/ros-2-planar-robot-p-3/install/ros2_planar_robot/share/colcon-core/packages/ros2_planar_robot)
[13.828s] Level 1:colcon.colcon_core.environment:create_environment_scripts_only(ros2_planar_robot)
[13.841s] Level 1:colcon.colcon_core.environment:checking '/home/umrob/M2/ros-2-planar-robot-p-3/install/ros2_planar_robot' for CMake module files
[13.842s] Level 1:colcon.colcon_core.environment:checking '/home/umrob/M2/ros-2-planar-robot-p-3/install/ros2_planar_robot' for CMake config files
[13.842s] Level 1:colcon.colcon_core.shell:create_environment_hook('ros2_planar_robot', 'cmake_prefix_path')
[13.856s] INFO:colcon.colcon_core.shell:Creating environment hook '/home/umrob/M2/ros-2-planar-robot-p-3/install/ros2_planar_robot/share/ros2_planar_robot/hook/cmake_prefix_path.ps1'
[13.856s] INFO:colcon.colcon_core.shell:Creating environment descriptor '/home/umrob/M2/ros-2-planar-robot-p-3/install/ros2_planar_robot/share/ros2_planar_robot/hook/cmake_prefix_path.dsv'
[13.857s] INFO:colcon.colcon_core.shell:Creating environment hook '/home/umrob/M2/ros-2-planar-robot-p-3/install/ros2_planar_robot/share/ros2_planar_robot/hook/cmake_prefix_path.sh'
[13.857s] Level 1:colcon.colcon_core.environment:checking '/home/umrob/M2/ros-2-planar-robot-p-3/install/ros2_planar_robot/lib'
[13.857s] Level 1:colcon.colcon_core.shell:create_environment_hook('ros2_planar_robot', 'ld_library_path_lib')
[13.881s] INFO:colcon.colcon_core.shell:Creating environment hook '/home/umrob/M2/ros-2-planar-robot-p-3/install/ros2_planar_robot/share/ros2_planar_robot/hook/ld_library_path_lib.ps1'
[13.882s] INFO:colcon.colcon_core.shell:Creating environment descriptor '/home/umrob/M2/ros-2-planar-robot-p-3/install/ros2_planar_robot/share/ros2_planar_robot/hook/ld_library_path_lib.dsv'
[13.882s] INFO:colcon.colcon_core.shell:Creating environment hook '/home/umrob/M2/ros-2-planar-robot-p-3/install/ros2_planar_robot/share/ros2_planar_robot/hook/ld_library_path_lib.sh'
[13.883s] Level 1:colcon.colcon_core.environment:checking '/home/umrob/M2/ros-2-planar-robot-p-3/install/ros2_planar_robot/bin'
[13.883s] Level 1:colcon.colcon_core.environment:checking '/home/umrob/M2/ros-2-planar-robot-p-3/install/ros2_planar_robot/lib/pkgconfig/ros2_planar_robot.pc'
[13.883s] Level 1:colcon.colcon_core.environment:checking '/home/umrob/M2/ros-2-planar-robot-p-3/install/ros2_planar_robot/lib/python3.10/site-packages'
[13.884s] Level 1:colcon.colcon_core.environment:checking '/home/umrob/M2/ros-2-planar-robot-p-3/install/ros2_planar_robot/bin'
[13.898s] INFO:colcon.colcon_core.shell:Creating package script '/home/umrob/M2/ros-2-planar-robot-p-3/install/ros2_planar_robot/share/ros2_planar_robot/package.ps1'
[13.898s] INFO:colcon.colcon_core.shell:Creating package descriptor '/home/umrob/M2/ros-2-planar-robot-p-3/install/ros2_planar_robot/share/ros2_planar_robot/package.dsv'
[13.899s] INFO:colcon.colcon_core.shell:Creating package script '/home/umrob/M2/ros-2-planar-robot-p-3/install/ros2_planar_robot/share/ros2_planar_robot/package.sh'
[13.899s] INFO:colcon.colcon_core.shell:Creating package script '/home/umrob/M2/ros-2-planar-robot-p-3/install/ros2_planar_robot/share/ros2_planar_robot/package.bash'
[13.900s] INFO:colcon.colcon_core.shell:Creating package script '/home/umrob/M2/ros-2-planar-robot-p-3/install/ros2_planar_robot/share/ros2_planar_robot/package.zsh'
[13.900s] Level 1:colcon.colcon_core.environment:create_file_with_runtime_dependencies(/home/umrob/M2/ros-2-planar-robot-p-3/install/ros2_planar_robot/share/colcon-core/packages/ros2_planar_robot)
[13.901s] DEBUG:colcon.colcon_parallel_executor.executor.parallel:closing loop
[13.901s] DEBUG:colcon.colcon_parallel_executor.executor.parallel:loop closed
[13.901s] DEBUG:colcon.colcon_parallel_executor.executor.parallel:run_until_complete finished with '0'
[13.901s] DEBUG:colcon.colcon_core.event_reactor:joining thread
[13.919s] INFO:colcon.colcon_core.plugin_system:Skipping extension 'colcon_notification.desktop_notification.terminal_notifier': Not used on non-Darwin systems
[13.920s] INFO:colcon.colcon_core.plugin_system:Skipping extension 'colcon_notification.desktop_notification.win32': Not used on non-Windows systems
[13.920s] INFO:colcon.colcon_notification.desktop_notification:Sending desktop notification using 'notify2'
[13.931s] DEBUG:colcon.colcon_core.event_reactor:joined thread
[13.947s] INFO:colcon.colcon_core.shell:Creating prefix script '/home/umrob/M2/ros-2-planar-robot-p-3/install/local_setup.ps1'
[13.948s] INFO:colcon.colcon_core.shell:Creating prefix util module '/home/umrob/M2/ros-2-planar-robot-p-3/install/_local_setup_util_ps1.py'
[13.949s] INFO:colcon.colcon_core.shell:Creating prefix chain script '/home/umrob/M2/ros-2-planar-robot-p-3/install/setup.ps1'
[13.965s] INFO:colcon.colcon_core.shell:Creating prefix script '/home/umrob/M2/ros-2-planar-robot-p-3/install/local_setup.sh'
[13.966s] INFO:colcon.colcon_core.shell:Creating prefix util module '/home/umrob/M2/ros-2-planar-robot-p-3/install/_local_setup_util_sh.py'
[13.966s] INFO:colcon.colcon_core.shell:Creating prefix chain script '/home/umrob/M2/ros-2-planar-robot-p-3/install/setup.sh'
[13.983s] INFO:colcon.colcon_core.shell:Creating prefix script '/home/umrob/M2/ros-2-planar-robot-p-3/install/local_setup.bash'
[13.983s] INFO:colcon.colcon_core.shell:Creating prefix chain script '/home/umrob/M2/ros-2-planar-robot-p-3/install/setup.bash'
[13.998s] INFO:colcon.colcon_core.shell:Creating prefix script '/home/umrob/M2/ros-2-planar-robot-p-3/install/local_setup.zsh'
[13.998s] INFO:colcon.colcon_core.shell:Creating prefix chain script '/home/umrob/M2/ros-2-planar-robot-p-3/install/setup.zsh'
