[0.000000] (-) TimerEvent: {}
[0.000113] (ros2_planar_robot) JobQueued: {'identifier': 'ros2_planar_robot', 'dependencies': OrderedDict()}
[0.000245] (ros2_planar_robot) JobStarted: {'identifier': 'ros2_planar_robot'}
[0.059795] (ros2_planar_robot) JobProgress: {'identifier': 'ros2_planar_robot', 'progress': 'cmake'}
[0.061324] (ros2_planar_robot) JobProgress: {'identifier': 'ros2_planar_robot', 'progress': 'build'}
[0.061442] (ros2_planar_robot) Command: {'cmd': ['/usr/bin/cmake', '--build', '/home/umrob/M2/ros-2-planar-robot-p-3/build/ros2_planar_robot', '--', '-j8', '-l8'], 'cwd': '/home/umrob/M2/ros-2-planar-robot-p-3/build/ros2_planar_robot', 'env': OrderedDict([('GJS_DEBUG_TOPICS', 'JS ERROR;JS LOG'), ('LESSOPEN', '| /usr/bin/lesspipe %s'), ('CONDA_PROMPT_MODIFIER', '(base)'), ('LANGUAGE', 'fr_FR:en'), ('USER', 'umrob'), ('LC_TIME', 'en_US.UTF-8'), ('CONDA_MKL_INTERFACE_LAYER_BACKUP', ''), ('XDG_SESSION_TYPE', 'x11'), ('SHLVL', '1'), ('LD_LIBRARY_PATH', '/home/umrob/M2/ros-2-planar-robot-p-3/install/ros2_planar_robot/lib:/opt/ros/humble/opt/rviz_ogre_vendor/lib:/opt/ros/humble/lib/x86_64-linux-gnu:/opt/ros/humble/lib'), ('HOME', '/home/umrob'), ('CONDA_SHLVL', '1'), ('OLDPWD', '/home/umrob'), ('DESKTOP_SESSION', 'ubuntu'), ('GIO_LAUNCHED_DESKTOP_FILE', '/usr/share/applications/terminator.desktop'), ('ROS_PYTHON_VERSION', '3'), ('GNOME_SHELL_SESSION_MODE', 'ubuntu'), ('GTK_MODULES', 'gail:atk-bridge'), ('LC_MONETARY', 'en_US.UTF-8'), ('MANAGERPID', '2599'), ('SYSTEMD_EXEC_PID', '2972'), ('DBUS_SESSION_BUS_ADDRESS', 'unix:path=/run/user/1000/bus'), ('COLORTERM', 'truecolor'), ('_CE_M', ''), ('TERMINATOR_DBUS_NAME', 'net.tenshu.Terminator23558193cd9818af7fe4d2c2f5bd9d00f'), ('GIO_LAUNCHED_DESKTOP_FILE_PID', '4611'), ('IM_CONFIG_PHASE', '1'), ('COLCON_PREFIX_PATH', '/home/umrob/M2/ros-2-planar-robot-p-3/install'), ('ROS_DISTRO', 'humble'), ('GTK_IM_MODULE', 'ibus'), ('LOGNAME', 'umrob'), ('JOURNAL_STREAM', '8:32732'), ('_', '/usr/bin/colcon'), ('ROS_VERSION', '2'), ('XDG_SESSION_CLASS', 'user'), ('USERNAME', 'umrob'), ('TERM', 'xterm-256color'), ('GNOME_DESKTOP_SESSION_ID', 'this-is-deprecated'), ('_CE_CONDA', ''), ('ROS_LOCALHOST_ONLY', '1'), ('WINDOWPATH', '2'), ('PATH', '/opt/ros/humble/bin:/home/umrob/anaconda3/bin:/home/umrob/anaconda3/condabin:/home/umrob/.local/bin:/home/umrob/bin:/usr/local/sbin:/usr/local/bin:/usr/sbin:/usr/bin:/sbin:/bin:/usr/games:/usr/local/games:/snap/bin:/snap/bin:~/julia-1.9.3/bin'), ('SESSION_MANAGER', 'local/umrob-Latitude-5510:@/tmp/.ICE-unix/2950,unix/umrob-Latitude-5510:/tmp/.ICE-unix/2950'), ('INVOCATION_ID', 'fbdfaa3d9368401e9756ebf7f140ee92'), ('PAPERSIZE', 'letter'), ('GTK3_MODULES', 'xapp-gtk3-module'), ('XDG_MENU_PREFIX', 'gnome-'), ('LC_ADDRESS', 'en_US.UTF-8'), ('XDG_RUNTIME_DIR', '/run/user/1000'), ('DISPLAY', ':1'), ('TERMINATOR_DBUS_PATH', '/net/tenshu/Terminator2'), ('LANG', 'fr_FR.UTF-8'), ('XDG_CURRENT_DESKTOP', 'ubuntu:GNOME'), ('IBUS_DISABLE_SNOOPER', '1'), ('LC_TELEPHONE', 'en_US.UTF-8'), ('XMODIFIERS', '@im=ibus'), ('XDG_SESSION_DESKTOP', 'ubuntu'), ('XAUTHORITY', '/run/user/1000/gdm/Xauthority'), ('LS_COLORS', 'rs=0:di=01;34:ln=01;36:mh=00:pi=40;33:so=01;35:do=01;35:bd=40;33;01:cd=40;33;01:or=40;31;01:mi=00:su=37;41:sg=30;43:ca=30;41:tw=30;42:ow=34;42:st=37;44:ex=01;32:*.tar=01;31:*.tgz=01;31:*.arc=01;31:*.arj=01;31:*.taz=01;31:*.lha=01;31:*.lz4=01;31:*.lzh=01;31:*.lzma=01;31:*.tlz=01;31:*.txz=01;31:*.tzo=01;31:*.t7z=01;31:*.zip=01;31:*.z=01;31:*.dz=01;31:*.gz=01;31:*.lrz=01;31:*.lz=01;31:*.lzo=01;31:*.xz=01;31:*.zst=01;31:*.tzst=01;31:*.bz2=01;31:*.bz=01;31:*.tbz=01;31:*.tbz2=01;31:*.tz=01;31:*.deb=01;31:*.rpm=01;31:*.jar=01;31:*.war=01;31:*.ear=01;31:*.sar=01;31:*.rar=01;31:*.alz=01;31:*.ace=01;31:*.zoo=01;31:*.cpio=01;31:*.7z=01;31:*.rz=01;31:*.cab=01;31:*.wim=01;31:*.swm=01;31:*.dwm=01;31:*.esd=01;31:*.jpg=01;35:*.jpeg=01;35:*.mjpg=01;35:*.mjpeg=01;35:*.gif=01;35:*.bmp=01;35:*.pbm=01;35:*.pgm=01;35:*.ppm=01;35:*.tga=01;35:*.xbm=01;35:*.xpm=01;35:*.tif=01;35:*.tiff=01;35:*.png=01;35:*.svg=01;35:*.svgz=01;35:*.mng=01;35:*.pcx=01;35:*.mov=01;35:*.mpg=01;35:*.mpeg=01;35:*.m2v=01;35:*.mkv=01;35:*.webm=01;35:*.webp=01;35:*.ogm=01;35:*.mp4=01;35:*.m4v=01;35:*.mp4v=01;35:*.vob=01;35:*.qt=01;35:*.nuv=01;35:*.wmv=01;35:*.asf=01;35:*.rm=01;35:*.rmvb=01;35:*.flc=01;35:*.avi=01;35:*.fli=01;35:*.flv=01;35:*.gl=01;35:*.dl=01;35:*.xcf=01;35:*.xwd=01;35:*.yuv=01;35:*.cgm=01;35:*.emf=01;35:*.ogv=01;35:*.ogx=01;35:*.aac=00;36:*.au=00;36:*.flac=00;36:*.m4a=00;36:*.mid=00;36:*.midi=00;36:*.mka=00;36:*.mp3=00;36:*.mpc=00;36:*.ogg=00;36:*.ra=00;36:*.wav=00;36:*.oga=00;36:*.opus=00;36:*.spx=00;36:*.xspf=00;36:'), ('SSH_AGENT_LAUNCHER', 'gnome-keyring'), ('SSH_AUTH_SOCK', '/run/user/1000/keyring/ssh'), ('AMENT_PREFIX_PATH', '/home/umrob/M2/ros-2-planar-robot-p-3/install/ros2_planar_robot:/opt/ros/humble'), ('CONDA_PYTHON_EXE', '/home/umrob/anaconda3/bin/python'), ('SHELL', '/bin/bash'), ('LC_NAME', 'en_US.UTF-8'), ('TERMINATOR_UUID', 'urn:uuid:bf5bf6b9-e0d4-437e-8bf0-85d2a361dfaa'), ('QT_ACCESSIBILITY', '1'), ('GDMSESSION', 'ubuntu'), ('LESSCLOSE', '/usr/bin/lesspipe %s %s'), ('CONDA_DEFAULT_ENV', 'base'), ('LC_MEASUREMENT', 'en_US.UTF-8'), ('GPG_AGENT_INFO', '/run/user/1000/gnupg/S.gpg-agent:0:1'), ('GJS_DEBUG_OUTPUT', 'stderr'), ('LC_IDENTIFICATION', 'en_US.UTF-8'), ('QT_IM_MODULE', 'ibus'), ('PWD', '/home/umrob/M2/ros-2-planar-robot-p-3/build/ros2_planar_robot'), ('LC_ALL', 'en_US.UTF-8'), ('XDG_CONFIG_DIRS', '/etc/xdg/xdg-ubuntu:/etc/xdg'), ('CONDA_EXE', '/home/umrob/anaconda3/bin/conda'), ('XDG_DATA_DIRS', '/usr/share/ubuntu:/usr/share/gnome:/usr/local/share/:/usr/share/:/var/lib/snapd/desktop'), ('PYTHONPATH', '/home/umrob/M2/ros-2-planar-robot-p-3/install/ros2_planar_robot/local/lib/python3.10/dist-packages:/opt/ros/humble/lib/python3.10/site-packages:/opt/ros/humble/local/lib/python3.10/dist-packages'), ('LC_NUMERIC', 'en_US.UTF-8'), ('CONDA_PREFIX', '/home/umrob/anaconda3'), ('LC_PAPER', 'en_US.UTF-8'), ('MKL_INTERFACE_LAYER', 'LP64,GNU'), ('COLCON', '1'), ('VTE_VERSION', '6800'), ('CMAKE_PREFIX_PATH', '/home/umrob/M2/ros-2-planar-robot-p-3/install/ros2_planar_robot:/opt/ros/humble')]), 'shell': False}
[0.099334] (-) TimerEvent: {}
[0.111898] (ros2_planar_robot) StdoutLine: {'line': b'[  9%] Built target ros2_planar_robot__rosidl_generator_c\n'}
[0.112161] (ros2_planar_robot) StdoutLine: {'line': b'[ 11%] Built target trajectory_generation_lib\n'}
[0.112296] (ros2_planar_robot) StdoutLine: {'line': b'[ 12%] Built target ros2_planar_robot__cpp\n'}
[0.118434] (ros2_planar_robot) StdoutLine: {'line': b'[ 15%] Built target kinematic_model_lib\n'}
[0.128782] (ros2_planar_robot) StdoutLine: {'line': b'[ 15%] Built target ament_cmake_python_symlink_ros2_planar_robot\n'}
[0.143091] (ros2_planar_robot) StdoutLine: {'line': b'[ 27%] Built target ros2_planar_robot__rosidl_typesupport_c\n'}
[0.145323] (ros2_planar_robot) StdoutLine: {'line': b'[ 34%] Built target ros2_planar_robot__rosidl_typesupport_introspection_c\n'}
[0.145834] (ros2_planar_robot) StdoutLine: {'line': b'[ 43%] Built target ros2_planar_robot__rosidl_typesupport_fastrtps_c\n'}
[0.148172] (ros2_planar_robot) StdoutLine: {'line': b'[ 52%] Built target ros2_planar_robot__rosidl_typesupport_introspection_cpp\n'}
[0.150919] (ros2_planar_robot) StdoutLine: {'line': b'[ 55%] Built target control_lib\n'}
[0.151729] (ros2_planar_robot) StdoutLine: {'line': b'[ 64%] Built target ros2_planar_robot__rosidl_typesupport_fastrtps_cpp\n'}
[0.155057] (ros2_planar_robot) StdoutLine: {'line': b'[ 74%] Built target ros2_planar_robot__rosidl_typesupport_cpp\n'}
[0.172887] (ros2_planar_robot) StdoutLine: {'line': b'\x1b[35m\x1b[1mConsolidate compiler generated dependencies of target controller\x1b[0m\n'}
[0.180275] (ros2_planar_robot) StdoutLine: {'line': b'[ 74%] Built target ros2_planar_robot\n'}
[0.189201] (ros2_planar_robot) StdoutLine: {'line': b'[ 78%] Built target high_lev_mng\n'}
[0.189461] (ros2_planar_robot) StdoutLine: {'line': b'[ 78%] Built target kinematic_modeller\n'}
[0.191712] (ros2_planar_robot) StdoutLine: {'line': b'[ 81%] Built target trajectory_generator\n'}
[0.196890] (ros2_planar_robot) StdoutLine: {'line': b'[ 82%] \x1b[32mBuilding CXX object CMakeFiles/controller.dir/src/controller.cpp.o\x1b[0m\n'}
[0.199156] (ros2_planar_robot) StdoutLine: {'line': b'[ 83%] Built target ros2_planar_robot__py\n'}
[0.199360] (-) TimerEvent: {}
[0.220640] (ros2_planar_robot) StdoutLine: {'line': b'[ 91%] Built target ros2_planar_robot__rosidl_generator_py\n'}
[0.241771] (ros2_planar_robot) StdoutLine: {'line': b'[ 94%] Built target ros2_planar_robot__rosidl_typesupport_fastrtps_c__pyext\n'}
[0.242048] (ros2_planar_robot) StdoutLine: {'line': b'[ 96%] Built target ros2_planar_robot__rosidl_typesupport_c__pyext\n'}
[0.249345] (ros2_planar_robot) StdoutLine: {'line': b'[ 98%] Built target ros2_planar_robot__rosidl_typesupport_introspection_c__pyext\n'}
[0.299481] (-) TimerEvent: {}
[0.399622] (ros2_planar_robot) StdoutLine: {'line': b'running egg_info\n'}
[0.399827] (-) TimerEvent: {}
[0.400289] (ros2_planar_robot) StdoutLine: {'line': b'writing ros2_planar_robot.egg-info/PKG-INFO\n'}
[0.400501] (ros2_planar_robot) StdoutLine: {'line': b'writing dependency_links to ros2_planar_robot.egg-info/dependency_links.txt\n'}
[0.400639] (ros2_planar_robot) StdoutLine: {'line': b'writing top-level names to ros2_planar_robot.egg-info/top_level.txt\n'}
[0.402672] (ros2_planar_robot) StdoutLine: {'line': b"reading manifest file 'ros2_planar_robot.egg-info/SOURCES.txt'\n"}
[0.403227] (ros2_planar_robot) StdoutLine: {'line': b"writing manifest file 'ros2_planar_robot.egg-info/SOURCES.txt'\n"}
[0.430173] (ros2_planar_robot) StdoutLine: {'line': b'[ 98%] Built target ament_cmake_python_build_ros2_planar_robot_egg\n'}
[0.499980] (-) TimerEvent: {}
[0.600313] (-) TimerEvent: {}
[0.700634] (-) TimerEvent: {}
[0.800958] (-) TimerEvent: {}
[0.901334] (-) TimerEvent: {}
[1.001743] (-) TimerEvent: {}
[1.102072] (-) TimerEvent: {}
[1.202416] (-) TimerEvent: {}
[1.302752] (-) TimerEvent: {}
[1.403110] (-) TimerEvent: {}
[1.503462] (-) TimerEvent: {}
[1.603798] (-) TimerEvent: {}
[1.704152] (-) TimerEvent: {}
[1.804504] (-) TimerEvent: {}
[1.904837] (-) TimerEvent: {}
[2.005177] (-) TimerEvent: {}
[2.105575] (-) TimerEvent: {}
[2.205967] (-) TimerEvent: {}
[2.306323] (-) TimerEvent: {}
[2.406663] (-) TimerEvent: {}
[2.507015] (-) TimerEvent: {}
[2.607357] (-) TimerEvent: {}
[2.707703] (-) TimerEvent: {}
[2.808030] (-) TimerEvent: {}
[2.908375] (-) TimerEvent: {}
[3.008744] (-) TimerEvent: {}
[3.109196] (-) TimerEvent: {}
[3.209559] (-) TimerEvent: {}
[3.218537] (ros2_planar_robot) StderrLine: {'line': b'\x1b[01m\x1b[K/home/umrob/M2/ros-2-planar-robot-p-3/src/controller.cpp:\x1b[m\x1b[K In member function \xe2\x80\x98\x1b[01m\x1b[Kvoid ControlNode::kin_callback(ros2_planar_robot::msg::KinData_<std::allocator<void> >::SharedPtr)\x1b[m\x1b[K\xe2\x80\x99:\n'}
[3.218778] (ros2_planar_robot) StderrLine: {'line': b'\x1b[01m\x1b[K/home/umrob/M2/ros-2-planar-robot-p-3/src/controller.cpp:42:13:\x1b[m\x1b[K \x1b[01;35m\x1b[Kwarning: \x1b[m\x1b[Kstatement has no effect [\x1b[01;35m\x1b[K\x1b]8;;https://gcc.gnu.org/onlinedocs/gcc/Warning-Options.html#index-Wunused-value\x07-Wunused-value\x1b]8;;\x07\x1b[m\x1b[K]\n'}
[3.218899] (ros2_planar_robot) StderrLine: {'line': b'   42 |     \x1b[01;35m\x1b[Krunning_==true\x1b[m\x1b[K;\n'}
[3.218999] (ros2_planar_robot) StderrLine: {'line': b'      |     \x1b[01;35m\x1b[K~~~~~~~~^~~~~~\x1b[m\x1b[K\n'}
[3.309710] (-) TimerEvent: {}
[3.410035] (-) TimerEvent: {}
[3.510378] (-) TimerEvent: {}
[3.610719] (-) TimerEvent: {}
[3.711051] (-) TimerEvent: {}
[3.811396] (-) TimerEvent: {}
[3.911751] (-) TimerEvent: {}
[4.012096] (-) TimerEvent: {}
[4.112437] (-) TimerEvent: {}
[4.212788] (-) TimerEvent: {}
[4.313102] (-) TimerEvent: {}
[4.413448] (-) TimerEvent: {}
[4.513787] (-) TimerEvent: {}
[4.614170] (-) TimerEvent: {}
[4.714559] (-) TimerEvent: {}
[4.814956] (-) TimerEvent: {}
[4.915339] (-) TimerEvent: {}
[5.015763] (-) TimerEvent: {}
[5.116139] (-) TimerEvent: {}
[5.216503] (-) TimerEvent: {}
[5.316857] (-) TimerEvent: {}
[5.417201] (-) TimerEvent: {}
[5.517539] (-) TimerEvent: {}
[5.617898] (-) TimerEvent: {}
[5.718257] (-) TimerEvent: {}
[5.818607] (-) TimerEvent: {}
[5.918970] (-) TimerEvent: {}
[6.019352] (-) TimerEvent: {}
[6.119732] (-) TimerEvent: {}
[6.220079] (-) TimerEvent: {}
[6.320434] (-) TimerEvent: {}
[6.420777] (-) TimerEvent: {}
[6.521092] (-) TimerEvent: {}
[6.621464] (-) TimerEvent: {}
[6.721841] (-) TimerEvent: {}
[6.822218] (-) TimerEvent: {}
[6.922573] (-) TimerEvent: {}
[7.022953] (-) TimerEvent: {}
[7.123286] (-) TimerEvent: {}
[7.223643] (-) TimerEvent: {}
[7.324025] (-) TimerEvent: {}
[7.424370] (-) TimerEvent: {}
[7.524640] (-) TimerEvent: {}
[7.624978] (-) TimerEvent: {}
[7.725308] (-) TimerEvent: {}
[7.825619] (-) TimerEvent: {}
[7.925884] (-) TimerEvent: {}
[8.026224] (-) TimerEvent: {}
[8.126551] (-) TimerEvent: {}
[8.226882] (-) TimerEvent: {}
[8.327228] (-) TimerEvent: {}
[8.427553] (-) TimerEvent: {}
[8.527856] (-) TimerEvent: {}
[8.628203] (-) TimerEvent: {}
[8.728543] (-) TimerEvent: {}
[8.828884] (-) TimerEvent: {}
[8.929217] (-) TimerEvent: {}
[9.029554] (-) TimerEvent: {}
[9.129929] (-) TimerEvent: {}
[9.230262] (-) TimerEvent: {}
[9.330593] (-) TimerEvent: {}
[9.430924] (-) TimerEvent: {}
[9.531258] (-) TimerEvent: {}
[9.631590] (-) TimerEvent: {}
[9.731960] (-) TimerEvent: {}
[9.832297] (-) TimerEvent: {}
[9.932641] (-) TimerEvent: {}
[10.032966] (-) TimerEvent: {}
[10.133310] (-) TimerEvent: {}
[10.233635] (-) TimerEvent: {}
[10.334026] (-) TimerEvent: {}
[10.434327] (-) TimerEvent: {}
[10.534658] (-) TimerEvent: {}
[10.634966] (-) TimerEvent: {}
[10.735238] (-) TimerEvent: {}
[10.835563] (-) TimerEvent: {}
[10.935886] (-) TimerEvent: {}
[11.036201] (-) TimerEvent: {}
[11.136590] (-) TimerEvent: {}
[11.236954] (-) TimerEvent: {}
[11.337366] (-) TimerEvent: {}
[11.437727] (-) TimerEvent: {}
[11.538038] (-) TimerEvent: {}
[11.638416] (-) TimerEvent: {}
[11.738759] (-) TimerEvent: {}
[11.839092] (-) TimerEvent: {}
[11.845466] (ros2_planar_robot) StdoutLine: {'line': b'[100%] \x1b[32m\x1b[1mLinking CXX executable controller\x1b[0m\n'}
[11.939221] (-) TimerEvent: {}
[12.039525] (-) TimerEvent: {}
[12.139850] (-) TimerEvent: {}
[12.240193] (-) TimerEvent: {}
[12.340504] (-) TimerEvent: {}
[12.426037] (ros2_planar_robot) StdoutLine: {'line': b'[100%] Built target controller\n'}
[12.437278] (ros2_planar_robot) CommandEnded: {'returncode': 0}
[12.440576] (-) TimerEvent: {}
[12.540857] (-) TimerEvent: {}
[12.561695] (ros2_planar_robot) JobProgress: {'identifier': 'ros2_planar_robot', 'progress': 'install'}
[12.570677] (ros2_planar_robot) Command: {'cmd': ['/usr/bin/cmake', '--install', '/home/umrob/M2/ros-2-planar-robot-p-3/build/ros2_planar_robot'], 'cwd': '/home/umrob/M2/ros-2-planar-robot-p-3/build/ros2_planar_robot', 'env': OrderedDict([('GJS_DEBUG_TOPICS', 'JS ERROR;JS LOG'), ('LESSOPEN', '| /usr/bin/lesspipe %s'), ('CONDA_PROMPT_MODIFIER', '(base)'), ('LANGUAGE', 'fr_FR:en'), ('USER', 'umrob'), ('LC_TIME', 'en_US.UTF-8'), ('CONDA_MKL_INTERFACE_LAYER_BACKUP', ''), ('XDG_SESSION_TYPE', 'x11'), ('SHLVL', '1'), ('LD_LIBRARY_PATH', '/home/umrob/M2/ros-2-planar-robot-p-3/install/ros2_planar_robot/lib:/opt/ros/humble/opt/rviz_ogre_vendor/lib:/opt/ros/humble/lib/x86_64-linux-gnu:/opt/ros/humble/lib'), ('HOME', '/home/umrob'), ('CONDA_SHLVL', '1'), ('OLDPWD', '/home/umrob'), ('DESKTOP_SESSION', 'ubuntu'), ('GIO_LAUNCHED_DESKTOP_FILE', '/usr/share/applications/terminator.desktop'), ('ROS_PYTHON_VERSION', '3'), ('GNOME_SHELL_SESSION_MODE', 'ubuntu'), ('GTK_MODULES', 'gail:atk-bridge'), ('LC_MONETARY', 'en_US.UTF-8'), ('MANAGERPID', '2599'), ('SYSTEMD_EXEC_PID', '2972'), ('DBUS_SESSION_BUS_ADDRESS', 'unix:path=/run/user/1000/bus'), ('COLORTERM', 'truecolor'), ('_CE_M', ''), ('TERMINATOR_DBUS_NAME', 'net.tenshu.Terminator23558193cd9818af7fe4d2c2f5bd9d00f'), ('GIO_LAUNCHED_DESKTOP_FILE_PID', '4611'), ('IM_CONFIG_PHASE', '1'), ('COLCON_PREFIX_PATH', '/home/umrob/M2/ros-2-planar-robot-p-3/install'), ('ROS_DISTRO', 'humble'), ('GTK_IM_MODULE', 'ibus'), ('LOGNAME', 'umrob'), ('JOURNAL_STREAM', '8:32732'), ('_', '/usr/bin/colcon'), ('ROS_VERSION', '2'), ('XDG_SESSION_CLASS', 'user'), ('USERNAME', 'umrob'), ('TERM', 'xterm-256color'), ('GNOME_DESKTOP_SESSION_ID', 'this-is-deprecated'), ('_CE_CONDA', ''), ('ROS_LOCALHOST_ONLY', '1'), ('WINDOWPATH', '2'), ('PATH', '/opt/ros/humble/bin:/home/umrob/anaconda3/bin:/home/umrob/anaconda3/condabin:/home/umrob/.local/bin:/home/umrob/bin:/usr/local/sbin:/usr/local/bin:/usr/sbin:/usr/bin:/sbin:/bin:/usr/games:/usr/local/games:/snap/bin:/snap/bin:~/julia-1.9.3/bin'), ('SESSION_MANAGER', 'local/umrob-Latitude-5510:@/tmp/.ICE-unix/2950,unix/umrob-Latitude-5510:/tmp/.ICE-unix/2950'), ('INVOCATION_ID', 'fbdfaa3d9368401e9756ebf7f140ee92'), ('PAPERSIZE', 'letter'), ('GTK3_MODULES', 'xapp-gtk3-module'), ('XDG_MENU_PREFIX', 'gnome-'), ('LC_ADDRESS', 'en_US.UTF-8'), ('XDG_RUNTIME_DIR', '/run/user/1000'), ('DISPLAY', ':1'), ('TERMINATOR_DBUS_PATH', '/net/tenshu/Terminator2'), ('LANG', 'fr_FR.UTF-8'), ('XDG_CURRENT_DESKTOP', 'ubuntu:GNOME'), ('IBUS_DISABLE_SNOOPER', '1'), ('LC_TELEPHONE', 'en_US.UTF-8'), ('XMODIFIERS', '@im=ibus'), ('XDG_SESSION_DESKTOP', 'ubuntu'), ('XAUTHORITY', '/run/user/1000/gdm/Xauthority'), ('LS_COLORS', 'rs=0:di=01;34:ln=01;36:mh=00:pi=40;33:so=01;35:do=01;35:bd=40;33;01:cd=40;33;01:or=40;31;01:mi=00:su=37;41:sg=30;43:ca=30;41:tw=30;42:ow=34;42:st=37;44:ex=01;32:*.tar=01;31:*.tgz=01;31:*.arc=01;31:*.arj=01;31:*.taz=01;31:*.lha=01;31:*.lz4=01;31:*.lzh=01;31:*.lzma=01;31:*.tlz=01;31:*.txz=01;31:*.tzo=01;31:*.t7z=01;31:*.zip=01;31:*.z=01;31:*.dz=01;31:*.gz=01;31:*.lrz=01;31:*.lz=01;31:*.lzo=01;31:*.xz=01;31:*.zst=01;31:*.tzst=01;31:*.bz2=01;31:*.bz=01;31:*.tbz=01;31:*.tbz2=01;31:*.tz=01;31:*.deb=01;31:*.rpm=01;31:*.jar=01;31:*.war=01;31:*.ear=01;31:*.sar=01;31:*.rar=01;31:*.alz=01;31:*.ace=01;31:*.zoo=01;31:*.cpio=01;31:*.7z=01;31:*.rz=01;31:*.cab=01;31:*.wim=01;31:*.swm=01;31:*.dwm=01;31:*.esd=01;31:*.jpg=01;35:*.jpeg=01;35:*.mjpg=01;35:*.mjpeg=01;35:*.gif=01;35:*.bmp=01;35:*.pbm=01;35:*.pgm=01;35:*.ppm=01;35:*.tga=01;35:*.xbm=01;35:*.xpm=01;35:*.tif=01;35:*.tiff=01;35:*.png=01;35:*.svg=01;35:*.svgz=01;35:*.mng=01;35:*.pcx=01;35:*.mov=01;35:*.mpg=01;35:*.mpeg=01;35:*.m2v=01;35:*.mkv=01;35:*.webm=01;35:*.webp=01;35:*.ogm=01;35:*.mp4=01;35:*.m4v=01;35:*.mp4v=01;35:*.vob=01;35:*.qt=01;35:*.nuv=01;35:*.wmv=01;35:*.asf=01;35:*.rm=01;35:*.rmvb=01;35:*.flc=01;35:*.avi=01;35:*.fli=01;35:*.flv=01;35:*.gl=01;35:*.dl=01;35:*.xcf=01;35:*.xwd=01;35:*.yuv=01;35:*.cgm=01;35:*.emf=01;35:*.ogv=01;35:*.ogx=01;35:*.aac=00;36:*.au=00;36:*.flac=00;36:*.m4a=00;36:*.mid=00;36:*.midi=00;36:*.mka=00;36:*.mp3=00;36:*.mpc=00;36:*.ogg=00;36:*.ra=00;36:*.wav=00;36:*.oga=00;36:*.opus=00;36:*.spx=00;36:*.xspf=00;36:'), ('SSH_AGENT_LAUNCHER', 'gnome-keyring'), ('SSH_AUTH_SOCK', '/run/user/1000/keyring/ssh'), ('AMENT_PREFIX_PATH', '/home/umrob/M2/ros-2-planar-robot-p-3/install/ros2_planar_robot:/opt/ros/humble'), ('CONDA_PYTHON_EXE', '/home/umrob/anaconda3/bin/python'), ('SHELL', '/bin/bash'), ('LC_NAME', 'en_US.UTF-8'), ('TERMINATOR_UUID', 'urn:uuid:bf5bf6b9-e0d4-437e-8bf0-85d2a361dfaa'), ('QT_ACCESSIBILITY', '1'), ('GDMSESSION', 'ubuntu'), ('LESSCLOSE', '/usr/bin/lesspipe %s %s'), ('CONDA_DEFAULT_ENV', 'base'), ('LC_MEASUREMENT', 'en_US.UTF-8'), ('GPG_AGENT_INFO', '/run/user/1000/gnupg/S.gpg-agent:0:1'), ('GJS_DEBUG_OUTPUT', 'stderr'), ('LC_IDENTIFICATION', 'en_US.UTF-8'), ('QT_IM_MODULE', 'ibus'), ('PWD', '/home/umrob/M2/ros-2-planar-robot-p-3/build/ros2_planar_robot'), ('LC_ALL', 'en_US.UTF-8'), ('XDG_CONFIG_DIRS', '/etc/xdg/xdg-ubuntu:/etc/xdg'), ('CONDA_EXE', '/home/umrob/anaconda3/bin/conda'), ('XDG_DATA_DIRS', '/usr/share/ubuntu:/usr/share/gnome:/usr/local/share/:/usr/share/:/var/lib/snapd/desktop'), ('PYTHONPATH', '/home/umrob/M2/ros-2-planar-robot-p-3/install/ros2_planar_robot/local/lib/python3.10/dist-packages:/opt/ros/humble/lib/python3.10/site-packages:/opt/ros/humble/local/lib/python3.10/dist-packages'), ('LC_NUMERIC', 'en_US.UTF-8'), ('CONDA_PREFIX', '/home/umrob/anaconda3'), ('LC_PAPER', 'en_US.UTF-8'), ('MKL_INTERFACE_LAYER', 'LP64,GNU'), ('COLCON', '1'), ('VTE_VERSION', '6800'), ('CMAKE_PREFIX_PATH', '/home/umrob/M2/ros-2-planar-robot-p-3/install/ros2_planar_robot:/opt/ros/humble')]), 'shell': False}
[12.577871] (ros2_planar_robot) StdoutLine: {'line': b'-- Install configuration: ""\n'}
[12.578408] (ros2_planar_robot) StdoutLine: {'line': b'-- Execute custom install script\n'}
[12.578623] (ros2_planar_robot) StdoutLine: {'line': b'-- Up-to-date symlink: /home/umrob/M2/ros-2-planar-robot-p-3/install/ros2_planar_robot/share/ament_index/resource_index/rosidl_interfaces/ros2_planar_robot\n'}
[12.579150] (ros2_planar_robot) StdoutLine: {'line': b'-- Up-to-date symlink: /home/umrob/M2/ros-2-planar-robot-p-3/install/ros2_planar_robot/include/ros2_planar_robot/ros2_planar_robot/msg/cartesian_state.h\n'}
[12.579302] (ros2_planar_robot) StdoutLine: {'line': b'-- Up-to-date symlink: /home/umrob/M2/ros-2-planar-robot-p-3/install/ros2_planar_robot/include/ros2_planar_robot/ros2_planar_robot/msg/detail/cartesian_state__functions.h\n'}
[12.579453] (ros2_planar_robot) StdoutLine: {'line': b'-- Up-to-date symlink: /home/umrob/M2/ros-2-planar-robot-p-3/install/ros2_planar_robot/include/ros2_planar_robot/ros2_planar_robot/msg/detail/cartesian_state__struct.h\n'}
[12.579596] (ros2_planar_robot) StdoutLine: {'line': b'-- Up-to-date symlink: /home/umrob/M2/ros-2-planar-robot-p-3/install/ros2_planar_robot/include/ros2_planar_robot/ros2_planar_robot/msg/detail/cartesian_state__type_support.h\n'}
[12.579742] (ros2_planar_robot) StdoutLine: {'line': b'-- Up-to-date symlink: /home/umrob/M2/ros-2-planar-robot-p-3/install/ros2_planar_robot/include/ros2_planar_robot/ros2_planar_robot/msg/detail/joint_position__functions.h\n'}
[12.579874] (ros2_planar_robot) StdoutLine: {'line': b'-- Up-to-date symlink: /home/umrob/M2/ros-2-planar-robot-p-3/install/ros2_planar_robot/include/ros2_planar_robot/ros2_planar_robot/msg/detail/joint_position__struct.h\n'}
[12.580007] (ros2_planar_robot) StdoutLine: {'line': b'-- Up-to-date symlink: /home/umrob/M2/ros-2-planar-robot-p-3/install/ros2_planar_robot/include/ros2_planar_robot/ros2_planar_robot/msg/detail/joint_position__type_support.h\n'}
[12.580164] (ros2_planar_robot) StdoutLine: {'line': b'-- Up-to-date symlink: /home/umrob/M2/ros-2-planar-robot-p-3/install/ros2_planar_robot/include/ros2_planar_robot/ros2_planar_robot/msg/detail/kin_data__functions.h\n'}
[12.580291] (ros2_planar_robot) StdoutLine: {'line': b'-- Up-to-date symlink: /home/umrob/M2/ros-2-planar-robot-p-3/install/ros2_planar_robot/include/ros2_planar_robot/ros2_planar_robot/msg/detail/kin_data__struct.h\n'}
[12.580396] (ros2_planar_robot) StdoutLine: {'line': b'-- Up-to-date symlink: /home/umrob/M2/ros-2-planar-robot-p-3/install/ros2_planar_robot/include/ros2_planar_robot/ros2_planar_robot/msg/detail/kin_data__type_support.h\n'}
[12.580539] (ros2_planar_robot) StdoutLine: {'line': b'-- Up-to-date symlink: /home/umrob/M2/ros-2-planar-robot-p-3/install/ros2_planar_robot/include/ros2_planar_robot/ros2_planar_robot/msg/detail/pose__functions.h\n'}
[12.580646] (ros2_planar_robot) StdoutLine: {'line': b'-- Up-to-date symlink: /home/umrob/M2/ros-2-planar-robot-p-3/install/ros2_planar_robot/include/ros2_planar_robot/ros2_planar_robot/msg/detail/pose__struct.h\n'}
[12.580779] (ros2_planar_robot) StdoutLine: {'line': b'-- Up-to-date symlink: /home/umrob/M2/ros-2-planar-robot-p-3/install/ros2_planar_robot/include/ros2_planar_robot/ros2_planar_robot/msg/detail/pose__type_support.h\n'}
[12.580925] (ros2_planar_robot) StdoutLine: {'line': b'-- Up-to-date symlink: /home/umrob/M2/ros-2-planar-robot-p-3/install/ros2_planar_robot/include/ros2_planar_robot/ros2_planar_robot/msg/detail/ref_pose__functions.h\n'}
[12.581029] (ros2_planar_robot) StdoutLine: {'line': b'-- Up-to-date symlink: /home/umrob/M2/ros-2-planar-robot-p-3/install/ros2_planar_robot/include/ros2_planar_robot/ros2_planar_robot/msg/detail/ref_pose__struct.h\n'}
[12.581163] (ros2_planar_robot) StdoutLine: {'line': b'-- Up-to-date symlink: /home/umrob/M2/ros-2-planar-robot-p-3/install/ros2_planar_robot/include/ros2_planar_robot/ros2_planar_robot/msg/detail/ref_pose__type_support.h\n'}
[12.581320] (ros2_planar_robot) StdoutLine: {'line': b'-- Up-to-date symlink: /home/umrob/M2/ros-2-planar-robot-p-3/install/ros2_planar_robot/include/ros2_planar_robot/ros2_planar_robot/msg/detail/velocity__functions.h\n'}
[12.581433] (ros2_planar_robot) StdoutLine: {'line': b'-- Up-to-date symlink: /home/umrob/M2/ros-2-planar-robot-p-3/install/ros2_planar_robot/include/ros2_planar_robot/ros2_planar_robot/msg/detail/velocity__struct.h\n'}
[12.581539] (ros2_planar_robot) StdoutLine: {'line': b'-- Up-to-date symlink: /home/umrob/M2/ros-2-planar-robot-p-3/install/ros2_planar_robot/include/ros2_planar_robot/ros2_planar_robot/msg/detail/velocity__type_support.h\n'}
[12.581698] (ros2_planar_robot) StdoutLine: {'line': b'-- Up-to-date symlink: /home/umrob/M2/ros-2-planar-robot-p-3/install/ros2_planar_robot/include/ros2_planar_robot/ros2_planar_robot/msg/joint_position.h\n'}
[12.581812] (ros2_planar_robot) StdoutLine: {'line': b'-- Up-to-date symlink: /home/umrob/M2/ros-2-planar-robot-p-3/install/ros2_planar_robot/include/ros2_planar_robot/ros2_planar_robot/msg/kin_data.h\n'}
[12.581960] (ros2_planar_robot) StdoutLine: {'line': b'-- Up-to-date symlink: /home/umrob/M2/ros-2-planar-robot-p-3/install/ros2_planar_robot/include/ros2_planar_robot/ros2_planar_robot/msg/pose.h\n'}
[12.582068] (ros2_planar_robot) StdoutLine: {'line': b'-- Up-to-date symlink: /home/umrob/M2/ros-2-planar-robot-p-3/install/ros2_planar_robot/include/ros2_planar_robot/ros2_planar_robot/msg/ref_pose.h\n'}
[12.582173] (ros2_planar_robot) StdoutLine: {'line': b'-- Up-to-date symlink: /home/umrob/M2/ros-2-planar-robot-p-3/install/ros2_planar_robot/include/ros2_planar_robot/ros2_planar_robot/msg/rosidl_generator_c__visibility_control.h\n'}
[12.582309] (ros2_planar_robot) StdoutLine: {'line': b'-- Up-to-date symlink: /home/umrob/M2/ros-2-planar-robot-p-3/install/ros2_planar_robot/include/ros2_planar_robot/ros2_planar_robot/msg/velocity.h\n'}
[12.582457] (ros2_planar_robot) StdoutLine: {'line': b'-- Up-to-date symlink: /home/umrob/M2/ros-2-planar-robot-p-3/install/ros2_planar_robot/share/ros2_planar_robot/environment/library_path.sh\n'}
[12.582564] (ros2_planar_robot) StdoutLine: {'line': b'-- Up-to-date symlink: /home/umrob/M2/ros-2-planar-robot-p-3/install/ros2_planar_robot/share/ros2_planar_robot/environment/library_path.dsv\n'}
[12.582873] (ros2_planar_robot) StdoutLine: {'line': b'-- Up-to-date symlink: /home/umrob/M2/ros-2-planar-robot-p-3/install/ros2_planar_robot/include/ros2_planar_robot/ros2_planar_robot/msg/detail/cartesian_state__rosidl_typesupport_fastrtps_c.h\n'}
[12.583009] (ros2_planar_robot) StdoutLine: {'line': b'-- Up-to-date symlink: /home/umrob/M2/ros-2-planar-robot-p-3/install/ros2_planar_robot/include/ros2_planar_robot/ros2_planar_robot/msg/detail/joint_position__rosidl_typesupport_fastrtps_c.h\n'}
[12.583153] (ros2_planar_robot) StdoutLine: {'line': b'-- Up-to-date symlink: /home/umrob/M2/ros-2-planar-robot-p-3/install/ros2_planar_robot/include/ros2_planar_robot/ros2_planar_robot/msg/detail/kin_data__rosidl_typesupport_fastrtps_c.h\n'}
[12.583287] (ros2_planar_robot) StdoutLine: {'line': b'-- Up-to-date symlink: /home/umrob/M2/ros-2-planar-robot-p-3/install/ros2_planar_robot/include/ros2_planar_robot/ros2_planar_robot/msg/detail/pose__rosidl_typesupport_fastrtps_c.h\n'}
[12.583409] (ros2_planar_robot) StdoutLine: {'line': b'-- Up-to-date symlink: /home/umrob/M2/ros-2-planar-robot-p-3/install/ros2_planar_robot/include/ros2_planar_robot/ros2_planar_robot/msg/detail/ref_pose__rosidl_typesupport_fastrtps_c.h\n'}
[12.583538] (ros2_planar_robot) StdoutLine: {'line': b'-- Up-to-date symlink: /home/umrob/M2/ros-2-planar-robot-p-3/install/ros2_planar_robot/include/ros2_planar_robot/ros2_planar_robot/msg/detail/velocity__rosidl_typesupport_fastrtps_c.h\n'}
[12.583673] (ros2_planar_robot) StdoutLine: {'line': b'-- Up-to-date symlink: /home/umrob/M2/ros-2-planar-robot-p-3/install/ros2_planar_robot/include/ros2_planar_robot/ros2_planar_robot/msg/rosidl_typesupport_fastrtps_c__visibility_control.h\n'}
[12.584062] (ros2_planar_robot) StdoutLine: {'line': b'-- Up-to-date symlink: /home/umrob/M2/ros-2-planar-robot-p-3/install/ros2_planar_robot/include/ros2_planar_robot/ros2_planar_robot/msg/cartesian_state.hpp\n'}
[12.584199] (ros2_planar_robot) StdoutLine: {'line': b'-- Up-to-date symlink: /home/umrob/M2/ros-2-planar-robot-p-3/install/ros2_planar_robot/include/ros2_planar_robot/ros2_planar_robot/msg/detail/cartesian_state__builder.hpp\n'}
[12.584338] (ros2_planar_robot) StdoutLine: {'line': b'-- Up-to-date symlink: /home/umrob/M2/ros-2-planar-robot-p-3/install/ros2_planar_robot/include/ros2_planar_robot/ros2_planar_robot/msg/detail/cartesian_state__struct.hpp\n'}
[12.584472] (ros2_planar_robot) StdoutLine: {'line': b'-- Up-to-date symlink: /home/umrob/M2/ros-2-planar-robot-p-3/install/ros2_planar_robot/include/ros2_planar_robot/ros2_planar_robot/msg/detail/cartesian_state__traits.hpp\n'}
[12.584611] (ros2_planar_robot) StdoutLine: {'line': b'-- Up-to-date symlink: /home/umrob/M2/ros-2-planar-robot-p-3/install/ros2_planar_robot/include/ros2_planar_robot/ros2_planar_robot/msg/detail/joint_position__builder.hpp\n'}
[12.584746] (ros2_planar_robot) StdoutLine: {'line': b'-- Up-to-date symlink: /home/umrob/M2/ros-2-planar-robot-p-3/install/ros2_planar_robot/include/ros2_planar_robot/ros2_planar_robot/msg/detail/joint_position__struct.hpp\n'}
[12.584881] (ros2_planar_robot) StdoutLine: {'line': b'-- Up-to-date symlink: /home/umrob/M2/ros-2-planar-robot-p-3/install/ros2_planar_robot/include/ros2_planar_robot/ros2_planar_robot/msg/detail/joint_position__traits.hpp\n'}
[12.585001] (ros2_planar_robot) StdoutLine: {'line': b'-- Up-to-date symlink: /home/umrob/M2/ros-2-planar-robot-p-3/install/ros2_planar_robot/include/ros2_planar_robot/ros2_planar_robot/msg/detail/kin_data__builder.hpp\n'}
[12.585134] (ros2_planar_robot) StdoutLine: {'line': b'-- Up-to-date symlink: /home/umrob/M2/ros-2-planar-robot-p-3/install/ros2_planar_robot/include/ros2_planar_robot/ros2_planar_robot/msg/detail/kin_data__struct.hpp\n'}
[12.585256] (ros2_planar_robot) StdoutLine: {'line': b'-- Up-to-date symlink: /home/umrob/M2/ros-2-planar-robot-p-3/install/ros2_planar_robot/include/ros2_planar_robot/ros2_planar_robot/msg/detail/kin_data__traits.hpp\n'}
[12.585390] (ros2_planar_robot) StdoutLine: {'line': b'-- Up-to-date symlink: /home/umrob/M2/ros-2-planar-robot-p-3/install/ros2_planar_robot/include/ros2_planar_robot/ros2_planar_robot/msg/detail/pose__builder.hpp\n'}
[12.585515] (ros2_planar_robot) StdoutLine: {'line': b'-- Up-to-date symlink: /home/umrob/M2/ros-2-planar-robot-p-3/install/ros2_planar_robot/include/ros2_planar_robot/ros2_planar_robot/msg/detail/pose__struct.hpp\n'}
[12.585648] (ros2_planar_robot) StdoutLine: {'line': b'-- Up-to-date symlink: /home/umrob/M2/ros-2-planar-robot-p-3/install/ros2_planar_robot/include/ros2_planar_robot/ros2_planar_robot/msg/detail/pose__traits.hpp\n'}
[12.585804] (ros2_planar_robot) StdoutLine: {'line': b'-- Up-to-date symlink: /home/umrob/M2/ros-2-planar-robot-p-3/install/ros2_planar_robot/include/ros2_planar_robot/ros2_planar_robot/msg/detail/ref_pose__builder.hpp\n'}
[12.585907] (ros2_planar_robot) StdoutLine: {'line': b'-- Up-to-date symlink: /home/umrob/M2/ros-2-planar-robot-p-3/install/ros2_planar_robot/include/ros2_planar_robot/ros2_planar_robot/msg/detail/ref_pose__struct.hpp\n'}
[12.586045] (ros2_planar_robot) StdoutLine: {'line': b'-- Up-to-date symlink: /home/umrob/M2/ros-2-planar-robot-p-3/install/ros2_planar_robot/include/ros2_planar_robot/ros2_planar_robot/msg/detail/ref_pose__traits.hpp\n'}
[12.586149] (ros2_planar_robot) StdoutLine: {'line': b'-- Up-to-date symlink: /home/umrob/M2/ros-2-planar-robot-p-3/install/ros2_planar_robot/include/ros2_planar_robot/ros2_planar_robot/msg/detail/velocity__builder.hpp\n'}
[12.586282] (ros2_planar_robot) StdoutLine: {'line': b'-- Up-to-date symlink: /home/umrob/M2/ros-2-planar-robot-p-3/install/ros2_planar_robot/include/ros2_planar_robot/ros2_planar_robot/msg/detail/velocity__struct.hpp\n'}
[12.586422] (ros2_planar_robot) StdoutLine: {'line': b'-- Up-to-date symlink: /home/umrob/M2/ros-2-planar-robot-p-3/install/ros2_planar_robot/include/ros2_planar_robot/ros2_planar_robot/msg/detail/velocity__traits.hpp\n'}
[12.586525] (ros2_planar_robot) StdoutLine: {'line': b'-- Up-to-date symlink: /home/umrob/M2/ros-2-planar-robot-p-3/install/ros2_planar_robot/include/ros2_planar_robot/ros2_planar_robot/msg/joint_position.hpp\n'}
[12.586662] (ros2_planar_robot) StdoutLine: {'line': b'-- Up-to-date symlink: /home/umrob/M2/ros-2-planar-robot-p-3/install/ros2_planar_robot/include/ros2_planar_robot/ros2_planar_robot/msg/kin_data.hpp\n'}
[12.586765] (ros2_planar_robot) StdoutLine: {'line': b'-- Up-to-date symlink: /home/umrob/M2/ros-2-planar-robot-p-3/install/ros2_planar_robot/include/ros2_planar_robot/ros2_planar_robot/msg/pose.hpp\n'}
[12.586902] (ros2_planar_robot) StdoutLine: {'line': b'-- Up-to-date symlink: /home/umrob/M2/ros-2-planar-robot-p-3/install/ros2_planar_robot/include/ros2_planar_robot/ros2_planar_robot/msg/ref_pose.hpp\n'}
[12.587038] (ros2_planar_robot) StdoutLine: {'line': b'-- Up-to-date symlink: /home/umrob/M2/ros-2-planar-robot-p-3/install/ros2_planar_robot/include/ros2_planar_robot/ros2_planar_robot/msg/velocity.hpp\n'}
[12.587355] (ros2_planar_robot) StdoutLine: {'line': b'-- Up-to-date symlink: /home/umrob/M2/ros-2-planar-robot-p-3/install/ros2_planar_robot/include/ros2_planar_robot/ros2_planar_robot/msg/detail/cartesian_state__rosidl_typesupport_fastrtps_cpp.hpp\n'}
[12.587508] (ros2_planar_robot) StdoutLine: {'line': b'-- Up-to-date symlink: /home/umrob/M2/ros-2-planar-robot-p-3/install/ros2_planar_robot/include/ros2_planar_robot/ros2_planar_robot/msg/detail/joint_position__rosidl_typesupport_fastrtps_cpp.hpp\n'}
[12.587636] (ros2_planar_robot) StdoutLine: {'line': b'-- Up-to-date symlink: /home/umrob/M2/ros-2-planar-robot-p-3/install/ros2_planar_robot/include/ros2_planar_robot/ros2_planar_robot/msg/detail/kin_data__rosidl_typesupport_fastrtps_cpp.hpp\n'}
[12.587764] (ros2_planar_robot) StdoutLine: {'line': b'-- Up-to-date symlink: /home/umrob/M2/ros-2-planar-robot-p-3/install/ros2_planar_robot/include/ros2_planar_robot/ros2_planar_robot/msg/detail/pose__rosidl_typesupport_fastrtps_cpp.hpp\n'}
[12.587891] (ros2_planar_robot) StdoutLine: {'line': b'-- Up-to-date symlink: /home/umrob/M2/ros-2-planar-robot-p-3/install/ros2_planar_robot/include/ros2_planar_robot/ros2_planar_robot/msg/detail/ref_pose__rosidl_typesupport_fastrtps_cpp.hpp\n'}
[12.588019] (ros2_planar_robot) StdoutLine: {'line': b'-- Up-to-date symlink: /home/umrob/M2/ros-2-planar-robot-p-3/install/ros2_planar_robot/include/ros2_planar_robot/ros2_planar_robot/msg/detail/velocity__rosidl_typesupport_fastrtps_cpp.hpp\n'}
[12.588156] (ros2_planar_robot) StdoutLine: {'line': b'-- Up-to-date symlink: /home/umrob/M2/ros-2-planar-robot-p-3/install/ros2_planar_robot/include/ros2_planar_robot/ros2_planar_robot/msg/rosidl_typesupport_fastrtps_cpp__visibility_control.h\n'}
[12.588481] (ros2_planar_robot) StdoutLine: {'line': b'-- Up-to-date symlink: /home/umrob/M2/ros-2-planar-robot-p-3/install/ros2_planar_robot/include/ros2_planar_robot/ros2_planar_robot/msg/detail/cartesian_state__rosidl_typesupport_introspection_c.h\n'}
[12.588612] (ros2_planar_robot) StdoutLine: {'line': b'-- Up-to-date symlink: /home/umrob/M2/ros-2-planar-robot-p-3/install/ros2_planar_robot/include/ros2_planar_robot/ros2_planar_robot/msg/detail/joint_position__rosidl_typesupport_introspection_c.h\n'}
[12.588743] (ros2_planar_robot) StdoutLine: {'line': b'-- Up-to-date symlink: /home/umrob/M2/ros-2-planar-robot-p-3/install/ros2_planar_robot/include/ros2_planar_robot/ros2_planar_robot/msg/detail/kin_data__rosidl_typesupport_introspection_c.h\n'}
[12.588863] (ros2_planar_robot) StdoutLine: {'line': b'-- Up-to-date symlink: /home/umrob/M2/ros-2-planar-robot-p-3/install/ros2_planar_robot/include/ros2_planar_robot/ros2_planar_robot/msg/detail/pose__rosidl_typesupport_introspection_c.h\n'}
[12.588990] (ros2_planar_robot) StdoutLine: {'line': b'-- Up-to-date symlink: /home/umrob/M2/ros-2-planar-robot-p-3/install/ros2_planar_robot/include/ros2_planar_robot/ros2_planar_robot/msg/detail/ref_pose__rosidl_typesupport_introspection_c.h\n'}
[12.589114] (ros2_planar_robot) StdoutLine: {'line': b'-- Up-to-date symlink: /home/umrob/M2/ros-2-planar-robot-p-3/install/ros2_planar_robot/include/ros2_planar_robot/ros2_planar_robot/msg/detail/velocity__rosidl_typesupport_introspection_c.h\n'}
[12.589246] (ros2_planar_robot) StdoutLine: {'line': b'-- Up-to-date symlink: /home/umrob/M2/ros-2-planar-robot-p-3/install/ros2_planar_robot/include/ros2_planar_robot/ros2_planar_robot/msg/rosidl_typesupport_introspection_c__visibility_control.h\n'}
[12.589514] (ros2_planar_robot) StdoutLine: {'line': b'-- Up-to-date symlink: /home/umrob/M2/ros-2-planar-robot-p-3/install/ros2_planar_robot/include/ros2_planar_robot/ros2_planar_robot/msg/detail/cartesian_state__rosidl_typesupport_introspection_cpp.hpp\n'}
[12.589646] (ros2_planar_robot) StdoutLine: {'line': b'-- Up-to-date symlink: /home/umrob/M2/ros-2-planar-robot-p-3/install/ros2_planar_robot/include/ros2_planar_robot/ros2_planar_robot/msg/detail/joint_position__rosidl_typesupport_introspection_cpp.hpp\n'}
[12.589964] (ros2_planar_robot) StdoutLine: {'line': b'-- Up-to-date symlink: /home/umrob/M2/ros-2-planar-robot-p-3/install/ros2_planar_robot/include/ros2_planar_robot/ros2_planar_robot/msg/detail/kin_data__rosidl_typesupport_introspection_cpp.hpp\n'}
[12.590148] (ros2_planar_robot) StdoutLine: {'line': b'-- Up-to-date symlink: /home/umrob/M2/ros-2-planar-robot-p-3/install/ros2_planar_robot/include/ros2_planar_robot/ros2_planar_robot/msg/detail/pose__rosidl_typesupport_introspection_cpp.hpp\n'}
[12.590295] (ros2_planar_robot) StdoutLine: {'line': b'-- Up-to-date symlink: /home/umrob/M2/ros-2-planar-robot-p-3/install/ros2_planar_robot/include/ros2_planar_robot/ros2_planar_robot/msg/detail/ref_pose__rosidl_typesupport_introspection_cpp.hpp\n'}
[12.590497] (ros2_planar_robot) StdoutLine: {'line': b'-- Up-to-date symlink: /home/umrob/M2/ros-2-planar-robot-p-3/install/ros2_planar_robot/include/ros2_planar_robot/ros2_planar_robot/msg/detail/velocity__rosidl_typesupport_introspection_cpp.hpp\n'}
[12.590569] (ros2_planar_robot) StdoutLine: {'line': b'-- Up-to-date symlink: /home/umrob/M2/ros-2-planar-robot-p-3/install/ros2_planar_robot/share/ros2_planar_robot/environment/pythonpath.sh\n'}
[12.590632] (ros2_planar_robot) StdoutLine: {'line': b'-- Up-to-date symlink: /home/umrob/M2/ros-2-planar-robot-p-3/install/ros2_planar_robot/share/ros2_planar_robot/environment/pythonpath.dsv\n'}
[12.590722] (ros2_planar_robot) StdoutLine: {'line': b'-- Up-to-date symlink: /home/umrob/M2/ros-2-planar-robot-p-3/install/ros2_planar_robot/local/lib/python3.10/dist-packages/ros2_planar_robot-0.0.0-py3.10.egg-info/PKG-INFO\n'}
[12.590811] (ros2_planar_robot) StdoutLine: {'line': b'-- Up-to-date symlink: /home/umrob/M2/ros-2-planar-robot-p-3/install/ros2_planar_robot/local/lib/python3.10/dist-packages/ros2_planar_robot-0.0.0-py3.10.egg-info/SOURCES.txt\n'}
[12.590933] (ros2_planar_robot) StdoutLine: {'line': b'-- Up-to-date symlink: /home/umrob/M2/ros-2-planar-robot-p-3/install/ros2_planar_robot/local/lib/python3.10/dist-packages/ros2_planar_robot-0.0.0-py3.10.egg-info/dependency_links.txt\n'}
[12.591028] (ros2_planar_robot) StdoutLine: {'line': b'-- Up-to-date symlink: /home/umrob/M2/ros-2-planar-robot-p-3/install/ros2_planar_robot/local/lib/python3.10/dist-packages/ros2_planar_robot-0.0.0-py3.10.egg-info/top_level.txt\n'}
[12.591624] (ros2_planar_robot) StdoutLine: {'line': b'-- Up-to-date symlink: /home/umrob/M2/ros-2-planar-robot-p-3/install/ros2_planar_robot/local/lib/python3.10/dist-packages/ros2_planar_robot/__init__.py\n'}
[12.591720] (ros2_planar_robot) StdoutLine: {'line': b'-- Up-to-date symlink: /home/umrob/M2/ros-2-planar-robot-p-3/install/ros2_planar_robot/local/lib/python3.10/dist-packages/ros2_planar_robot/_ros2_planar_robot_s.ep.rosidl_typesupport_c.c\n'}
[12.591815] (ros2_planar_robot) StdoutLine: {'line': b'-- Up-to-date symlink: /home/umrob/M2/ros-2-planar-robot-p-3/install/ros2_planar_robot/local/lib/python3.10/dist-packages/ros2_planar_robot/_ros2_planar_robot_s.ep.rosidl_typesupport_fastrtps_c.c\n'}
[12.591915] (ros2_planar_robot) StdoutLine: {'line': b'-- Up-to-date symlink: /home/umrob/M2/ros-2-planar-robot-p-3/install/ros2_planar_robot/local/lib/python3.10/dist-packages/ros2_planar_robot/_ros2_planar_robot_s.ep.rosidl_typesupport_introspection_c.c\n'}
[12.592015] (ros2_planar_robot) StdoutLine: {'line': b'-- Up-to-date symlink: /home/umrob/M2/ros-2-planar-robot-p-3/install/ros2_planar_robot/local/lib/python3.10/dist-packages/ros2_planar_robot/libros2_planar_robot__rosidl_generator_py.so\n'}
[12.592127] (ros2_planar_robot) StdoutLine: {'line': b'-- Up-to-date symlink: /home/umrob/M2/ros-2-planar-robot-p-3/install/ros2_planar_robot/local/lib/python3.10/dist-packages/ros2_planar_robot/msg/__init__.py\n'}
[12.592256] (ros2_planar_robot) StdoutLine: {'line': b'-- Up-to-date symlink: /home/umrob/M2/ros-2-planar-robot-p-3/install/ros2_planar_robot/local/lib/python3.10/dist-packages/ros2_planar_robot/msg/_cartesian_state.py\n'}
[12.592369] (ros2_planar_robot) StdoutLine: {'line': b'-- Up-to-date symlink: /home/umrob/M2/ros-2-planar-robot-p-3/install/ros2_planar_robot/local/lib/python3.10/dist-packages/ros2_planar_robot/msg/_cartesian_state_s.c\n'}
[12.592483] (ros2_planar_robot) StdoutLine: {'line': b'-- Up-to-date symlink: /home/umrob/M2/ros-2-planar-robot-p-3/install/ros2_planar_robot/local/lib/python3.10/dist-packages/ros2_planar_robot/msg/_joint_position.py\n'}
[12.592589] (ros2_planar_robot) StdoutLine: {'line': b'-- Up-to-date symlink: /home/umrob/M2/ros-2-planar-robot-p-3/install/ros2_planar_robot/local/lib/python3.10/dist-packages/ros2_planar_robot/msg/_joint_position_s.c\n'}
[12.592700] (ros2_planar_robot) StdoutLine: {'line': b'-- Up-to-date symlink: /home/umrob/M2/ros-2-planar-robot-p-3/install/ros2_planar_robot/local/lib/python3.10/dist-packages/ros2_planar_robot/msg/_kin_data.py\n'}
[12.592809] (ros2_planar_robot) StdoutLine: {'line': b'-- Up-to-date symlink: /home/umrob/M2/ros-2-planar-robot-p-3/install/ros2_planar_robot/local/lib/python3.10/dist-packages/ros2_planar_robot/msg/_kin_data_s.c\n'}
[12.592920] (ros2_planar_robot) StdoutLine: {'line': b'-- Up-to-date symlink: /home/umrob/M2/ros-2-planar-robot-p-3/install/ros2_planar_robot/local/lib/python3.10/dist-packages/ros2_planar_robot/msg/_pose.py\n'}
[12.593022] (ros2_planar_robot) StdoutLine: {'line': b'-- Up-to-date symlink: /home/umrob/M2/ros-2-planar-robot-p-3/install/ros2_planar_robot/local/lib/python3.10/dist-packages/ros2_planar_robot/msg/_pose_s.c\n'}
[12.593129] (ros2_planar_robot) StdoutLine: {'line': b'-- Up-to-date symlink: /home/umrob/M2/ros-2-planar-robot-p-3/install/ros2_planar_robot/local/lib/python3.10/dist-packages/ros2_planar_robot/msg/_ref_pose.py\n'}
[12.593244] (ros2_planar_robot) StdoutLine: {'line': b'-- Up-to-date symlink: /home/umrob/M2/ros-2-planar-robot-p-3/install/ros2_planar_robot/local/lib/python3.10/dist-packages/ros2_planar_robot/msg/_ref_pose_s.c\n'}
[12.593352] (ros2_planar_robot) StdoutLine: {'line': b'-- Up-to-date symlink: /home/umrob/M2/ros-2-planar-robot-p-3/install/ros2_planar_robot/local/lib/python3.10/dist-packages/ros2_planar_robot/msg/_velocity.py\n'}
[12.593456] (ros2_planar_robot) StdoutLine: {'line': b'-- Up-to-date symlink: /home/umrob/M2/ros-2-planar-robot-p-3/install/ros2_planar_robot/local/lib/python3.10/dist-packages/ros2_planar_robot/msg/_velocity_s.c\n'}
[12.593568] (ros2_planar_robot) StdoutLine: {'line': b'-- Up-to-date symlink: /home/umrob/M2/ros-2-planar-robot-p-3/install/ros2_planar_robot/local/lib/python3.10/dist-packages/ros2_planar_robot/ros2_planar_robot_s__rosidl_typesupport_c.cpython-310-x86_64-linux-gnu.so\n'}
[12.593681] (ros2_planar_robot) StdoutLine: {'line': b'-- Up-to-date symlink: /home/umrob/M2/ros-2-planar-robot-p-3/install/ros2_planar_robot/local/lib/python3.10/dist-packages/ros2_planar_robot/ros2_planar_robot_s__rosidl_typesupport_fastrtps_c.cpython-310-x86_64-linux-gnu.so\n'}
[12.593794] (ros2_planar_robot) StdoutLine: {'line': b'-- Up-to-date symlink: /home/umrob/M2/ros-2-planar-robot-p-3/install/ros2_planar_robot/local/lib/python3.10/dist-packages/ros2_planar_robot/ros2_planar_robot_s__rosidl_typesupport_introspection_c.cpython-310-x86_64-linux-gnu.so\n'}
[12.594048] (ros2_planar_robot) StdoutLine: {'line': b'-- Up-to-date symlink: /home/umrob/M2/ros-2-planar-robot-p-3/install/ros2_planar_robot/local/lib/python3.10/dist-packages/ros2_planar_robot/ros2_planar_robot_s__rosidl_typesupport_fastrtps_c.cpython-310-x86_64-linux-gnu.so\n'}
[12.594291] (ros2_planar_robot) StdoutLine: {'line': b'-- Up-to-date symlink: /home/umrob/M2/ros-2-planar-robot-p-3/install/ros2_planar_robot/local/lib/python3.10/dist-packages/ros2_planar_robot/ros2_planar_robot_s__rosidl_typesupport_introspection_c.cpython-310-x86_64-linux-gnu.so\n'}
[12.594535] (ros2_planar_robot) StdoutLine: {'line': b'-- Up-to-date symlink: /home/umrob/M2/ros-2-planar-robot-p-3/install/ros2_planar_robot/local/lib/python3.10/dist-packages/ros2_planar_robot/ros2_planar_robot_s__rosidl_typesupport_c.cpython-310-x86_64-linux-gnu.so\n'}
[12.594701] (ros2_planar_robot) StdoutLine: {'line': b'-- Up-to-date symlink: /home/umrob/M2/ros-2-planar-robot-p-3/install/ros2_planar_robot/share/ros2_planar_robot/msg/RefPose.idl\n'}
[12.594854] (ros2_planar_robot) StdoutLine: {'line': b'-- Up-to-date symlink: /home/umrob/M2/ros-2-planar-robot-p-3/install/ros2_planar_robot/share/ros2_planar_robot/msg/Pose.idl\n'}
[12.595014] (ros2_planar_robot) StdoutLine: {'line': b'-- Up-to-date symlink: /home/umrob/M2/ros-2-planar-robot-p-3/install/ros2_planar_robot/share/ros2_planar_robot/msg/CartesianState.idl\n'}
[12.595157] (ros2_planar_robot) StdoutLine: {'line': b'-- Up-to-date symlink: /home/umrob/M2/ros-2-planar-robot-p-3/install/ros2_planar_robot/share/ros2_planar_robot/msg/Velocity.idl\n'}
[12.595304] (ros2_planar_robot) StdoutLine: {'line': b'-- Up-to-date symlink: /home/umrob/M2/ros-2-planar-robot-p-3/install/ros2_planar_robot/share/ros2_planar_robot/msg/KinData.idl\n'}
[12.595451] (ros2_planar_robot) StdoutLine: {'line': b'-- Up-to-date symlink: /home/umrob/M2/ros-2-planar-robot-p-3/install/ros2_planar_robot/share/ros2_planar_robot/msg/JointPosition.idl\n'}
[12.595591] (ros2_planar_robot) StdoutLine: {'line': b'-- Up-to-date symlink: /home/umrob/M2/ros-2-planar-robot-p-3/install/ros2_planar_robot/share/ros2_planar_robot/msg/RefPose.msg\n'}
[12.595728] (ros2_planar_robot) StdoutLine: {'line': b'-- Up-to-date symlink: /home/umrob/M2/ros-2-planar-robot-p-3/install/ros2_planar_robot/share/ros2_planar_robot/msg/Pose.msg\n'}
[12.595870] (ros2_planar_robot) StdoutLine: {'line': b'-- Up-to-date symlink: /home/umrob/M2/ros-2-planar-robot-p-3/install/ros2_planar_robot/share/ros2_planar_robot/msg/CartesianState.msg\n'}
[12.596007] (ros2_planar_robot) StdoutLine: {'line': b'-- Up-to-date symlink: /home/umrob/M2/ros-2-planar-robot-p-3/install/ros2_planar_robot/share/ros2_planar_robot/msg/Velocity.msg\n'}
[12.596144] (ros2_planar_robot) StdoutLine: {'line': b'-- Up-to-date symlink: /home/umrob/M2/ros-2-planar-robot-p-3/install/ros2_planar_robot/share/ros2_planar_robot/msg/KinData.msg\n'}
[12.596284] (ros2_planar_robot) StdoutLine: {'line': b'-- Up-to-date symlink: /home/umrob/M2/ros-2-planar-robot-p-3/install/ros2_planar_robot/share/ros2_planar_robot/msg/JointPosition.msg\n'}
[12.596529] (ros2_planar_robot) StdoutLine: {'line': b'-- Up-to-date symlink: /home/umrob/M2/ros-2-planar-robot-p-3/install/ros2_planar_robot/lib/ros2_planar_robot/trajectory_generator\n'}
[12.596673] (ros2_planar_robot) StdoutLine: {'line': b'-- Up-to-date symlink: /home/umrob/M2/ros-2-planar-robot-p-3/install/ros2_planar_robot/lib/ros2_planar_robot/high_lev_mng\n'}
[12.596822] (ros2_planar_robot) StdoutLine: {'line': b'-- Up-to-date symlink: /home/umrob/M2/ros-2-planar-robot-p-3/install/ros2_planar_robot/lib/ros2_planar_robot/kinematic_modeller\n'}
[12.596961] (ros2_planar_robot) StdoutLine: {'line': b'-- Up-to-date symlink: /home/umrob/M2/ros-2-planar-robot-p-3/install/ros2_planar_robot/lib/ros2_planar_robot/controller\n'}
[12.597191] (ros2_planar_robot) StdoutLine: {'line': b'-- Up-to-date symlink: /home/umrob/M2/ros-2-planar-robot-p-3/install/ros2_planar_robot/lib/libtrajectory_generation_lib.so\n'}
[12.597330] (ros2_planar_robot) StdoutLine: {'line': b'-- Up-to-date symlink: /home/umrob/M2/ros-2-planar-robot-p-3/install/ros2_planar_robot/lib/libkinematic_model_lib.so\n'}
[12.597488] (ros2_planar_robot) StdoutLine: {'line': b'-- Up-to-date symlink: /home/umrob/M2/ros-2-planar-robot-p-3/install/ros2_planar_robot/lib/libcontrol_lib.so\n'}
[12.597665] (ros2_planar_robot) StdoutLine: {'line': b'-- Up-to-date symlink: /home/umrob/M2/ros-2-planar-robot-p-3/install/ros2_planar_robot/share/ament_index/resource_index/package_run_dependencies/ros2_planar_robot\n'}
[12.598035] (ros2_planar_robot) StdoutLine: {'line': b'-- Up-to-date symlink: /home/umrob/M2/ros-2-planar-robot-p-3/install/ros2_planar_robot/share/ament_index/resource_index/parent_prefix_path/ros2_planar_robot\n'}
[12.598178] (ros2_planar_robot) StdoutLine: {'line': b'-- Up-to-date symlink: /home/umrob/M2/ros-2-planar-robot-p-3/install/ros2_planar_robot/share/ros2_planar_robot/environment/ament_prefix_path.sh\n'}
[12.598307] (ros2_planar_robot) StdoutLine: {'line': b'-- Up-to-date symlink: /home/umrob/M2/ros-2-planar-robot-p-3/install/ros2_planar_robot/share/ros2_planar_robot/environment/ament_prefix_path.dsv\n'}
[12.598439] (ros2_planar_robot) StdoutLine: {'line': b'-- Up-to-date symlink: /home/umrob/M2/ros-2-planar-robot-p-3/install/ros2_planar_robot/share/ros2_planar_robot/environment/path.sh\n'}
[12.598569] (ros2_planar_robot) StdoutLine: {'line': b'-- Up-to-date symlink: /home/umrob/M2/ros-2-planar-robot-p-3/install/ros2_planar_robot/share/ros2_planar_robot/environment/path.dsv\n'}
[12.598696] (ros2_planar_robot) StdoutLine: {'line': b'-- Up-to-date symlink: /home/umrob/M2/ros-2-planar-robot-p-3/install/ros2_planar_robot/share/ros2_planar_robot/local_setup.bash\n'}
[12.598823] (ros2_planar_robot) StdoutLine: {'line': b'-- Up-to-date symlink: /home/umrob/M2/ros-2-planar-robot-p-3/install/ros2_planar_robot/share/ros2_planar_robot/local_setup.sh\n'}
[12.598943] (ros2_planar_robot) StdoutLine: {'line': b'-- Up-to-date symlink: /home/umrob/M2/ros-2-planar-robot-p-3/install/ros2_planar_robot/share/ros2_planar_robot/local_setup.zsh\n'}
[12.599067] (ros2_planar_robot) StdoutLine: {'line': b'-- Up-to-date symlink: /home/umrob/M2/ros-2-planar-robot-p-3/install/ros2_planar_robot/share/ros2_planar_robot/local_setup.dsv\n'}
[12.599174] (ros2_planar_robot) StdoutLine: {'line': b'-- Symlinking: /home/umrob/M2/ros-2-planar-robot-p-3/install/ros2_planar_robot/share/ros2_planar_robot/package.dsv\n'}
[12.607121] (ros2_planar_robot) StdoutLine: {'line': b'-- Up-to-date symlink: /home/umrob/M2/ros-2-planar-robot-p-3/install/ros2_planar_robot/share/ament_index/resource_index/packages/ros2_planar_robot\n'}
[12.607318] (ros2_planar_robot) StdoutLine: {'line': b'-- Up-to-date symlink: /home/umrob/M2/ros-2-planar-robot-p-3/install/ros2_planar_robot/share/ros2_planar_robot/cmake/rosidl_cmake-extras.cmake\n'}
[12.607411] (ros2_planar_robot) StdoutLine: {'line': b'-- Up-to-date symlink: /home/umrob/M2/ros-2-planar-robot-p-3/install/ros2_planar_robot/share/ros2_planar_robot/cmake/ament_cmake_export_include_directories-extras.cmake\n'}
[12.607508] (ros2_planar_robot) StdoutLine: {'line': b'-- Up-to-date symlink: /home/umrob/M2/ros-2-planar-robot-p-3/install/ros2_planar_robot/share/ros2_planar_robot/cmake/ament_cmake_export_libraries-extras.cmake\n'}
[12.607599] (ros2_planar_robot) StdoutLine: {'line': b'-- Up-to-date symlink: /home/umrob/M2/ros-2-planar-robot-p-3/install/ros2_planar_robot/share/ros2_planar_robot/cmake/ament_cmake_export_targets-extras.cmake\n'}
[12.607721] (ros2_planar_robot) StdoutLine: {'line': b'-- Up-to-date symlink: /home/umrob/M2/ros-2-planar-robot-p-3/install/ros2_planar_robot/share/ros2_planar_robot/cmake/rosidl_cmake_export_typesupport_targets-extras.cmake\n'}
[12.607854] (ros2_planar_robot) StdoutLine: {'line': b'-- Up-to-date symlink: /home/umrob/M2/ros-2-planar-robot-p-3/install/ros2_planar_robot/share/ros2_planar_robot/cmake/ament_cmake_export_dependencies-extras.cmake\n'}
[12.607994] (ros2_planar_robot) StdoutLine: {'line': b'-- Up-to-date symlink: /home/umrob/M2/ros-2-planar-robot-p-3/install/ros2_planar_robot/share/ros2_planar_robot/cmake/rosidl_cmake_export_typesupport_libraries-extras.cmake\n'}
[12.608180] (ros2_planar_robot) StdoutLine: {'line': b'-- Up-to-date symlink: /home/umrob/M2/ros-2-planar-robot-p-3/install/ros2_planar_robot/share/ros2_planar_robot/cmake/ros2_planar_robotConfig.cmake\n'}
[12.608290] (ros2_planar_robot) StdoutLine: {'line': b'-- Up-to-date symlink: /home/umrob/M2/ros-2-planar-robot-p-3/install/ros2_planar_robot/share/ros2_planar_robot/cmake/ros2_planar_robotConfig-version.cmake\n'}
[12.608426] (ros2_planar_robot) StdoutLine: {'line': b'-- Up-to-date symlink: /home/umrob/M2/ros-2-planar-robot-p-3/install/ros2_planar_robot/share/ros2_planar_robot/package.xml\n'}
[12.608634] (ros2_planar_robot) StdoutLine: {'line': b'-- Up-to-date: /home/umrob/M2/ros-2-planar-robot-p-3/install/ros2_planar_robot/lib/libros2_planar_robot__rosidl_generator_c.so\n'}
[12.608857] (ros2_planar_robot) StdoutLine: {'line': b'-- Up-to-date: /home/umrob/M2/ros-2-planar-robot-p-3/install/ros2_planar_robot/lib/libros2_planar_robot__rosidl_typesupport_fastrtps_c.so\n'}
[12.609084] (ros2_planar_robot) StdoutLine: {'line': b'-- Up-to-date: /home/umrob/M2/ros-2-planar-robot-p-3/install/ros2_planar_robot/lib/libros2_planar_robot__rosidl_typesupport_fastrtps_cpp.so\n'}
[12.609348] (ros2_planar_robot) StdoutLine: {'line': b'-- Up-to-date: /home/umrob/M2/ros-2-planar-robot-p-3/install/ros2_planar_robot/lib/libros2_planar_robot__rosidl_typesupport_introspection_c.so\n'}
[12.609481] (ros2_planar_robot) StdoutLine: {'line': b'-- Up-to-date: /home/umrob/M2/ros-2-planar-robot-p-3/install/ros2_planar_robot/lib/libros2_planar_robot__rosidl_typesupport_c.so\n'}
[12.609727] (ros2_planar_robot) StdoutLine: {'line': b'-- Up-to-date: /home/umrob/M2/ros-2-planar-robot-p-3/install/ros2_planar_robot/lib/libros2_planar_robot__rosidl_typesupport_introspection_cpp.so\n'}
[12.609906] (ros2_planar_robot) StdoutLine: {'line': b'-- Up-to-date: /home/umrob/M2/ros-2-planar-robot-p-3/install/ros2_planar_robot/lib/libros2_planar_robot__rosidl_typesupport_cpp.so\n'}
[12.638438] (ros2_planar_robot) StdoutLine: {'line': b"Listing '/home/umrob/M2/ros-2-planar-robot-p-3/install/ros2_planar_robot/local/lib/python3.10/dist-packages/ros2_planar_robot'...\n"}
[12.638656] (ros2_planar_robot) StdoutLine: {'line': b"Listing '/home/umrob/M2/ros-2-planar-robot-p-3/install/ros2_planar_robot/local/lib/python3.10/dist-packages/ros2_planar_robot/msg'...\n"}
[12.640965] (-) TimerEvent: {}
[12.642913] (ros2_planar_robot) StdoutLine: {'line': b'-- Up-to-date: /home/umrob/M2/ros-2-planar-robot-p-3/install/ros2_planar_robot/lib/libros2_planar_robot__rosidl_generator_py.so\n'}
[12.643276] (ros2_planar_robot) StdoutLine: {'line': b'-- Up-to-date: /home/umrob/M2/ros-2-planar-robot-p-3/install/ros2_planar_robot/share/ros2_planar_robot/cmake/export_ros2_planar_robot__rosidl_generator_cExport.cmake\n'}
[12.643598] (ros2_planar_robot) StdoutLine: {'line': b'-- Up-to-date: /home/umrob/M2/ros-2-planar-robot-p-3/install/ros2_planar_robot/share/ros2_planar_robot/cmake/export_ros2_planar_robot__rosidl_generator_cExport-noconfig.cmake\n'}
[12.643678] (ros2_planar_robot) StdoutLine: {'line': b'-- Up-to-date: /home/umrob/M2/ros-2-planar-robot-p-3/install/ros2_planar_robot/share/ros2_planar_robot/cmake/export_ros2_planar_robot__rosidl_typesupport_fastrtps_cExport.cmake\n'}
[12.643744] (ros2_planar_robot) StdoutLine: {'line': b'-- Up-to-date: /home/umrob/M2/ros-2-planar-robot-p-3/install/ros2_planar_robot/share/ros2_planar_robot/cmake/export_ros2_planar_robot__rosidl_typesupport_fastrtps_cExport-noconfig.cmake\n'}
[12.643949] (ros2_planar_robot) StdoutLine: {'line': b'-- Up-to-date: /home/umrob/M2/ros-2-planar-robot-p-3/install/ros2_planar_robot/share/ros2_planar_robot/cmake/export_ros2_planar_robot__rosidl_generator_cppExport.cmake\n'}
[12.644064] (ros2_planar_robot) StdoutLine: {'line': b'-- Up-to-date: /home/umrob/M2/ros-2-planar-robot-p-3/install/ros2_planar_robot/share/ros2_planar_robot/cmake/export_ros2_planar_robot__rosidl_typesupport_fastrtps_cppExport.cmake\n'}
[12.644134] (ros2_planar_robot) StdoutLine: {'line': b'-- Up-to-date: /home/umrob/M2/ros-2-planar-robot-p-3/install/ros2_planar_robot/share/ros2_planar_robot/cmake/export_ros2_planar_robot__rosidl_typesupport_fastrtps_cppExport-noconfig.cmake\n'}
[12.644268] (ros2_planar_robot) StdoutLine: {'line': b'-- Up-to-date: /home/umrob/M2/ros-2-planar-robot-p-3/install/ros2_planar_robot/share/ros2_planar_robot/cmake/ros2_planar_robot__rosidl_typesupport_introspection_cExport.cmake\n'}
[12.644345] (ros2_planar_robot) StdoutLine: {'line': b'-- Up-to-date: /home/umrob/M2/ros-2-planar-robot-p-3/install/ros2_planar_robot/share/ros2_planar_robot/cmake/ros2_planar_robot__rosidl_typesupport_introspection_cExport-noconfig.cmake\n'}
[12.644419] (ros2_planar_robot) StdoutLine: {'line': b'-- Up-to-date: /home/umrob/M2/ros-2-planar-robot-p-3/install/ros2_planar_robot/share/ros2_planar_robot/cmake/ros2_planar_robot__rosidl_typesupport_cExport.cmake\n'}
[12.644478] (ros2_planar_robot) StdoutLine: {'line': b'-- Up-to-date: /home/umrob/M2/ros-2-planar-robot-p-3/install/ros2_planar_robot/share/ros2_planar_robot/cmake/ros2_planar_robot__rosidl_typesupport_cExport-noconfig.cmake\n'}
[12.644576] (ros2_planar_robot) StdoutLine: {'line': b'-- Up-to-date: /home/umrob/M2/ros-2-planar-robot-p-3/install/ros2_planar_robot/share/ros2_planar_robot/cmake/ros2_planar_robot__rosidl_typesupport_introspection_cppExport.cmake\n'}
[12.644636] (ros2_planar_robot) StdoutLine: {'line': b'-- Up-to-date: /home/umrob/M2/ros-2-planar-robot-p-3/install/ros2_planar_robot/share/ros2_planar_robot/cmake/ros2_planar_robot__rosidl_typesupport_introspection_cppExport-noconfig.cmake\n'}
[12.644692] (ros2_planar_robot) StdoutLine: {'line': b'-- Up-to-date: /home/umrob/M2/ros-2-planar-robot-p-3/install/ros2_planar_robot/share/ros2_planar_robot/cmake/ros2_planar_robot__rosidl_typesupport_cppExport.cmake\n'}
[12.644747] (ros2_planar_robot) StdoutLine: {'line': b'-- Up-to-date: /home/umrob/M2/ros-2-planar-robot-p-3/install/ros2_planar_robot/share/ros2_planar_robot/cmake/ros2_planar_robot__rosidl_typesupport_cppExport-noconfig.cmake\n'}
[12.644803] (ros2_planar_robot) StdoutLine: {'line': b'-- Up-to-date: /home/umrob/M2/ros-2-planar-robot-p-3/install/ros2_planar_robot/share/ros2_planar_robot/cmake/export_ros2_planar_robot__rosidl_generator_pyExport.cmake\n'}
[12.644858] (ros2_planar_robot) StdoutLine: {'line': b'-- Up-to-date: /home/umrob/M2/ros-2-planar-robot-p-3/install/ros2_planar_robot/share/ros2_planar_robot/cmake/export_ros2_planar_robot__rosidl_generator_pyExport-noconfig.cmake\n'}
[12.646374] (ros2_planar_robot) CommandEnded: {'returncode': 0}
[12.741079] (-) TimerEvent: {}
[12.842888] (-) TimerEvent: {}
[12.916092] (ros2_planar_robot) JobEnded: {'identifier': 'ros2_planar_robot', 'rc': 0}
[12.916794] (-) EventReactorShutdown: {}
